0 Sticker  0.8 x  1.9 with "240457 P" and "t 1880 kg"
0 Name: 169675f.dat
0 Author: Ulrich Röder [UR]
0 !LDRAW_ORG Part UPDATE 2019-02
0 !LICENSE Licensed under CC BY 4.0 : see CAreadme.txt

0 BFC CERTIFY CCW

0 !KEYWORDS Cargo, Set 4555, Station, Train, Transport

0 !HISTORY 2019-09-09 [PTadmin] Official Update 2019-02


0 // Main

1 16 0 -.25 0 19 0 0 0 .25 0 0 0 7.5 box5-12.dat
1 16 -15 -.25 3.5 5 0 0 0 1 0 0 0 5 type-swiss721bt-bold-n2.dat
1 16 -10.75 -.25 3.5 5 0 0 0 1 0 0 0 5 type-swiss721bt-bold-n4.dat
1 16 -6.5 -.25 3.5 5 0 0 0 1 0 0 0 5 type-swiss721bt-bold-n0.dat
1 16 -2.25 -.25 3.5 5 0 0 0 1 0 0 0 5 type-swiss721bt-bold-n4.dat
1 16 2.25 -.25 3.5 5 0 0 0 1 0 0 0 5 type-swiss721bt-bold-n5.dat
1 16 7 -.25 3.5 5 0 0 0 1 0 0 0 5 type-swiss721bt-bold-n7.dat
1 16 15.5 -.25 3.5 4 0 0 0 1 0 0 0 4 type-swiss721bt-bold-up.dat
1 16 -15.75 -.25 -3 5 0 0 0 1 0 0 0 5 type-swiss721bt-bold-lt.dat
1 16 -10.75 -.25 -3 5 0 0 0 1 0 0 0 5 type-swiss721bt-bold-n1.dat
1 16 -6.5 -.25 -3 5 0 0 0 1 0 0 0 5 type-swiss721bt-bold-n8.dat
1 16 -2.25 -.25 -3 5 0 0 0 1 0 0 0 5 type-swiss721bt-bold-n8.dat
1 16 2.25 -.25 -3 5 0 0 0 1 0 0 0 5 type-swiss721bt-bold-n0.dat
1 16 11 -.25 -3 5 0 0 0 1 0 0 0 5 type-swiss721bt-bold-lk.dat
1 16 15.5 -.25 -3 5 0 0 0 1 0 0 0 5 type-swiss721bt-bold-lg.dat
3 16 -13.225 -.25 1 -13.28 -.25 1 -11.8375 -.25 -.5
3 16 -13.225 -.25 1 -11.8375 -.25 -.5 -12.6375 -.25 1
4 16 -10.4675 -.25 -.5 -10.4725 -.25 1 -12.6375 -.25 1 -11.8375 -.25 -.5
4 16 -10.4675 -.25 -.5 -9.6625 -.25 -.5 -9.4625 -.25 1 -10.4725 -.25 1
3 16 -9.4625 -.25 1 -9.6625 -.25 -.5 -8.8625 -.25 1
4 16 -8.25 -.25 -3.985 -8.25 -.25 -.5 -8.8625 -.25 1 -9.6625 -.25 -.5
3 16 -8.8625 -.25 1 -8.25 -.25 -.5 -8.25 -.25 1
4 16 -8.25 -.25 1 -8.25 -.25 -.5 -6.5 -.25 -.5 -6.5 -.25 1
4 16 -4.75 -.25 -.5 -4.75 -.25 1 -6.5 -.25 1 -6.5 -.25 -.5
4 16 -4.75 -.25 1 -4.75 -.25 -.5 -4 -.25 -.5 -4.1375 -.25 1
4 16 -2.25 -.25 -.5 -1.9725 -.25 1 -4.1375 -.25 1 -4 -.25 -.5
4 16 -1.9725 -.25 1 -2.25 -.25 -.5 -.5 -.25 -.5 -.9625 -.25 1
4 16 -.9625 -.25 1 -.5 -.25 -.5 .5 -.25 -.5 -.3625 -.25 1
4 16 -.3625 -.25 1 .5 -.25 -.5 2.25 -.25 -.5 .46 -.25 1
4 16 4 -.25 -.5 2.175 -.25 1 .46 -.25 1 2.25 -.25 -.5
3 16 2.175 -.25 1 4 -.25 -.5 4.04 -.25 1
3 16 4.04 -.25 1 4 -.25 -.5 5.1775 -.25 1
4 16 5.1775 -.25 5.115 4.04 -.25 2.765 4.04 -.25 1 5.1775 -.25 1
4 16 4.04 -.25 2.765 5.1775 -.25 5.115 5.1775 -.25 6 4.04 -.25 6
3 16 -.3625 -.25 1 .46 -.25 1 .46 -.25 2.485
4 16 -.3625 -.25 2.115 -.3625 -.25 1 .46 -.25 2.485 .46 -.25 6
3 16 .46 -.25 6 -.3625 -.25 2.93 -.3625 -.25 2.115
3 16 -.3625 -.25 2.93 .46 -.25 6 -.3625 -.25 6
4 16 -4.75 -.25 3.49 -4.75 -.25 1 -4.1375 -.25 1 -4.1375 -.25 2.115
4 16 -4.75 -.25 6 -4.75 -.25 3.49 -4.1375 -.25 2.115 -4.1375 -.25 3.01
3 16 -4.75 -.25 6 -4.1375 -.25 3.01 -4.1375 -.25 6
3 16 -4.75 -.25 6 -4.1375 -.25 6 -3 -.25 7
3 16 -3 -.25 7 -4.1375 -.25 6 -2.2375 -.25 6
3 16 -3 -.25 7 -2.2375 -.25 6 -.9625 -.25 6
4 16 8.8225 -.25 5.23 8.8225 -.25 1 13 -.25 1 13 -.25 6
3 16 13 -.25 6 8.8225 -.25 6 8.8225 -.25 5.23
4 16 15.295 -.25 -1.915 13 -.25 1 12.7025 -.25 -.5 13.83 -.25 -1.915
4 16 17.17 -.25 -1.915 18 -.25 1 13 -.25 1 15.295 -.25 -1.915
4 16 17.17 -.25 -2.04 18 -.25 -3 18 -.25 1 17.17 -.25 -1.915
4 16 19 -.25 -7.5 18 -.25 -3 17.17 -.25 -2.04 17.17 -.25 -5.265
3 16 19 -.25 -7.5 17.17 -.25 -5.265 17.17 -.25 -6.915
3 16 17.17 -.25 -6.915 15.45 -.25 -6.915 19 -.25 -7.5
4 16 13.83 -.25 -1.915 12.7025 -.25 -.5 12.7025 -.25 -5.5 13.83 -.25 -3.75
3 16 13.83 -.25 -3.75 12.7025 -.25 -5.5 13.83 -.25 -6.915
3 16 19 -.25 7.5 18 -.25 6 18 -.25 1
4 16 18 -.25 1 18 -.25 -3 19 -.25 -7.5 19 -.25 7.5
4 16 18 -.25 6 19 -.25 7.5 -3 -.25 7 13 -.25 6
3 16 8.8225 -.25 6 13 -.25 6 -3 -.25 7
3 16 -3 -.25 7 5.1775 -.25 6 8.8225 -.25 6
3 16 -3 -.25 7 4.04 -.25 6 5.1775 -.25 6
3 16 -3 -.25 7 3.83 -.25 6 4.04 -.25 6
3 16 -3 -.25 7 .95 -.25 6 3.83 -.25 6
3 16 -3 -.25 7 .46 -.25 6 .95 -.25 6
3 16 -3 -.25 7 -.3625 -.25 6 .46 -.25 6
3 16 -3 -.25 7 -.9625 -.25 6 -.3625 -.25 6
4 16 6.9825 -.25 1 5.9025 -.25 1 10.2575 -.25 -.5 12.7025 -.25 -.5
3 16 5.9025 -.25 1 9.2975 -.25 -.5 10.2575 -.25 -.5
4 16 5.1775 -.25 1 4 -.25 -.5 9.2975 -.25 -.5 5.9025 -.25 1
3 16 8.8225 -.25 1 6.9825 -.25 1 12.7025 -.25 -.5
3 16 12.7025 -.25 -.5 13 -.25 1 8.8225 -.25 1
3 16 -16.775 -.25 6 -14.92 -.25 6 -19 -.25 7.5
3 16 -19 -.25 7.5 -14.92 -.25 6 -13.225 -.25 6
3 16 -13.225 -.25 6 -12.6375 -.25 6 -19 -.25 7.5
3 16 -12.6375 -.25 6 -10.7375 -.25 6 -19 -.25 7.5
3 16 -4.75 -.25 6 -3 -.25 7 -6.5 -.25 6
3 16 -6.5 -.25 6 -3 -.25 7 -8.25 -.25 6
3 16 -8.25 -.25 6 -3 -.25 7 -8.8625 -.25 6
3 16 -8.8625 -.25 6 -3 -.25 7 -9.4625 -.25 6
4 16 -10.7375 -.25 6 -9.4625 -.25 6 -3 -.25 7 -19 -.25 7.5
3 16 -3 -.25 7 19 -.25 7.5 -19 -.25 7.5
4 16 9.2975 -.25 -5.5 9.2975 -.25 -.5 4 -.25 -.5 4 -.25 -3.01
3 16 9.2975 -.25 -5.5 4 -.25 -3.01 4 -.25 -5.5
4 16 15.45 -.25 -6.915 13.83 -.25 -6.915 -4.5 -.25 -7 19 -.25 -7.5
4 16 -4.75 -.25 -3.985 -4.75 -.25 -5.5 -4.5 -.25 -7 -4 -.25 -5.5
3 16 -6.5 -.25 -5.5 -4.5 -.25 -7 -4.75 -.25 -5.5
3 16 -6.5 -.25 -5.5 -8.25 -.25 -5.5 -4.5 -.25 -7
3 16 -2.25 -.25 -5.5 -4 -.25 -5.5 -4.5 -.25 -7
3 16 -.5 -.25 -5.5 -2.25 -.25 -5.5 -4.5 -.25 -7
3 16 -4.5 -.25 -7 .5 -.25 -5.5 -.5 -.25 -5.5
3 16 -4.5 -.25 -7 2.25 -.25 -5.5 .5 -.25 -5.5
4 16 -4.5 -.25 -7 13.83 -.25 -6.915 4 -.25 -5.5 2.25 -.25 -5.5
3 16 9.2975 -.25 -5.5 4 -.25 -5.5 13.83 -.25 -6.915
3 16 10.2575 -.25 -5.5 9.2975 -.25 -5.5 13.83 -.25 -6.915
3 16 11.5175 -.25 -5.5 10.2575 -.25 -5.5 13.83 -.25 -6.915
3 16 13.83 -.25 -6.915 12.7025 -.25 -5.5 11.5175 -.25 -5.5
4 16 .5 -.25 -3 -.5 -.25 -3.985 -.5 -.25 -5.5 .5 -.25 -5.5
4 16 -.5 -.25 -3.985 .5 -.25 -3 .5 -.25 -.5 -.5 -.25 -.5
4 16 -4 -.25 -3.985 -4 -.25 -.5 -4.75 -.25 -.5 -4.75 -.25 -3.985
3 16 -4.75 -.25 -3.985 -4 -.25 -5.5 -4 -.25 -3.985
4 16 -9.6625 -.25 -.5 -9.6625 -.25 -5.5 -8.25 -.25 -5.5 -8.25 -.25 -3.985
4 16 -14.675 -.25 -1.565 -11.8375 -.25 -1.38 -11.8375 -.25 -.5 -14.675 -.25 -.5
4 16 -14.675 -.25 -2.295 -11.8375 -.25 -2.085 -11.8375 -.25 -1.38 -14.675 -.25 -1.565
4 16 -13.28 -.25 1 -16.775 -.25 1 -14.675 -.25 -.5 -11.8375 -.25 -.5
3 16 -15.28 -.25 -.5 -14.675 -.25 -.5 -16.775 -.25 1
3 16 -16.775 -.25 1 -16.31 -.25 -.5 -15.28 -.25 -.5
3 16 -16.775 -.25 1 -16.825 -.25 -.5 -16.31 -.25 -.5
4 16 -12.6375 -.25 1 -12.6375 -.25 2.115 -13.225 -.25 4.46 -13.225 -.25 1
4 16 -13.225 -.25 6 -13.225 -.25 4.46 -12.6375 -.25 3.01 -12.6375 -.25 6
3 16 -13.225 -.25 4.46 -12.6375 -.25 2.115 -12.6375 -.25 3.01
4 16 -16.775 -.25 6 -19 -.25 7.5 -16.825 -.25 -.5 -16.775 -.25 1
4 16 -19 -.25 7.5 -19 -.25 -7.5 -16.825 -.25 -1.565 -16.825 -.25 -.5
3 16 -19 -.25 -7.5 -16.825 -.25 -2.295 -16.825 -.25 -1.565
3 16 -19 -.25 -7.5 -16.825 -.25 -5.5 -16.825 -.25 -2.295
4 16 -19 -.25 -7.5 -4.5 -.25 -7 -9.6625 -.25 -5.5 -10.6425 -.25 -5.5
3 16 -4.5 -.25 -7 -8.25 -.25 -5.5 -9.6625 -.25 -5.5
3 16 19 -.25 -7.5 -4.5 -.25 -7 -19 -.25 -7.5
4 16 -8.25 -.25 3.5 -8.8625 -.25 2.115 -8.8625 -.25 1 -8.25 -.25 1
4 16 -8.25 -.25 6 -8.8625 -.25 2.93 -8.8625 -.25 2.115 -8.25 -.25 3.5
3 16 -8.8625 -.25 2.93 -8.25 -.25 6 -8.8625 -.25 6
4 16 13.972 -.25 5.5 13.25 -.25 5.75 13.25 -.25 1.25 13.972 -.25 1.5
4 16 17.75 -.25 5.75 13.25 -.25 5.75 13.972 -.25 5.5 15.752 -.25 5.5
3 16 17.75 -.25 5.75 15.752 -.25 5.5 17.028 -.25 5.5
4 16 17.028 -.25 4.212 17.75 -.25 1.25 17.75 -.25 5.75 17.028 -.25 5.5
3 16 17.75 -.25 1.25 17.028 -.25 4.212 17.028 -.25 1.5
4 16 13.25 -.25 1.25 17.75 -.25 1.25 17.028 -.25 1.5 14.792 -.25 1.5
3 16 14.792 -.25 1.5 13.972 -.25 1.5 13.25 -.25 1.25

0 // Black
4 0 17.75 -.25 5.75 18 -.25 6 13 -.25 6 13.25 -.25 5.75
4 0 13.25 -.25 1.25 13 -.25 1 18 -.25 1 17.75 -.25 1.25
4 0 17.75 -.25 1.25 18 -.25 1 18 -.25 6 17.75 -.25 5.75
4 0 13.25 -.25 5.75 13 -.25 6 13 -.25 1 13.25 -.25 1.25
4 16 -14.675 -.25 -5.5 -11.8375 -.25 -5.5 -11.8375 -.25 -2.085 -14.675 -.25 -4.7
3 16 -14.675 -.25 -4.7 -11.8375 -.25 -2.085 -14.675 -.25 -2.295
3 16 -15.27 -.25 -5.5 -16.825 -.25 -5.5 -19 -.25 -7.5
3 16 -15.27 -.25 -5.5 -19 -.25 -7.5 -14.675 -.25 -5.5
3 16 -14.675 -.25 -5.5 -19 -.25 -7.5 -11.8375 -.25 -5.5
3 16 -11.8375 -.25 -5.5 -19 -.25 -7.5 -10.6425 -.25 -5.5
