0 Sticker  2.3 x  1.9 with Eye Chart
0 Name: 199027d.dat
0 Author: Takeshi Takahashi [RainbowDolphin]
0 !LDRAW_ORG Part UPDATE 2022-05
0 !LICENSE Licensed under CC BY 4.0 : see CAreadme.txt

0 BFC CERTIFY CCW

0 !KEYWORDS Hospital, Set 6364

0 !HISTORY 2022-09-15 [PTadmin] Official Update 2022-05


1 16 0 -0.25 0 19 0 0 0 0.25 0 0 0 23 box5-12.dat
4 0 16 -0.25 22 -16 -0.25 22 -15 -0.25 21 15 -0.25 21
4 0 -2.7 -0.25 16.5 -3.3 -0.25 15.5 -2.9 -0.25 15.3 -1.7 -0.25 16.4
4 0 -2.7 -0.25 16.5 -1.7 -0.25 16.4 -1.7 -0.25 17.5 -2.7 -0.25 17.8
4 0 -2.1 -0.25 18.5 -2.7 -0.25 17.8 -1.7 -0.25 17.5 -1.1 -0.25 17.7
4 0 -0.9 -0.25 18.8 -2.1 -0.25 18.5 -1.1 -0.25 17.7 -0.5 -0.25 17.6
4 0 0.1 -0.25 18.6 -0.9 -0.25 18.8 -0.5 -0.25 17.6 0.6 -0.25 17.9
4 0 0.6 -0.25 17.9 -0.5 -0.25 17.6 -0.2 -0.25 16.9 0.8 -0.25 16.9
4 0 0.5 -0.25 15.8 0.8 -0.25 16.9 -0.2 -0.25 16.9 -0.8 -0.25 15.7
4 0 -0.9 -0.25 13.6 0.5 -0.25 15.8 -0.8 -0.25 15.7 -3.1 -0.25 12.7
4 0 -2.1 -0.25 11.6 -0.9 -0.25 13.6 -3.1 -0.25 12.7 -3.7 -0.25 11.7
4 0 -2.2 -0.25 10.8 -2.1 -0.25 11.6 -3.7 -0.25 11.7 -3.8 -0.25 10.2
4 0 -2.2 -0.25 10.8 -3.8 -0.25 10.2 -3.3 -0.25 9.3 -1.6 -0.25 10.3
4 0 -1.6 -0.25 10.3 -3.3 -0.25 9.3 -2.8 -0.25 9.1 3.9 -0.25 9.1
4 0 3.3 -0.25 10.3 -1.6 -0.25 10.3 3.9 -0.25 9.1 4.6 -0.25 9.7
4 0 4.5 -0.25 10.5 3.3 -0.25 10.3 4.6 -0.25 9.7 4.9 -0.25 10.4
4 0 -1.6 -0.25 10.3 3.3 -0.25 10.3 2.8 -0.25 11.3 -0.9 -0.25 10.9
3 0 1.7 -0.25 11.7 -0.9 -0.25 10.9 2.8 -0.25 11.3
4 0 0 -0.25 12.5 -0.9 -0.25 10.9 1.7 -0.25 11.7 1.7 -0.25 12.2
4 0 0.7 -0.25 13.7 0 -0.25 12.5 1.7 -0.25 12.2 1.7 -0.25 14.2
4 0 1.7 -0.25 14.2 1.7 -0.25 12.2 2.5 -0.25 12.4 3 -0.25 13.8
4 0 3 -0.25 13.8 2.5 -0.25 12.4 3.8 -0.25 11.9 4.7 -0.25 12.9
4 0 4.7 -0.25 12.9 3.8 -0.25 11.9 5.1 -0.25 11.8 6 -0.25 12.4
4 0 6.2 -0.25 13.1 4.7 -0.25 12.9 6 -0.25 12.4 6.5 -0.25 12.8
4 0 -5.6 -0.25 7.7 -7 -0.25 7.7 -6.6 -0.25 7.1 -6 -0.25 7.1
3 0 -7 -0.25 7.7 -7 -0.25 7.1 -6.6 -0.25 7.1
3 0 -5.6 -0.25 7.7 -6 -0.25 7.1 -5.6 -0.25 7.1
4 0 -6 -0.25 7.1 -6.6 -0.25 7.1 -6.6 -0.25 6 -6 -0.25 6
4 0 -9 -0.25 3.7 -6.6 -0.25 6 -9 -0.25 6 -9.5 -0.25 3.7
4 0 -3.6 -0.25 3.7 -3.6 -0.25 6 -6 -0.25 6 -9 -0.25 3.7
3 0 -6 -0.25 6 -6.6 -0.25 6 -9 -0.25 3.7
3 0 -9 -0.25 6 -10 -0.25 3.7 -9.5 -0.25 3.7
4 0 -3.1 -0.25 3.7 -3.6 -0.25 6 -3.6 -0.25 3.7 -3.1 -0.25 0.4
3 0 -3.6 -0.25 6 -3.1 -0.25 3.7 -2.6 -0.25 3.7
4 0 -9 -0.25 0.9 -9 -0.25 3.7 -9.5 -0.25 3.7 -9.5 -0.25 0.4
4 0 -6.6 -0.25 0.9 -9 -0.25 0.9 -9.5 -0.25 0.4 -3.1 -0.25 0.4
3 0 -6 -0.25 0.9 -6.6 -0.25 0.9 -3.1 -0.25 0.4
3 0 -3.6 -0.25 0.9 -6 -0.25 0.9 -3.1 -0.25 0.4
3 0 -3.6 -0.25 3.7 -3.6 -0.25 0.9 -3.1 -0.25 0.4
4 0 -6.6 -0.25 3 -6.6 -0.25 0.9 -6 -0.25 0.9 -6 -0.25 3
4 0 -7.6 -0.25 3.1 -8.2 -0.25 3.1 -8.2 -0.25 1.8 -7.6 -0.25 1.8
4 0 -4.5 -0.25 3.1 -5.1 -0.25 3.1 -5.1 -0.25 1.8 -4.5 -0.25 1.8
4 15 -8.2 -0.25 1.8 -8.2 -0.25 3.1 -9 -0.25 3.7 -9 -0.25 0.9
4 15 -7.6 -0.25 1.8 -8.2 -0.25 1.8 -9 -0.25 0.9 -6.6 -0.25 0.9
4 15 -7.6 -0.25 1.8 -6.6 -0.25 0.9 -6.6 -0.25 3 -7.6 -0.25 3.1
4 15 -5.1 -0.25 1.8 -5.1 -0.25 3.1 -6 -0.25 3 -6 -0.25 0.9
4 15 -4.5 -0.25 1.8 -5.1 -0.25 1.8 -6 -0.25 0.9 -3.6 -0.25 0.9
4 15 -4.5 -0.25 1.8 -3.6 -0.25 0.9 -3.6 -0.25 3.7 -4.5 -0.25 3.1
3 15 -3.6 -0.25 3.7 -5.1 -0.25 3.1 -4.5 -0.25 3.1
4 15 -6 -0.25 3 -5.1 -0.25 3.1 -3.6 -0.25 3.7 -9 -0.25 3.7
4 15 -6.6 -0.25 3 -6 -0.25 3 -9 -0.25 3.7 -7.6 -0.25 3.1
3 15 -9 -0.25 3.7 -8.2 -0.25 3.1 -7.6 -0.25 3.1
4 0 5.7 -0.25 4.8 4.8 -0.25 4.8 5.7 -0.25 2.2 6.4 -0.25 2.2
4 0 7.3 -0.25 4.7 6.5 -0.25 4.7 7.3 -0.25 2.2 8 -0.25 2.2
4 0 9.2 -0.25 2 9.6 -0.25 3 8.6 -0.25 3 8.6 -0.25 2.2
4 15 5.7 -0.25 1.5 5.1 -0.25 1.5 5.1 -0.25 0.9 5.7 -0.25 0.9
4 15 7.1 -0.25 1.5 6.5 -0.25 1.5 6.5 -0.25 0.9 7.1 -0.25 0.9
4 15 8.5 -0.25 1.5 7.9 -0.25 1.5 7.9 -0.25 0.9 8.5 -0.25 0.9
4 0 1.8 -0.25 1.5 1.5 -0.25 2.1 1 -0.25 2.1 0.6 -0.25 1.7
4 0 1.8 -0.25 1.5 0.6 -0.25 1.7 0.7 -0.25 1.1 1.9 -0.25 0.8
4 0 3.7 -0.25 1.5 1.8 -0.25 1.5 1.9 -0.25 0.8 3.9 -0.25 1.2
4 0 3.9 -0.25 1.2 1.9 -0.25 0.8 2.2 -0.25 0.2 5.1 -0.25 0.9
3 0 5.7 -0.25 0.9 5.1 -0.25 0.9 2.2 -0.25 0.2
3 0 6.5 -0.25 0.9 5.7 -0.25 0.9 2.2 -0.25 0.2
4 0 7.1 -0.25 0.9 6.5 -0.25 0.9 2.2 -0.25 0.2 11.6 -0.25 0.2
3 0 7.9 -0.25 0.9 7.1 -0.25 0.9 11.6 -0.25 0.2
3 0 8.5 -0.25 0.9 7.9 -0.25 0.9 11.6 -0.25 0.2
4 0 9.6 -0.25 1.2 8.5 -0.25 0.9 11.6 -0.25 0.2 10.5 -0.25 1.2
4 0 10.5 -0.25 1.2 11.6 -0.25 0.2 13.2 -0.25 1.7 10.9 -0.25 1.7
4 0 4.6 -0.25 1.4 3.9 -0.25 1.2 5.1 -0.25 0.9 5.1 -0.25 1.5
4 0 4.9 -0.25 2.2 4.6 -0.25 1.4 5.1 -0.25 1.5 5.7 -0.25 2.2
4 0 5.7 -0.25 2.2 5.1 -0.25 1.5 5.7 -0.25 1.5 6.4 -0.25 2.2
4 0 6.5 -0.25 1.5 6.4 -0.25 2.2 5.7 -0.25 1.5 5.7 -0.25 0.9
3 0 6.5 -0.25 1.5 5.7 -0.25 0.9 6.5 -0.25 0.9
4 0 7.3 -0.25 2.2 6.4 -0.25 2.2 6.5 -0.25 1.5 7.1 -0.25 1.5
4 0 8 -0.25 2.2 7.3 -0.25 2.2 7.1 -0.25 1.5 7.9 -0.25 1.5
4 0 7.9 -0.25 1.5 7.1 -0.25 1.5 7.1 -0.25 0.9 7.9 -0.25 0.9
4 0 8.6 -0.25 2.2 8 -0.25 2.2 7.9 -0.25 1.5 8.5 -0.25 1.5
4 0 9.2 -0.25 2 8.6 -0.25 2.2 8.5 -0.25 1.5 9.6 -0.25 1.2
3 0 8.5 -0.25 1.5 8.5 -0.25 0.9 9.6 -0.25 1.2
4 0 -11.1 -0.25 -0.9 -11.5 -0.25 -4.4 -10 -0.25 -3.4 -10.7 -0.25 -0.9
4 0 -10 -0.25 -3.4 -11.5 -0.25 -4.4 -11.2 -0.25 -5 -9.7 -0.25 -4
4 0 -11.2 -0.25 -5 -11.5 -0.25 -4.4 -12.9 -0.25 -5.5 -12.7 -0.25 -5.8
4 0 -9.7 -0.25 -4 -11.2 -0.25 -5 -8.1 -0.25 -5.4 -7.9 -0.25 -5
4 0 -8.4 -0.25 -2.4 -10 -0.25 -3.4 -9.7 -0.25 -4 -8.1 -0.25 -2.9
4 0 -7.8 -0.25 -2.2 -8.4 -0.25 -2.4 -8.1 -0.25 -2.9 -7.6 -0.25 -2.5
3 0 -7.2 -0.25 -2.1 -7.8 -0.25 -2.2 -7.6 -0.25 -2.5
4 0 -8.3 -0.25 -1.2 -8.4 -0.25 -2.4 -7.8 -0.25 -2.2 -7.8 -0.25 -1.2
4 0 -7.6 -0.25 -2.5 -8.1 -0.25 -2.9 -7.3 -0.25 -3.3 -7 -0.25 -3
4 0 -2.2 -0.25 -3.4 -1.7 -0.25 -2.3 -2.5 -0.25 -2.5 -2.8 -0.25 -3.5
4 0 -2.8 -0.25 -3.5 -2.5 -0.25 -2.5 -3.4 -0.25 -3.3 -3.5 -0.25 -4.2
3 0 -3.4 -0.25 -3.3 -3.7 -0.25 -3.9 -3.5 -0.25 -4.2
4 0 -1.7 -0.25 -2.3 -2.2 -0.25 -3.4 -1.7 -0.25 -3.7 -0.5 -0.25 -2.8
4 0 -1.7 -0.25 -3.7 -2.2 -0.25 -3.4 -2.7 -0.25 -4.1 -2.1 -0.25 -4.5
4 0 -2.1 -0.25 -4.5 -2.7 -0.25 -4.1 -2.7 -0.25 -5 -2.2 -0.25 -5.6
3 0 -2.7 -0.25 -5 -2.5 -0.25 -5.6 -2.2 -0.25 -5.6
4 0 -0.5 -0.25 -2.8 -1.7 -0.25 -3.7 -0.4 -0.25 -3.8 0.2 -0.25 -3.7
4 0 0.2 -0.25 -3.7 -0.4 -0.25 -3.8 -0.3 -0.25 -5.6 0.1 -0.25 -5.6
4 0 -0.5 -0.25 -2.8 0.2 -0.25 -3.7 0.4 -0.25 -2.7 0 -0.25 -1.7
4 0 0.5 -0.25 -1.3 0 -0.25 -1.7 0.4 -0.25 -2.7 0.9 -0.25 -2.2
4 0 1.4 -0.25 -1.3 0.5 -0.25 -1.3 0.9 -0.25 -2.2 1.7 -0.25 -2.5
3 0 0.9 -0.25 -2.2 1.3 -0.25 -2.8 1.7 -0.25 -2.5
4 15 9.1 -0.25 -3.3 9.1 -0.25 -2.2 8.3 -0.25 -2.2 7.5 -0.25 -3.3
4 15 10.5 -0.25 -2.4 9.6 -0.25 -2.2 9.6 -0.25 -3.3 11 -0.25 -2.8
3 15 11 -0.25 -2.8 9.6 -0.25 -3.3 11.1 -0.25 -3.3
4 15 6.5 -0.25 -4.7 6 -0.25 -4.7 6 -0.25 -5.2 6.5 -0.25 -5.2
4 0 6.5 -0.25 -4.3 6 -0.25 -4.3 6 -0.25 -4.7 6.5 -0.25 -4.7
3 0 6.5 -0.25 -4.3 6.5 -0.25 -4.7 6.9 -0.25 -4.7
4 0 6.9 -0.25 -4.7 6.5 -0.25 -4.7 6.5 -0.25 -5.2 6.9 -0.25 -5.2
3 0 6.9 -0.25 -5.2 6.5 -0.25 -5.2 6.5 -0.25 -5.6
4 0 6.5 -0.25 -5.6 6.5 -0.25 -5.2 6 -0.25 -5.2 6 -0.25 -5.6
3 0 6 -0.25 -5.2 5.6 -0.25 -5.2 6 -0.25 -5.6
4 0 5.6 -0.25 -5.2 6 -0.25 -5.2 6 -0.25 -4.7 5.6 -0.25 -4.7
3 0 6 -0.25 -4.3 5.6 -0.25 -4.7 6 -0.25 -4.7
4 15 11.3 -0.25 -4.7 10.8 -0.25 -4.7 10.8 -0.25 -5.2 11.3 -0.25 -5.2
4 0 11.3 -0.25 -4.3 10.8 -0.25 -4.3 10.8 -0.25 -4.7 11.3 -0.25 -4.7
3 0 11.3 -0.25 -4.3 11.3 -0.25 -4.7 11.7 -0.25 -4.7
4 0 11.7 -0.25 -4.7 11.3 -0.25 -4.7 11.3 -0.25 -5.2 11.7 -0.25 -5.2
3 0 11.7 -0.25 -5.2 11.3 -0.25 -5.2 11.3 -0.25 -5.6
4 0 11.3 -0.25 -5.6 11.3 -0.25 -5.2 10.8 -0.25 -5.2 10.8 -0.25 -5.6
3 0 10.8 -0.25 -5.2 10.4 -0.25 -5.2 10.8 -0.25 -5.6
4 0 10.4 -0.25 -5.2 10.8 -0.25 -5.2 10.8 -0.25 -4.7 10.4 -0.25 -4.7
3 0 10.8 -0.25 -4.3 10.4 -0.25 -4.7 10.8 -0.25 -4.7
4 0 7.5 -0.25 -3.3 8.3 -0.25 -2.2 8 -0.25 -1.8 7.1 -0.25 -3
4 0 6.8 -0.25 -4 7.5 -0.25 -3.3 7.1 -0.25 -3 4.9 -0.25 -3
4 0 5.7 -0.25 -4 6.8 -0.25 -4 4.9 -0.25 -3 4.7 -0.25 -3.3
4 0 5.4 -0.25 -4.4 5.7 -0.25 -4 4.7 -0.25 -3.3 4.6 -0.25 -4
4 0 5.4 -0.25 -4.4 4.6 -0.25 -4 5 -0.25 -5.2 5.4 -0.25 -5.2
4 0 7.5 -0.25 -3.3 6.8 -0.25 -4 8.3 -0.25 -5.2 9.1 -0.25 -3.3
4 0 9.1 -0.25 -3.3 8.3 -0.25 -5.2 9.9 -0.25 -5.2 10.1 -0.25 -4.2
3 0 9.6 -0.25 -3.3 9.1 -0.25 -3.3 10.1 -0.25 -4.2
4 0 11.1 -0.25 -3.3 9.6 -0.25 -3.3 10.1 -0.25 -4.2 10.6 -0.25 -3.9
4 0 11.8 -0.25 -3.3 11.1 -0.25 -3.3 10.6 -0.25 -3.9 11.7 -0.25 -3.9
4 0 12.9 -0.25 -3.4 11.8 -0.25 -3.3 11.7 -0.25 -3.9 12.1 -0.25 -4.3
4 0 13.5 -0.25 -3.6 12.9 -0.25 -3.4 12.1 -0.25 -4.3 12.2 -0.25 -5.2
3 0 13.5 -0.25 -3.6 12.2 -0.25 -5.2 12.8 -0.25 -5.2
3 0 8 -0.25 -1.8 8.3 -0.25 -2.2 9.1 -0.25 -2.2
4 0 8 -0.25 -1.8 9.1 -0.25 -2.2 9.6 -0.25 -2.2 10.1 -0.25 -1.8
4 0 10.1 -0.25 -1.8 9.6 -0.25 -2.2 10.5 -0.25 -2.4 11 -0.25 -2.1
4 0 11 -0.25 -2.1 10.5 -0.25 -2.4 11 -0.25 -2.8 11.5 -0.25 -2.7
4 0 11.5 -0.25 -2.7 11 -0.25 -2.8 11.1 -0.25 -3.3 11.8 -0.25 -3.3
4 0 9.6 -0.25 -2.2 9.1 -0.25 -2.2 9.1 -0.25 -3.3 9.6 -0.25 -3.3
4 0 -12.4 -0.25 -7.3 -12.8 -0.25 -7.3 -12.8 -0.25 -8 -12.4 -0.25 -8
4 0 -12.4 -0.25 -8 -12.8 -0.25 -8 -12.8 -0.25 -8.6 -12.4 -0.25 -8.6
4 0 -12.4 -0.25 -8 -12.4 -0.25 -8.6 -12 -0.25 -8 -12.2 -0.25 -7.7
4 0 -13.2 -0.25 -8 -12.8 -0.25 -8.6 -12.8 -0.25 -8 -13 -0.25 -7.7
4 0 -12.4 -0.25 -8.6 -12.8 -0.25 -8.6 -12.8 -0.25 -9 -12.4 -0.25 -9
4 0 -12.4 -0.25 -9 -12.8 -0.25 -9 -12.8 -0.25 -9.6 -12.4 -0.25 -9.6
4 0 -12.8 -0.25 -9.6 -12.8 -0.25 -9 -13.3 -0.25 -8.7 -13.5 -0.25 -9
4 0 -11.9 -0.25 -8.7 -12.4 -0.25 -9 -12.4 -0.25 -9.6 -11.7 -0.25 -9
4 0 -12.4 -0.25 -9.6 -12.8 -0.25 -9.6 -12.8 -0.25 -9.9 -12.4 -0.25 -9.9
4 0 -12.4 -0.25 -9.9 -12.8 -0.25 -9.9 -12.9 -0.25 -10.5 -12.3 -0.25 -10.5
4 0 -12.9 -0.25 -10.5 -12.8 -0.25 -9.9 -13.6 -0.25 -9.4 -13.9 -0.25 -9.7
4 0 -11.6 -0.25 -9.4 -12.4 -0.25 -9.9 -12.3 -0.25 -10.5 -11.3 -0.25 -9.7
4 0 -12.3 -0.25 -10.5 -12.9 -0.25 -10.5 -12.9 -0.25 -11.6 -12.3 -0.25 -11.6
4 15 -6.43 -0.25 -9.6 -6.43 -0.25 -8.78 -7.02 -0.25 -8.78 -7.62 -0.25 -9.6
4 15 -5.37 -0.25 -8.93 -6.05 -0.25 -8.78 -6.05 -0.25 -9.6 -5 -0.25 -9.23
3 15 -5 -0.25 -9.23 -6.05 -0.25 -9.6 -4.93 -0.25 -9.6
4 15 -8.38 -0.25 -10.65 -8.75 -0.25 -10.65 -8.75 -0.25 -11.03 -8.38 -0.25 -11.03
4 0 -8.38 -0.25 -10.35 -8.75 -0.25 -10.35 -8.75 -0.25 -10.65 -8.38 -0.25 -10.65
3 0 -8.38 -0.25 -10.35 -8.38 -0.25 -10.65 -8.07 -0.25 -10.65
4 0 -8.07 -0.25 -10.65 -8.38 -0.25 -10.65 -8.38 -0.25 -11.03 -8.07 -0.25 -11.03
3 0 -8.07 -0.25 -11.03 -8.38 -0.25 -11.03 -8.38 -0.25 -11.33
4 0 -8.38 -0.25 -11.33 -8.38 -0.25 -11.03 -8.75 -0.25 -11.03 -8.75 -0.25 -11.33
3 0 -8.75 -0.25 -11.03 -9.05 -0.25 -11.03 -8.75 -0.25 -11.33
4 0 -9.05 -0.25 -11.03 -8.75 -0.25 -11.03 -8.75 -0.25 -10.65 -9.05 -0.25 -10.65
3 0 -8.75 -0.25 -10.35 -9.05 -0.25 -10.65 -8.75 -0.25 -10.65
4 15 -4.78 -0.25 -10.65 -5.15 -0.25 -10.65 -5.15 -0.25 -11.03 -4.77 -0.25 -11.03
4 0 -4.78 -0.25 -10.35 -5.15 -0.25 -10.35 -5.15 -0.25 -10.65 -4.78 -0.25 -10.65
4 0 -4.47 -0.25 -10.65 -4.78 -0.25 -10.35 -4.78 -0.25 -10.65 -4.77 -0.25 -11.03
4 0 -4.48 -0.25 -11.03 -4.47 -0.25 -10.65 -4.77 -0.25 -11.03 -4.77 -0.25 -11.33
4 0 -4.77 -0.25 -11.33 -4.77 -0.25 -11.03 -5.15 -0.25 -11.03 -5.15 -0.25 -11.33
3 0 -5.45 -0.25 -11.02 -5.15 -0.25 -11.33 -5.15 -0.25 -11.03
4 0 -5.45 -0.25 -11.02 -5.15 -0.25 -11.03 -5.15 -0.25 -10.65 -5.45 -0.25 -10.65
3 0 -5.15 -0.25 -10.35 -5.45 -0.25 -10.65 -5.15 -0.25 -10.65
4 0 -7.62 -0.25 -9.6 -7.02 -0.25 -8.78 -7.25 -0.25 -8.48 -7.93 -0.25 -9.38
4 0 -8.15 -0.25 -10.12 -7.62 -0.25 -9.6 -7.93 -0.25 -9.38 -9.57 -0.25 -9.38
4 0 -8.98 -0.25 -10.12 -8.15 -0.25 -10.12 -9.57 -0.25 -9.38 -9.72 -0.25 -9.6
4 0 -9.2 -0.25 -10.43 -8.98 -0.25 -10.12 -9.72 -0.25 -9.6 -9.8 -0.25 -10.12
4 0 -9.2 -0.25 -10.43 -9.8 -0.25 -10.12 -9.5 -0.25 -11.02 -9.2 -0.25 -11.02
4 0 -7.62 -0.25 -9.6 -8.15 -0.25 -10.12 -7.03 -0.25 -11.03 -6.43 -0.25 -9.6
4 0 -6.43 -0.25 -9.6 -7.03 -0.25 -11.03 -5.83 -0.25 -11.03 -5.68 -0.25 -10.28
3 0 -6.05 -0.25 -9.6 -6.43 -0.25 -9.6 -5.68 -0.25 -10.28
4 0 -4.93 -0.25 -9.6 -6.05 -0.25 -9.6 -5.68 -0.25 -10.28 -5.3 -0.25 -10.05
4 0 -4.4 -0.25 -9.6 -4.93 -0.25 -9.6 -5.3 -0.25 -10.05 -4.47 -0.25 -10.05
4 0 -3.58 -0.25 -9.68 -4.4 -0.25 -9.6 -4.47 -0.25 -10.05 -4.18 -0.25 -10.35
4 0 -3.13 -0.25 -9.83 -3.58 -0.25 -9.68 -4.18 -0.25 -10.35 -4.1 -0.25 -11.03
3 0 -3.13 -0.25 -9.83 -4.1 -0.25 -11.03 -3.65 -0.25 -11.03
3 0 -7.25 -0.25 -8.48 -7.02 -0.25 -8.78 -6.43 -0.25 -8.78
4 0 -7.25 -0.25 -8.48 -6.43 -0.25 -8.78 -6.05 -0.25 -8.78 -5.68 -0.25 -8.48
4 0 -5.68 -0.25 -8.48 -6.05 -0.25 -8.78 -5.37 -0.25 -8.93 -5 -0.25 -8.7
4 0 -5 -0.25 -8.7 -5.37 -0.25 -8.93 -5 -0.25 -9.23 -4.63 -0.25 -9.15
4 0 -4.63 -0.25 -9.15 -5 -0.25 -9.23 -4.93 -0.25 -9.6 -4.4 -0.25 -9.6
4 0 -6.05 -0.25 -8.78 -6.43 -0.25 -8.78 -6.43 -0.25 -9.6 -6.05 -0.25 -9.6
4 15 0.4 -0.25 -7.7 0 -0.25 -8 0.3 -0.25 -8.3 0.6 -0.25 -8
4 15 1.6 -0.25 -9.1 1.4 -0.25 -8.8 1 -0.25 -9.1 1.3 -0.25 -9.4
4 0 0.4 -0.25 -7.7 0.4 -0.25 -7.3 -0.1 -0.25 -7.4 0 -0.25 -8
4 0 0 -0.25 -8 -0.1 -0.25 -7.4 -0.4 -0.25 -7.8 -0.4 -0.25 -8.3
4 0 0.3 -0.25 -8.3 0 -0.25 -8 -0.4 -0.25 -8.3 -0.2 -0.25 -9
4 0 0.3 -0.25 -8.3 -0.2 -0.25 -9 0.4 -0.25 -9 0.7 -0.25 -8.3
4 0 0.6 -0.25 -8 0.3 -0.25 -8.3 0.7 -0.25 -8.3 0.9 -0.25 -7.9
4 0 0.6 -0.25 -8 0.9 -0.25 -7.9 0.8 -0.25 -7.5 0.4 -0.25 -7.7
3 0 0.4 -0.25 -7.3 0.4 -0.25 -7.7 0.8 -0.25 -7.5
4 0 0.4 -0.25 -9 -0.2 -0.25 -9 -0.3 -0.25 -9.6 0.3 -0.25 -9.6
4 0 0.4 -0.25 -9 0.3 -0.25 -9.6 1 -0.25 -9.1 1 -0.25 -8.5
4 0 1 -0.25 -8.5 1 -0.25 -9.1 1.4 -0.25 -8.8 1.5 -0.25 -8.3
4 0 1.8 -0.25 -8.6 1.5 -0.25 -8.3 1.4 -0.25 -8.8 1.6 -0.25 -9.1
4 0 2 -0.25 -9.1 1.8 -0.25 -8.6 1.6 -0.25 -9.1 1.6 -0.25 -9.6
3 0 1.6 -0.25 -9.1 1.3 -0.25 -9.4 1.6 -0.25 -9.6
3 0 1.3 -0.25 -9.4 1 -0.25 -9.7 1.6 -0.25 -9.6
4 0 1 -0.25 -9.7 1.3 -0.25 -9.4 1 -0.25 -9.1 0.3 -0.25 -9.6
4 0 -0.9 -0.25 -10.1 -0.3 -0.25 -9.6 -0.2 -0.25 -9 -1.3 -0.25 -9.9
4 0 -1.8 -0.25 -10.8 -0.9 -0.25 -10.1 -1.3 -0.25 -9.9 -2 -0.25 -10.6
4 0 -0.5 -0.25 -10.5 0.3 -0.25 -9.6 -0.3 -0.25 -9.6 -0.7 -0.25 -10.3
4 0 -1.2 -0.25 -11.3 -0.5 -0.25 -10.5 -0.7 -0.25 -10.3 -1.4 -0.25 -11.1
4 0 5.6 -0.25 -7.1 5.2 -0.25 -6.9 4.8 -0.25 -7.1 4.8 -0.25 -7.6
4 0 5.6 -0.25 -7.6 5.6 -0.25 -7.1 4.8 -0.25 -7.6 5 -0.25 -8
4 0 5.4 -0.25 -8 5.6 -0.25 -7.6 5 -0.25 -8 4.8 -0.25 -9
4 0 5.4 -0.25 -8 4.8 -0.25 -9 5.5 -0.25 -9 6.2 -0.25 -8.9
4 0 6.2 -0.25 -8.9 5.5 -0.25 -9 6 -0.25 -9.4 6.3 -0.25 -9.3
4 0 4.8 -0.25 -9 5 -0.25 -8 4.2 -0.25 -8.9 4.3 -0.25 -9.4
3 0 4.2 -0.25 -8.9 4 -0.25 -9.2 4.3 -0.25 -9.4
4 0 5.5 -0.25 -9.6 5.5 -0.25 -9 4.8 -0.25 -9 4.7 -0.25 -9.7
4 0 5.5 -0.25 -9.6 4.7 -0.25 -9.7 5.2 -0.25 -10.1 6.2 -0.25 -10.6
4 0 6.2 -0.25 -10.6 5.2 -0.25 -10.1 5.8 -0.25 -11.1 6.2 -0.25 -11.1
4 0 5.2 -0.25 -10.1 4.7 -0.25 -9.7 4 -0.25 -10.7 4.4 -0.25 -11.1
3 0 4 -0.25 -10.7 4.1 -0.25 -11.1 4.4 -0.25 -11.1
4 0 10.58 -0.25 -7.48 10.28 -0.25 -10.1 11.4 -0.25 -9.35 10.88 -0.25 -7.47
4 0 11.4 -0.25 -9.35 10.28 -0.25 -10.1 10.5 -0.25 -10.55 11.63 -0.25 -9.8
4 0 10.5 -0.25 -10.55 10.28 -0.25 -10.1 9.23 -0.25 -10.93 9.38 -0.25 -11.15
4 0 11.63 -0.25 -9.8 10.5 -0.25 -10.55 12.83 -0.25 -10.85 12.97 -0.25 -10.55
4 0 12.6 -0.25 -8.6 11.4 -0.25 -9.35 11.63 -0.25 -9.8 12.83 -0.25 -8.98
4 0 13.05 -0.25 -8.45 12.6 -0.25 -8.6 12.83 -0.25 -8.98 13.2 -0.25 -8.68
3 0 13.5 -0.25 -8.38 13.05 -0.25 -8.45 13.2 -0.25 -8.68
4 0 12.68 -0.25 -7.7 12.6 -0.25 -8.6 13.05 -0.25 -8.45 13.05 -0.25 -7.7
4 0 13.2 -0.25 -8.68 12.83 -0.25 -8.98 13.43 -0.25 -9.28 13.65 -0.25 -9.05
4 15 -12.98 -0.25 -13.42 -13.22 -0.25 -13.6 -13.04 -0.25 -13.78 -12.86 -0.25 -13.6
4 15 -12.26 -0.25 -14.26 -12.38 -0.25 -14.08 -12.62 -0.25 -14.26 -12.44 -0.25 -14.44
4 0 -12.98 -0.25 -13.42 -12.98 -0.25 -13.18 -13.28 -0.25 -13.24 -13.22 -0.25 -13.6
4 0 -13.22 -0.25 -13.6 -13.28 -0.25 -13.24 -13.46 -0.25 -13.48 -13.46 -0.25 -13.78
4 0 -13.04 -0.25 -13.78 -13.22 -0.25 -13.6 -13.46 -0.25 -13.78 -13.34 -0.25 -14.2
4 0 -13.04 -0.25 -13.78 -13.34 -0.25 -14.2 -12.98 -0.25 -14.2 -12.8 -0.25 -13.78
4 0 -12.86 -0.25 -13.6 -13.04 -0.25 -13.78 -12.8 -0.25 -13.78 -12.68 -0.25 -13.54
4 0 -12.86 -0.25 -13.6 -12.68 -0.25 -13.54 -12.74 -0.25 -13.3 -12.98 -0.25 -13.42
3 0 -12.98 -0.25 -13.18 -12.98 -0.25 -13.42 -12.74 -0.25 -13.3
4 0 -12.98 -0.25 -14.2 -13.34 -0.25 -14.2 -13.4 -0.25 -14.56 -13.04 -0.25 -14.56
4 0 -12.98 -0.25 -14.2 -13.04 -0.25 -14.56 -12.62 -0.25 -14.26 -12.62 -0.25 -13.9
4 0 -12.62 -0.25 -13.9 -12.62 -0.25 -14.26 -12.38 -0.25 -14.08 -12.32 -0.25 -13.78
4 0 -12.14 -0.25 -13.96 -12.32 -0.25 -13.78 -12.38 -0.25 -14.08 -12.26 -0.25 -14.26
4 0 -12.02 -0.25 -14.26 -12.14 -0.25 -13.96 -12.26 -0.25 -14.26 -12.26 -0.25 -14.56
3 0 -12.26 -0.25 -14.26 -12.44 -0.25 -14.44 -12.26 -0.25 -14.56
3 0 -12.44 -0.25 -14.44 -12.62 -0.25 -14.62 -12.26 -0.25 -14.56
4 0 -12.62 -0.25 -14.62 -12.44 -0.25 -14.44 -12.62 -0.25 -14.26 -13.04 -0.25 -14.56
4 0 -13.76 -0.25 -14.86 -13.4 -0.25 -14.56 -13.34 -0.25 -14.2 -14 -0.25 -14.74
4 0 -14.3 -0.25 -15.28 -13.76 -0.25 -14.86 -14 -0.25 -14.74 -14.42 -0.25 -15.16
4 0 -13.52 -0.25 -15.1 -13.04 -0.25 -14.56 -13.4 -0.25 -14.56 -13.64 -0.25 -14.98
4 0 -13.94 -0.25 -15.58 -13.52 -0.25 -15.1 -13.64 -0.25 -14.98 -14.06 -0.25 -15.46
4 0 -8.2 -0.25 -14.8 -9.2 -0.25 -13.8 -9.7 -0.25 -14.1 -8.5 -0.25 -15.3
3 0 -9.7 -0.25 -14.1 -9.1 -0.25 -15.3 -8.5 -0.25 -15.3
4 0 -8.5 -0.25 -15.3 -9.1 -0.25 -15.3 -9.3 -0.25 -15.6 -8.7 -0.25 -15.6
4 0 -8 -0.25 -15.3 -8.5 -0.25 -15.3 -8.7 -0.25 -15.6 -7.8 -0.25 -15.7
4 0 -8.1 -0.25 -16.1 -7.8 -0.25 -15.7 -8.7 -0.25 -15.6 -8.6 -0.25 -16.1
4 0 -9.3 -0.25 -15.6 -9.1 -0.25 -15.3 -9.9 -0.25 -15.3 -10.1 -0.25 -15.7
4 0 -9.4 -0.25 -16.1 -9.3 -0.25 -15.6 -10.1 -0.25 -15.7 -9.9 -0.25 -16.1
4 0 -4.019 -0.25 -13.34 -4.58 -0.25 -13.34 -4.42 -0.25 -13.58 -4.18 -0.25 -13.58
3 0 -4.58 -0.25 -13.34 -4.58 -0.25 -13.58 -4.42 -0.25 -13.58
3 0 -4.019 -0.25 -13.34 -4.18 -0.25 -13.58 -4.019 -0.25 -13.58
4 0 -4.18 -0.25 -13.58 -4.42 -0.25 -13.58 -4.42 -0.25 -14.02 -4.18 -0.25 -14.02
4 0 -5.38 -0.25 -14.94 -4.42 -0.25 -14.02 -5.38 -0.25 -14.02 -5.58 -0.25 -14.94
4 0 -3.22 -0.25 -14.94 -3.22 -0.25 -14.02 -4.18 -0.25 -14.02 -5.38 -0.25 -14.94
3 0 -4.18 -0.25 -14.02 -4.42 -0.25 -14.02 -5.38 -0.25 -14.94
3 0 -5.38 -0.25 -14.02 -5.78 -0.25 -14.94 -5.58 -0.25 -14.94
4 0 -3.02 -0.25 -14.94 -3.22 -0.25 -14.02 -3.22 -0.25 -14.94 -3.02 -0.25 -16.26
3 0 -3.22 -0.25 -14.02 -3.02 -0.25 -14.94 -2.82 -0.25 -14.94
4 0 -5.38 -0.25 -16.059 -5.38 -0.25 -14.94 -5.58 -0.25 -14.94 -5.58 -0.25 -16.26
4 0 -4.42 -0.25 -16.059 -5.38 -0.25 -16.059 -5.58 -0.25 -16.26 -3.02 -0.25 -16.26
3 0 -4.18 -0.25 -16.059 -4.42 -0.25 -16.059 -3.02 -0.25 -16.26
3 0 -3.22 -0.25 -16.059 -4.18 -0.25 -16.059 -3.02 -0.25 -16.26
3 0 -3.22 -0.25 -14.94 -3.22 -0.25 -16.059 -3.02 -0.25 -16.26
4 0 -4.42 -0.25 -15.22 -4.42 -0.25 -16.059 -4.18 -0.25 -16.059 -4.18 -0.25 -15.22
4 0 -4.82 -0.25 -15.18 -5.06 -0.25 -15.18 -5.06 -0.25 -15.7 -4.82 -0.25 -15.7
4 0 -3.58 -0.25 -15.18 -3.82 -0.25 -15.18 -3.82 -0.25 -15.7 -3.58 -0.25 -15.7
4 15 -5.06 -0.25 -15.7 -5.06 -0.25 -15.18 -5.38 -0.25 -14.94 -5.38 -0.25 -16.059
4 15 -4.82 -0.25 -15.7 -5.06 -0.25 -15.7 -5.38 -0.25 -16.059 -4.42 -0.25 -16.059
4 15 -4.82 -0.25 -15.7 -4.42 -0.25 -16.059 -4.42 -0.25 -15.22 -4.82 -0.25 -15.18
4 15 -3.82 -0.25 -15.7 -3.82 -0.25 -15.18 -4.18 -0.25 -15.22 -4.18 -0.25 -16.059
4 15 -3.58 -0.25 -15.7 -3.82 -0.25 -15.7 -4.18 -0.25 -16.059 -3.22 -0.25 -16.059
4 15 -3.58 -0.25 -15.7 -3.22 -0.25 -16.059 -3.22 -0.25 -14.94 -3.58 -0.25 -15.18
3 15 -3.22 -0.25 -14.94 -3.82 -0.25 -15.18 -3.58 -0.25 -15.18
4 15 -4.18 -0.25 -15.22 -3.82 -0.25 -15.18 -3.22 -0.25 -14.94 -5.38 -0.25 -14.94
4 15 -4.42 -0.25 -15.22 -4.18 -0.25 -15.22 -5.38 -0.25 -14.94 -4.82 -0.25 -15.18
3 15 -5.38 -0.25 -14.94 -5.06 -0.25 -15.18 -4.82 -0.25 -15.18
4 0 1.1 -0.25 -14.8 -0.7 -0.25 -14.8 -1.1 -0.25 -15.2 -0.2 -0.25 -15.8
4 0 -0.2 -0.25 -15.8 -1.1 -0.25 -15.2 -1 -0.25 -15.8 -0.8 -0.25 -16.3
3 0 -0.2 -0.25 -15.8 -0.8 -0.25 -16.3 -0.5 -0.25 -16.3
3 0 1.1 -0.25 -14.8 -0.2 -0.25 -15.8 0.2 -0.25 -15.8
4 0 1.4 -0.25 -15.8 1.1 -0.25 -14.8 0.2 -0.25 -15.8 0.3 -0.25 -16.3
3 0 1.4 -0.25 -15.8 0.3 -0.25 -16.3 0.7 -0.25 -16.3
4 0 1.1 -0.25 -14.8 1.4 -0.25 -15.8 1.7 -0.25 -15.2 1.4 -0.25 -14.4
4 0 2 -0.25 -14.5 1.4 -0.25 -14.4 1.7 -0.25 -15.2 2.1 -0.25 -15.2
4 0 2.4 -0.25 -14.4 2 -0.25 -14.5 2.1 -0.25 -15.2 2.7 -0.25 -14.8
4 0 2.8 -0.25 -13.9 2.4 -0.25 -14.4 2.7 -0.25 -14.8 3.2 -0.25 -13.9
4 0 3.5 -0.25 -14.2 3.2 -0.25 -13.9 2.7 -0.25 -14.8 3.5 -0.25 -14.6
4 0 2.7 -0.25 -14.8 2.1 -0.25 -15.2 2.2 -0.25 -16.1 2.5 -0.25 -16.3
3 0 2.7 -0.25 -14.8 2.5 -0.25 -16.3 2.7 -0.25 -16.3
3 15 6.6 -0.25 -13.8 6.6 -0.25 -14.3 7.1 -0.25 -14.3
4 0 6.6 -0.25 -13.4 6.2 -0.25 -13.7 6.6 -0.25 -13.8 7 -0.25 -13.4
4 0 6.6 -0.25 -14.3 6.6 -0.25 -13.8 6.2 -0.25 -13.7 6.2 -0.25 -14.4
4 0 6.6 -0.25 -14.3 6.2 -0.25 -14.4 6.5 -0.25 -14.7 7.1 -0.25 -14.3
4 0 7.1 -0.25 -14.3 6.5 -0.25 -14.7 7.2 -0.25 -14.7 7.5 -0.25 -14.3
4 0 7.1 -0.25 -14.3 7.5 -0.25 -14.3 7.5 -0.25 -13.9 6.6 -0.25 -13.8
3 0 7 -0.25 -13.4 6.6 -0.25 -13.8 7.5 -0.25 -13.9
4 0 6.5 -0.25 -14.7 6.2 -0.25 -14.4 5 -0.25 -15.6 5.9 -0.25 -15.4
4 0 5.9 -0.25 -15.4 5 -0.25 -15.6 5.3 -0.25 -15.9 6.1 -0.25 -15.7
3 0 6.1 -0.25 -15.7 5.3 -0.25 -15.9 5.8 -0.25 -15.9
4 0 11.06 -0.25 -14.24 10.7 -0.25 -14.24 11.06 -0.25 -15.28 11.34 -0.25 -15.28
4 0 11.7 -0.25 -14.28 11.38 -0.25 -14.28 11.7 -0.25 -15.28 11.98 -0.25 -15.28
4 0 12.46 -0.25 -15.36 12.62 -0.25 -14.96 12.22 -0.25 -14.96 12.22 -0.25 -15.28
4 15 11.06 -0.25 -15.56 10.82 -0.25 -15.56 10.82 -0.25 -15.8 11.06 -0.25 -15.8
4 15 11.62 -0.25 -15.56 11.38 -0.25 -15.56 11.38 -0.25 -15.8 11.62 -0.25 -15.8
4 15 12.18 -0.25 -15.56 11.94 -0.25 -15.56 11.94 -0.25 -15.8 12.18 -0.25 -15.8
4 0 9.5 -0.25 -15.56 9.38 -0.25 -15.32 9.18 -0.25 -15.32 9.02 -0.25 -15.48
4 0 9.5 -0.25 -15.56 9.02 -0.25 -15.48 9.06 -0.25 -15.72 9.54 -0.25 -15.84
4 0 10.26 -0.25 -15.56 9.5 -0.25 -15.56 9.54 -0.25 -15.84 10.34 -0.25 -15.68
4 0 10.34 -0.25 -15.68 9.54 -0.25 -15.84 9.66 -0.25 -16.079 10.82 -0.25 -15.8
3 0 11.06 -0.25 -15.8 10.82 -0.25 -15.8 9.66 -0.25 -16.079
3 0 11.38 -0.25 -15.8 11.06 -0.25 -15.8 9.66 -0.25 -16.079
4 0 11.62 -0.25 -15.8 11.38 -0.25 -15.8 9.66 -0.25 -16.079 13.42 -0.25 -16.079
3 0 11.94 -0.25 -15.8 11.62 -0.25 -15.8 13.42 -0.25 -16.079
3 0 12.18 -0.25 -15.8 11.94 -0.25 -15.8 13.42 -0.25 -16.079
4 0 12.62 -0.25 -15.68 12.18 -0.25 -15.8 13.42 -0.25 -16.079 12.98 -0.25 -15.68
4 0 12.98 -0.25 -15.68 13.42 -0.25 -16.079 14.06 -0.25 -15.48 13.14 -0.25 -15.48
4 0 10.62 -0.25 -15.6 10.34 -0.25 -15.68 10.82 -0.25 -15.8 10.82 -0.25 -15.56
4 0 10.74 -0.25 -15.28 10.62 -0.25 -15.6 10.82 -0.25 -15.56 11.06 -0.25 -15.28
4 0 11.06 -0.25 -15.28 10.82 -0.25 -15.56 11.06 -0.25 -15.56 11.34 -0.25 -15.28
4 0 11.38 -0.25 -15.56 11.34 -0.25 -15.28 11.06 -0.25 -15.56 11.06 -0.25 -15.8
3 0 11.38 -0.25 -15.56 11.06 -0.25 -15.8 11.38 -0.25 -15.8
4 0 11.7 -0.25 -15.28 11.34 -0.25 -15.28 11.38 -0.25 -15.56 11.62 -0.25 -15.56
4 0 11.98 -0.25 -15.28 11.7 -0.25 -15.28 11.62 -0.25 -15.56 11.94 -0.25 -15.56
4 0 11.94 -0.25 -15.56 11.62 -0.25 -15.56 11.62 -0.25 -15.8 11.94 -0.25 -15.8
4 0 12.22 -0.25 -15.28 11.98 -0.25 -15.28 11.94 -0.25 -15.56 12.18 -0.25 -15.56
4 0 12.46 -0.25 -15.36 12.22 -0.25 -15.28 12.18 -0.25 -15.56 12.62 -0.25 -15.68
3 0 12.18 -0.25 -15.56 12.18 -0.25 -15.8 12.62 -0.25 -15.68
4 0 -13.89 -0.25 -18.19 -14.02 -0.25 -18.4 -13.94 -0.25 -18.44 -13.68 -0.25 -18.21
4 0 -13.89 -0.25 -18.19 -13.68 -0.25 -18.21 -13.68 -0.25 -17.98 -13.89 -0.25 -17.92
4 0 -13.77 -0.25 -17.77 -13.89 -0.25 -17.92 -13.68 -0.25 -17.98 -13.56 -0.25 -17.94
4 0 -13.52 -0.25 -17.71 -13.77 -0.25 -17.77 -13.56 -0.25 -17.94 -13.43 -0.25 -17.96
4 0 -13.31 -0.25 -17.75 -13.52 -0.25 -17.71 -13.43 -0.25 -17.96 -13.2 -0.25 -17.9
4 0 -13.2 -0.25 -17.9 -13.43 -0.25 -17.96 -13.37 -0.25 -18.11 -13.16 -0.25 -18.11
4 0 -13.22 -0.25 -18.34 -13.16 -0.25 -18.11 -13.37 -0.25 -18.11 -13.49 -0.25 -18.36
4 0 -13.52 -0.25 -18.8 -13.22 -0.25 -18.34 -13.49 -0.25 -18.36 -13.98 -0.25 -18.99
4 0 -13.77 -0.25 -19.22 -13.52 -0.25 -18.8 -13.98 -0.25 -18.99 -14.1 -0.25 -19.2
4 0 -13.79 -0.25 -19.39 -13.77 -0.25 -19.22 -14.1 -0.25 -19.2 -14.12 -0.25 -19.51
4 0 -13.79 -0.25 -19.39 -14.12 -0.25 -19.51 -14.02 -0.25 -19.7 -13.66 -0.25 -19.49
4 0 -13.66 -0.25 -19.49 -14.02 -0.25 -19.7 -13.91 -0.25 -19.75 -12.51 -0.25 -19.75
4 0 -12.63 -0.25 -19.49 -13.66 -0.25 -19.49 -12.51 -0.25 -19.75 -12.36 -0.25 -19.62
4 0 -12.38 -0.25 -19.45 -12.63 -0.25 -19.49 -12.36 -0.25 -19.62 -12.3 -0.25 -19.47
4 0 -13.66 -0.25 -19.49 -12.63 -0.25 -19.49 -12.74 -0.25 -19.28 -13.52 -0.25 -19.37
3 0 -12.97 -0.25 -19.2 -13.52 -0.25 -19.37 -12.74 -0.25 -19.28
4 0 -13.33 -0.25 -19.03 -13.52 -0.25 -19.37 -12.97 -0.25 -19.2 -12.97 -0.25 -19.09
4 0 -13.18 -0.25 -18.78 -13.33 -0.25 -19.03 -12.97 -0.25 -19.09 -12.97 -0.25 -18.67
4 0 -12.97 -0.25 -18.67 -12.97 -0.25 -19.09 -12.8 -0.25 -19.05 -12.7 -0.25 -18.76
4 0 -12.7 -0.25 -18.76 -12.8 -0.25 -19.05 -12.53 -0.25 -19.16 -12.34 -0.25 -18.95
4 0 -12.34 -0.25 -18.95 -12.53 -0.25 -19.16 -12.26 -0.25 -19.18 -12.07 -0.25 -19.05
4 0 -12.02 -0.25 -18.91 -12.34 -0.25 -18.95 -12.07 -0.25 -19.05 -11.96 -0.25 -18.97
4 0 -9.18 -0.25 -17.42 -9.42 -0.25 -17.42 -9.42 -0.25 -17.84 -9.18 -0.25 -17.84
4 0 -9.18 -0.25 -17.84 -9.42 -0.25 -17.84 -9.42 -0.25 -18.2 -9.18 -0.25 -18.2
4 0 -9.18 -0.25 -17.84 -9.18 -0.25 -18.2 -8.94 -0.25 -17.84 -9.06 -0.25 -17.66
4 0 -9.66 -0.25 -17.84 -9.42 -0.25 -18.2 -9.42 -0.25 -17.84 -9.54 -0.25 -17.66
4 0 -9.18 -0.25 -18.2 -9.42 -0.25 -18.2 -9.42 -0.25 -18.44 -9.18 -0.25 -18.44
4 0 -9.18 -0.25 -18.44 -9.42 -0.25 -18.44 -9.42 -0.25 -18.8 -9.18 -0.25 -18.8
4 0 -9.42 -0.25 -18.8 -9.42 -0.25 -18.44 -9.72 -0.25 -18.26 -9.84 -0.25 -18.44
4 0 -8.88 -0.25 -18.26 -9.18 -0.25 -18.44 -9.18 -0.25 -18.8 -8.76 -0.25 -18.44
4 0 -9.18 -0.25 -18.8 -9.42 -0.25 -18.8 -9.42 -0.25 -18.98 -9.18 -0.25 -18.98
4 0 -9.18 -0.25 -18.98 -9.42 -0.25 -18.98 -9.48 -0.25 -19.34 -9.12 -0.25 -19.34
4 0 -9.48 -0.25 -19.34 -9.42 -0.25 -18.98 -9.9 -0.25 -18.68 -10.08 -0.25 -18.86
4 0 -8.7 -0.25 -18.68 -9.18 -0.25 -18.98 -9.12 -0.25 -19.34 -8.52 -0.25 -18.86
4 0 -9.12 -0.25 -19.34 -9.48 -0.25 -19.34 -9.48 -0.25 -20 -9.12 -0.25 -20
3 15 -5.15 -0.25 -18.2 -5.15 -0.25 -18.58 -4.78 -0.25 -18.58
4 0 -5.15 -0.25 -17.9 -5.45 -0.25 -18.13 -5.15 -0.25 -18.2 -4.85 -0.25 -17.9
4 0 -5.15 -0.25 -18.58 -5.15 -0.25 -18.2 -5.45 -0.25 -18.13 -5.45 -0.25 -18.65
4 0 -5.15 -0.25 -18.58 -5.45 -0.25 -18.65 -5.23 -0.25 -18.88 -4.78 -0.25 -18.58
4 0 -4.78 -0.25 -18.58 -5.23 -0.25 -18.88 -4.7 -0.25 -18.88 -4.47 -0.25 -18.58
4 0 -4.78 -0.25 -18.58 -4.47 -0.25 -18.58 -4.47 -0.25 -18.27 -5.15 -0.25 -18.2
3 0 -4.85 -0.25 -17.9 -5.15 -0.25 -18.2 -4.47 -0.25 -18.27
4 0 -5.23 -0.25 -18.88 -5.45 -0.25 -18.65 -6.35 -0.25 -19.55 -5.68 -0.25 -19.4
4 0 -5.68 -0.25 -19.4 -6.35 -0.25 -19.55 -6.13 -0.25 -19.77 -5.53 -0.25 -19.63
3 0 -5.53 -0.25 -19.63 -6.13 -0.25 -19.77 -5.75 -0.25 -19.77
4 0 -1.1 -0.25 -18.75 -1.85 -0.25 -18 -2.23 -0.25 -18.23 -1.33 -0.25 -19.13
3 0 -2.23 -0.25 -18.23 -1.78 -0.25 -19.13 -1.33 -0.25 -19.13
4 0 -1.33 -0.25 -19.13 -1.78 -0.25 -19.13 -1.93 -0.25 -19.35 -1.48 -0.25 -19.35
4 0 -0.95 -0.25 -19.13 -1.33 -0.25 -19.13 -1.48 -0.25 -19.35 -0.8 -0.25 -19.43
4 0 -1.02 -0.25 -19.73 -0.8 -0.25 -19.43 -1.48 -0.25 -19.35 -1.4 -0.25 -19.73
4 0 -1.93 -0.25 -19.35 -1.78 -0.25 -19.13 -2.38 -0.25 -19.13 -2.53 -0.25 -19.43
4 0 -2 -0.25 -19.73 -1.93 -0.25 -19.35 -2.53 -0.25 -19.43 -2.38 -0.25 -19.73
4 15 3.28 -0.25 -18.78 3.28 -0.25 -18.34 2.96 -0.25 -18.34 2.64 -0.25 -18.78
4 15 3.84 -0.25 -18.42 3.48 -0.25 -18.34 3.48 -0.25 -18.78 4.04 -0.25 -18.58
3 15 4.04 -0.25 -18.58 3.48 -0.25 -18.78 4.08 -0.25 -18.78
4 15 2.24 -0.25 -19.34 2.04 -0.25 -19.34 2.04 -0.25 -19.54 2.24 -0.25 -19.54
4 0 2.24 -0.25 -19.18 2.04 -0.25 -19.18 2.04 -0.25 -19.34 2.24 -0.25 -19.34
3 0 2.24 -0.25 -19.18 2.24 -0.25 -19.34 2.4 -0.25 -19.34
4 0 2.4 -0.25 -19.34 2.24 -0.25 -19.34 2.24 -0.25 -19.54 2.4 -0.25 -19.54
3 0 2.4 -0.25 -19.54 2.24 -0.25 -19.54 2.24 -0.25 -19.7
4 0 2.24 -0.25 -19.7 2.24 -0.25 -19.54 2.04 -0.25 -19.54 2.04 -0.25 -19.7
3 0 2.04 -0.25 -19.54 1.88 -0.25 -19.54 2.04 -0.25 -19.7
4 0 1.88 -0.25 -19.54 2.04 -0.25 -19.54 2.04 -0.25 -19.34 1.88 -0.25 -19.34
3 0 2.04 -0.25 -19.18 1.88 -0.25 -19.34 2.04 -0.25 -19.34
4 15 4.16 -0.25 -19.34 3.96 -0.25 -19.34 3.96 -0.25 -19.54 4.16 -0.25 -19.54
4 0 4.16 -0.25 -19.18 3.96 -0.25 -19.18 3.96 -0.25 -19.34 4.16 -0.25 -19.34
3 0 4.16 -0.25 -19.18 4.16 -0.25 -19.34 4.32 -0.25 -19.34
4 0 4.32 -0.25 -19.34 4.16 -0.25 -19.34 4.16 -0.25 -19.54 4.32 -0.25 -19.54
3 0 4.32 -0.25 -19.54 4.16 -0.25 -19.54 4.16 -0.25 -19.7
4 0 4.16 -0.25 -19.7 4.16 -0.25 -19.54 3.96 -0.25 -19.54 3.96 -0.25 -19.7
3 0 3.96 -0.25 -19.54 3.8 -0.25 -19.54 3.96 -0.25 -19.7
4 0 3.8 -0.25 -19.54 3.96 -0.25 -19.54 3.96 -0.25 -19.34 3.8 -0.25 -19.34
3 0 3.96 -0.25 -19.18 3.8 -0.25 -19.34 3.96 -0.25 -19.34
4 0 2.64 -0.25 -18.78 2.96 -0.25 -18.34 2.84 -0.25 -18.18 2.48 -0.25 -18.66
4 0 2.36 -0.25 -19.06 2.64 -0.25 -18.78 2.48 -0.25 -18.66 1.6 -0.25 -18.66
4 0 1.92 -0.25 -19.06 2.36 -0.25 -19.06 1.6 -0.25 -18.66 1.52 -0.25 -18.78
4 0 1.8 -0.25 -19.22 1.92 -0.25 -19.06 1.52 -0.25 -18.78 1.48 -0.25 -19.06
4 0 1.8 -0.25 -19.22 1.48 -0.25 -19.06 1.64 -0.25 -19.54 1.8 -0.25 -19.54
4 0 2.64 -0.25 -18.78 2.36 -0.25 -19.06 2.96 -0.25 -19.54 3.28 -0.25 -18.78
4 0 3.28 -0.25 -18.78 2.96 -0.25 -19.54 3.6 -0.25 -19.54 3.68 -0.25 -19.14
3 0 3.48 -0.25 -18.78 3.28 -0.25 -18.78 3.68 -0.25 -19.14
4 0 4.08 -0.25 -18.78 3.48 -0.25 -18.78 3.68 -0.25 -19.14 3.88 -0.25 -19.02
4 0 4.36 -0.25 -18.78 4.08 -0.25 -18.78 3.88 -0.25 -19.02 4.32 -0.25 -19.02
4 0 4.8 -0.25 -18.82 4.36 -0.25 -18.78 4.32 -0.25 -19.02 4.48 -0.25 -19.18
4 0 5.04 -0.25 -18.9 4.8 -0.25 -18.82 4.48 -0.25 -19.18 4.52 -0.25 -19.54
3 0 5.04 -0.25 -18.9 4.52 -0.25 -19.54 4.76 -0.25 -19.54
3 0 2.84 -0.25 -18.18 2.96 -0.25 -18.34 3.28 -0.25 -18.34
4 0 2.84 -0.25 -18.18 3.28 -0.25 -18.34 3.48 -0.25 -18.34 3.68 -0.25 -18.18
4 0 3.68 -0.25 -18.18 3.48 -0.25 -18.34 3.84 -0.25 -18.42 4.04 -0.25 -18.3
4 0 4.04 -0.25 -18.3 3.84 -0.25 -18.42 4.04 -0.25 -18.58 4.24 -0.25 -18.54
4 0 4.24 -0.25 -18.54 4.04 -0.25 -18.58 4.08 -0.25 -18.78 4.36 -0.25 -18.78
4 0 3.48 -0.25 -18.34 3.28 -0.25 -18.34 3.28 -0.25 -18.78 3.48 -0.25 -18.78
4 0 7.82 -0.25 -17.56 7.38 -0.25 -17.56 7.51 -0.25 -17.75 7.69 -0.25 -17.75
3 0 7.38 -0.25 -17.56 7.38 -0.25 -17.75 7.51 -0.25 -17.75
3 0 7.82 -0.25 -17.56 7.69 -0.25 -17.75 7.82 -0.25 -17.75
4 0 7.69 -0.25 -17.75 7.51 -0.25 -17.75 7.51 -0.25 -18.09 7.69 -0.25 -18.09
4 0 6.76 -0.25 -18.8 7.51 -0.25 -18.09 6.76 -0.25 -18.09 6.61 -0.25 -18.8
4 0 8.44 -0.25 -18.8 8.44 -0.25 -18.09 7.69 -0.25 -18.09 6.76 -0.25 -18.8
3 0 7.69 -0.25 -18.09 7.51 -0.25 -18.09 6.76 -0.25 -18.8
3 0 6.76 -0.25 -18.09 6.45 -0.25 -18.8 6.61 -0.25 -18.8
4 0 8.59 -0.25 -18.8 8.44 -0.25 -18.09 8.44 -0.25 -18.8 8.59 -0.25 -19.82
3 0 8.44 -0.25 -18.09 8.59 -0.25 -18.8 8.75 -0.25 -18.8
4 0 6.76 -0.25 -19.67 6.76 -0.25 -18.8 6.61 -0.25 -18.8 6.61 -0.25 -19.82
4 0 7.51 -0.25 -19.67 6.76 -0.25 -19.67 6.61 -0.25 -19.82 8.59 -0.25 -19.82
3 0 7.69 -0.25 -19.67 7.51 -0.25 -19.67 8.59 -0.25 -19.82
3 0 8.44 -0.25 -19.67 7.69 -0.25 -19.67 8.59 -0.25 -19.82
3 0 8.44 -0.25 -18.8 8.44 -0.25 -19.67 8.59 -0.25 -19.82
4 0 7.51 -0.25 -19.02 7.51 -0.25 -19.67 7.69 -0.25 -19.67 7.69 -0.25 -19.02
4 0 7.2 -0.25 -18.99 7.01 -0.25 -18.99 7.01 -0.25 -19.39 7.2 -0.25 -19.39
4 0 8.16 -0.25 -18.99 7.97 -0.25 -18.99 7.97 -0.25 -19.39 8.16 -0.25 -19.39
4 15 7.01 -0.25 -19.39 7.01 -0.25 -18.99 6.76 -0.25 -18.8 6.76 -0.25 -19.67
4 15 7.2 -0.25 -19.39 7.01 -0.25 -19.39 6.76 -0.25 -19.67 7.51 -0.25 -19.67
4 15 7.2 -0.25 -19.39 7.51 -0.25 -19.67 7.51 -0.25 -19.02 7.2 -0.25 -18.99
4 15 7.97 -0.25 -19.39 7.97 -0.25 -18.99 7.69 -0.25 -19.02 7.69 -0.25 -19.67
4 15 8.16 -0.25 -19.39 7.97 -0.25 -19.39 7.69 -0.25 -19.67 8.44 -0.25 -19.67
4 15 8.16 -0.25 -19.39 8.44 -0.25 -19.67 8.44 -0.25 -18.8 8.16 -0.25 -18.99
3 15 8.44 -0.25 -18.8 7.97 -0.25 -18.99 8.16 -0.25 -18.99
4 15 7.69 -0.25 -19.02 7.97 -0.25 -18.99 8.44 -0.25 -18.8 6.76 -0.25 -18.8
4 15 7.51 -0.25 -19.02 7.69 -0.25 -19.02 6.76 -0.25 -18.8 7.2 -0.25 -18.99
3 15 6.76 -0.25 -18.8 7.01 -0.25 -18.99 7.2 -0.25 -18.99
4 0 12.35 -0.25 -18.63 11 -0.25 -18.63 10.7 -0.25 -18.93 11.38 -0.25 -19.38
4 0 11.38 -0.25 -19.38 10.7 -0.25 -18.93 10.78 -0.25 -19.38 10.93 -0.25 -19.75
3 0 11.38 -0.25 -19.38 10.93 -0.25 -19.75 11.15 -0.25 -19.75
3 0 12.35 -0.25 -18.63 11.38 -0.25 -19.38 11.68 -0.25 -19.38
4 0 12.58 -0.25 -19.38 12.35 -0.25 -18.63 11.68 -0.25 -19.38 11.75 -0.25 -19.75
3 0 12.58 -0.25 -19.38 11.75 -0.25 -19.75 12.05 -0.25 -19.75
4 0 12.35 -0.25 -18.63 12.58 -0.25 -19.38 12.8 -0.25 -18.93 12.58 -0.25 -18.33
4 0 13.03 -0.25 -18.4 12.58 -0.25 -18.33 12.8 -0.25 -18.93 13.1 -0.25 -18.93
4 0 13.33 -0.25 -18.33 13.03 -0.25 -18.4 13.1 -0.25 -18.93 13.55 -0.25 -18.63
4 0 13.63 -0.25 -17.95 13.33 -0.25 -18.33 13.55 -0.25 -18.63 13.93 -0.25 -17.95
4 0 14.15 -0.25 -18.18 13.93 -0.25 -17.95 13.55 -0.25 -18.63 14.15 -0.25 -18.48
4 0 13.55 -0.25 -18.63 13.1 -0.25 -18.93 13.18 -0.25 -19.6 13.4 -0.25 -19.75
3 0 13.55 -0.25 -18.63 13.4 -0.25 -19.75 13.55 -0.25 -19.75
4 15 19 -0.25 23 -19 -0.25 23 -16 -0.25 22 16 -0.25 22
4 15 19 -0.25 23 16 -0.25 22 16 -0.25 -22 19 -0.25 -23
4 15 19 -0.25 -23 16 -0.25 -22 -16 -0.25 -22 -19 -0.25 -23
4 15 -19 -0.25 -23 -16 -0.25 -22 -16 -0.25 22 -19 -0.25 23
3 15 15 -0.25 21 -15 -0.25 21 -0.9 -0.25 18.8
3 15 -15 -0.25 21 -2.1 -0.25 18.5 -0.9 -0.25 18.8
3 15 -15 -0.25 21 -2.7 -0.25 17.8 -2.1 -0.25 18.5
4 15 -2.7 -0.25 16.5 -2.7 -0.25 17.8 -15 -0.25 21 -3.3 -0.25 15.5
4 15 -3.3 -0.25 15.5 -15 -0.25 21 -3.7 -0.25 11.7 -3.1 -0.25 12.7
3 15 -3.3 -0.25 15.5 -3.1 -0.25 12.7 -2.9 -0.25 15.3
4 15 -2.9 -0.25 15.3 -3.1 -0.25 12.7 -0.8 -0.25 15.7 -1.7 -0.25 16.4
4 15 -1.7 -0.25 16.4 -0.8 -0.25 15.7 -0.2 -0.25 16.9 -1.7 -0.25 17.5
4 15 -1.7 -0.25 17.5 -0.2 -0.25 16.9 -0.5 -0.25 17.6 -1.1 -0.25 17.7
4 15 -3.8 -0.25 10.2 -3.7 -0.25 11.7 -15 -0.25 21 -5.6 -0.25 7.7
3 15 -15 -0.25 21 -7 -0.25 7.7 -5.6 -0.25 7.7
4 15 -7 -0.25 7.1 -7 -0.25 7.7 -15 -0.25 21 -9 -0.25 6
4 15 -7 -0.25 7.1 -9 -0.25 6 -6.6 -0.25 6 -6.6 -0.25 7.1
4 15 -10 -0.25 3.7 -9 -0.25 6 -15 -0.25 21 -15 -0.25 0
4 15 -12.8 -0.25 -8.6 -13.2 -0.25 -8 -13.3 -0.25 -8.7 -12.8 -0.25 -9
4 15 -12.8 -0.25 -9.6 -13.5 -0.25 -9 -13.6 -0.25 -9.4 -12.8 -0.25 -9.9
3 15 -14.42 -0.25 -15.16 -15 -0.25 -21 -14.3 -0.25 -15.28
4 15 -14.06 -0.25 -15.46 -14.3 -0.25 -15.28 -15 -0.25 -21 -13.94 -0.25 -15.58
4 15 -14.3 -0.25 -15.28 -14.06 -0.25 -15.46 -13.64 -0.25 -14.98 -13.76 -0.25 -14.86
3 15 -13.4 -0.25 -14.56 -13.76 -0.25 -14.86 -13.64 -0.25 -14.98
4 15 -13.94 -0.25 -15.58 -15 -0.25 -21 -14.02 -0.25 -18.4 -13.89 -0.25 -17.92
4 15 -13.94 -0.25 -18.44 -14.02 -0.25 -18.4 -15 -0.25 -21 -14.1 -0.25 -19.2
4 15 -13.94 -0.25 -18.44 -14.1 -0.25 -19.2 -13.98 -0.25 -18.99 -13.68 -0.25 -18.21
3 15 -13.68 -0.25 -18.21 -13.98 -0.25 -18.99 -13.49 -0.25 -18.36
4 15 -13.68 -0.25 -17.98 -13.68 -0.25 -18.21 -13.49 -0.25 -18.36 -13.37 -0.25 -18.11
4 15 -13.68 -0.25 -17.98 -13.37 -0.25 -18.11 -13.43 -0.25 -17.96 -13.56 -0.25 -17.94
3 15 -14.1 -0.25 -19.2 -15 -0.25 -21 -14.12 -0.25 -19.51
3 15 -14.12 -0.25 -19.51 -15 -0.25 -21 -14.02 -0.25 -19.7
3 15 -14.02 -0.25 -19.7 -15 -0.25 -21 -13.91 -0.25 -19.75
4 15 -12.51 -0.25 -19.75 -13.91 -0.25 -19.75 -15 -0.25 -21 -9.48 -0.25 -20
4 15 -9.12 -0.25 -20 -9.48 -0.25 -20 -15 -0.25 -21 0 -0.25 -21
4 0 -15 -0.25 0 -15 -0.25 21 -16 -0.25 22 -16 -0.25 -22
3 0 -15 -0.25 0 -16 -0.25 -22 -15 -0.25 -21
4 15 -9.5 -0.25 3.7 -10 -0.25 3.7 -15 -0.25 0 -9.5 -0.25 0.4
4 15 -9.5 -0.25 0.4 -15 -0.25 0 -11.1 -0.25 -0.9 -10.7 -0.25 -0.9
4 15 -11.5 -0.25 -4.4 -11.1 -0.25 -0.9 -15 -0.25 0 -12.9 -0.25 -5.5
4 15 -12.8 -0.25 -7.3 -12.9 -0.25 -5.5 -15 -0.25 0 -13 -0.25 -7.7
3 15 -12.8 -0.25 -7.3 -13 -0.25 -7.7 -12.8 -0.25 -8
3 15 -15 -0.25 0 -13.2 -0.25 -8 -13 -0.25 -7.7
4 15 -13.3 -0.25 -8.7 -13.2 -0.25 -8 -15 -0.25 0 -13.5 -0.25 -9
4 15 -13.6 -0.25 -9.4 -13.5 -0.25 -9 -15 -0.25 0 -13.9 -0.25 -9.7
4 15 -14.42 -0.25 -15.16 -13.9 -0.25 -9.7 -15 -0.25 0 -15 -0.25 -21
4 0 0 -0.25 -21 -15 -0.25 -21 -16 -0.25 -22 16 -0.25 -22
3 0 15 -0.25 -21 0 -0.25 -21 16 -0.25 -22
4 15 -6.13 -0.25 -19.77 -9.12 -0.25 -20 0 -0.25 -21 -5.75 -0.25 -19.77
3 15 -5.53 -0.25 -19.63 -5.75 -0.25 -19.77 0 -0.25 -21
4 15 -5.53 -0.25 -19.63 0 -0.25 -21 -4.7 -0.25 -18.88 -5.23 -0.25 -18.88
3 15 -5.23 -0.25 -18.88 -5.68 -0.25 -19.4 -5.53 -0.25 -19.63
3 15 -4.7 -0.25 -18.88 0 -0.25 -21 -2.38 -0.25 -19.73
3 15 -2 -0.25 -19.73 -2.38 -0.25 -19.73 0 -0.25 -21
4 15 -2 -0.25 -19.73 0 -0.25 -21 -1.4 -0.25 -19.73 -1.93 -0.25 -19.35
3 15 -1.48 -0.25 -19.35 -1.93 -0.25 -19.35 -1.4 -0.25 -19.73
3 15 -1.02 -0.25 -19.73 -1.4 -0.25 -19.73 0 -0.25 -21
4 15 -0.8 -0.25 -19.43 -1.02 -0.25 -19.73 0 -0.25 -21 1.48 -0.25 -19.06
3 15 1.48 -0.25 -19.06 0 -0.25 -21 1.64 -0.25 -19.54
3 15 1.8 -0.25 -19.54 1.64 -0.25 -19.54 0 -0.25 -21
4 15 1.88 -0.25 -19.54 1.8 -0.25 -19.54 0 -0.25 -21 2.04 -0.25 -19.7
3 15 2.24 -0.25 -19.7 2.04 -0.25 -19.7 0 -0.25 -21
4 15 2.96 -0.25 -19.54 2.24 -0.25 -19.7 0 -0.25 -21 3.6 -0.25 -19.54
3 15 2.96 -0.25 -19.54 2.4 -0.25 -19.54 2.24 -0.25 -19.7
3 15 2.4 -0.25 -19.34 2.4 -0.25 -19.54 2.96 -0.25 -19.54
4 15 2.4 -0.25 -19.34 2.96 -0.25 -19.54 2.36 -0.25 -19.06 2.24 -0.25 -19.18
4 15 2.04 -0.25 -19.18 2.24 -0.25 -19.18 2.36 -0.25 -19.06 1.92 -0.25 -19.06
4 15 1.88 -0.25 -19.34 2.04 -0.25 -19.18 1.92 -0.25 -19.06 1.8 -0.25 -19.22
4 15 1.88 -0.25 -19.34 1.8 -0.25 -19.22 1.8 -0.25 -19.54 1.88 -0.25 -19.54
4 15 3.8 -0.25 -19.54 3.6 -0.25 -19.54 0 -0.25 -21 3.96 -0.25 -19.7
4 15 4.16 -0.25 -19.7 3.96 -0.25 -19.7 0 -0.25 -21 6.61 -0.25 -19.82
4 15 8.59 -0.25 -19.82 6.61 -0.25 -19.82 0 -0.25 -21 15 -0.25 -21
4 15 10.93 -0.25 -19.75 8.59 -0.25 -19.82 15 -0.25 -21 11.15 -0.25 -19.75
3 15 11.75 -0.25 -19.75 11.15 -0.25 -19.75 15 -0.25 -21
4 15 11.38 -0.25 -19.38 11.15 -0.25 -19.75 11.75 -0.25 -19.75 11.68 -0.25 -19.38
3 15 12.05 -0.25 -19.75 11.75 -0.25 -19.75 15 -0.25 -21
4 15 12.05 -0.25 -19.75 15 -0.25 -21 13.4 -0.25 -19.75 13.18 -0.25 -19.6
3 15 12.58 -0.25 -19.38 12.05 -0.25 -19.75 13.18 -0.25 -19.6
4 15 12.58 -0.25 -19.38 13.18 -0.25 -19.6 13.1 -0.25 -18.93 12.8 -0.25 -18.93
3 15 13.55 -0.25 -19.75 13.4 -0.25 -19.75 15 -0.25 -21
4 15 13.55 -0.25 -18.63 13.55 -0.25 -19.75 15 -0.25 -21 14.15 -0.25 -18.48
3 15 14.15 -0.25 -18.18 14.15 -0.25 -18.48 15 -0.25 -21
3 15 14.06 -0.25 -15.48 14.15 -0.25 -18.18 15 -0.25 -21
4 15 13.65 -0.25 -9.05 14.06 -0.25 -15.48 15 -0.25 -21 15 -0.25 0
4 0 15 -0.25 0 15 -0.25 -21 16 -0.25 -22 16 -0.25 22
3 0 16 -0.25 22 15 -0.25 21 15 -0.25 0
3 15 15 -0.25 0 13.5 -0.25 -8.38 13.65 -0.25 -9.05
3 15 13.5 -0.25 -8.38 13.2 -0.25 -8.68 13.65 -0.25 -9.05
4 15 13.5 -0.25 -8.38 15 -0.25 0 13.05 -0.25 -7.7 13.05 -0.25 -8.45
3 15 15 -0.25 0 13.5 -0.25 -3.6 13.05 -0.25 -7.7
3 15 15 -0.25 0 12.9 -0.25 -3.4 13.5 -0.25 -3.6
4 15 11.8 -0.25 -3.3 12.9 -0.25 -3.4 15 -0.25 0 11.5 -0.25 -2.7
3 15 15 -0.25 0 11 -0.25 -2.1 11.5 -0.25 -2.7
4 15 10.1 -0.25 -1.8 11 -0.25 -2.1 15 -0.25 0 11.6 -0.25 0.2
3 15 13.2 -0.25 1.7 11.6 -0.25 0.2 15 -0.25 0
3 15 15 -0.25 21 13.2 -0.25 1.7 15 -0.25 0
4 15 10.9 -0.25 1.7 13.2 -0.25 1.7 15 -0.25 21 9.6 -0.25 3
4 15 10.9 -0.25 1.7 9.6 -0.25 3 9.2 -0.25 2 10.5 -0.25 1.2
3 15 9.2 -0.25 2 9.6 -0.25 1.2 10.5 -0.25 1.2
4 15 8.6 -0.25 3 9.6 -0.25 3 15 -0.25 21 7.3 -0.25 4.7
4 15 8.6 -0.25 3 7.3 -0.25 4.7 8 -0.25 2.2 8.6 -0.25 2.2
4 15 6.5 -0.25 4.7 7.3 -0.25 4.7 15 -0.25 21 5.7 -0.25 4.8
4 15 6.5 -0.25 4.7 5.7 -0.25 4.8 6.4 -0.25 2.2 7.3 -0.25 2.2
4 15 4.8 -0.25 4.8 5.7 -0.25 4.8 15 -0.25 21 4.9 -0.25 10.4
3 15 15 -0.25 21 6.5 -0.25 12.8 4.9 -0.25 10.4
4 15 4.9 -0.25 10.4 6.5 -0.25 12.8 6 -0.25 12.4 4.5 -0.25 10.5
4 15 4.5 -0.25 10.5 6 -0.25 12.4 5.1 -0.25 11.8 3.3 -0.25 10.3
4 15 3.3 -0.25 10.3 5.1 -0.25 11.8 3.8 -0.25 11.9 2.8 -0.25 11.3
4 15 2.8 -0.25 11.3 3.8 -0.25 11.9 2.5 -0.25 12.4 1.7 -0.25 11.7
3 15 2.5 -0.25 12.4 1.7 -0.25 12.2 1.7 -0.25 11.7
3 15 15 -0.25 21 6.2 -0.25 13.1 6.5 -0.25 12.8
4 15 4.7 -0.25 12.9 6.2 -0.25 13.1 15 -0.25 21 3 -0.25 13.8
4 15 1.7 -0.25 14.2 3 -0.25 13.8 15 -0.25 21 0.5 -0.25 15.8
4 15 0.7 -0.25 13.7 1.7 -0.25 14.2 0.5 -0.25 15.8 -0.9 -0.25 13.6
4 15 0 -0.25 12.5 0.7 -0.25 13.7 -0.9 -0.25 13.6 -2.1 -0.25 11.6
4 15 -0.9 -0.25 10.9 0 -0.25 12.5 -2.1 -0.25 11.6 -2.2 -0.25 10.8
3 15 -0.9 -0.25 10.9 -2.2 -0.25 10.8 -1.6 -0.25 10.3
3 15 15 -0.25 21 0.8 -0.25 16.9 0.5 -0.25 15.8
3 15 15 -0.25 21 0.6 -0.25 17.9 0.8 -0.25 16.9
3 15 15 -0.25 21 0.1 -0.25 18.6 0.6 -0.25 17.9
3 15 15 -0.25 21 -0.9 -0.25 18.8 0.1 -0.25 18.6
4 15 -3.3 -0.25 9.3 -3.8 -0.25 10.2 -5.6 -0.25 7.7 -5.6 -0.25 7.1
4 15 -2.8 -0.25 9.1 -3.3 -0.25 9.3 -5.6 -0.25 7.1 -3.6 -0.25 6
4 15 -6 -0.25 6 -3.6 -0.25 6 -5.6 -0.25 7.1 -6 -0.25 7.1
4 15 3.9 -0.25 9.1 -2.8 -0.25 9.1 -3.6 -0.25 6 4.8 -0.25 4.8
3 15 4.6 -0.25 9.7 3.9 -0.25 9.1 4.8 -0.25 4.8
3 15 4.9 -0.25 10.4 4.6 -0.25 9.7 4.8 -0.25 4.8
4 15 4.8 -0.25 4.8 -3.6 -0.25 6 -2.6 -0.25 3.7 1 -0.25 2.1
4 15 4.8 -0.25 4.8 1 -0.25 2.1 1.5 -0.25 2.1 4.9 -0.25 2.2
3 15 4.8 -0.25 4.8 4.9 -0.25 2.2 5.7 -0.25 2.2
4 15 4.9 -0.25 2.2 1.5 -0.25 2.1 1.8 -0.25 1.5 3.7 -0.25 1.5
4 15 4.6 -0.25 1.4 4.9 -0.25 2.2 3.7 -0.25 1.5 3.9 -0.25 1.2
4 15 0.6 -0.25 1.7 1 -0.25 2.1 -2.6 -0.25 3.7 -3.1 -0.25 3.7
4 15 0.7 -0.25 1.1 0.6 -0.25 1.7 -3.1 -0.25 3.7 -3.1 -0.25 0.4
4 15 0.5 -0.25 -1.3 0.7 -0.25 1.1 -3.1 -0.25 0.4 0 -0.25 -1.7
4 15 0 -0.25 -1.7 -3.1 -0.25 0.4 -1.7 -0.25 -2.3 -0.5 -0.25 -2.8
4 15 -2.5 -0.25 -2.5 -1.7 -0.25 -2.3 -3.1 -0.25 0.4 -7.2 -0.25 -2.1
4 15 -7.2 -0.25 -2.1 -3.1 -0.25 0.4 -7.8 -0.25 -1.2 -7.8 -0.25 -2.2
4 15 -7.8 -0.25 -1.2 -3.1 -0.25 0.4 -9.5 -0.25 0.4 -8.3 -0.25 -1.2
4 15 -8.3 -0.25 -1.2 -9.5 -0.25 0.4 -10.7 -0.25 -0.9 -8.4 -0.25 -2.4
3 15 -10.7 -0.25 -0.9 -10 -0.25 -3.4 -8.4 -0.25 -2.4
4 15 -7 -0.25 -3 -2.5 -0.25 -2.5 -7.2 -0.25 -2.1 -7.6 -0.25 -2.5
4 15 -3.4 -0.25 -3.3 -2.5 -0.25 -2.5 -7 -0.25 -3 -7.3 -0.25 -3.3
4 15 -3.7 -0.25 -3.9 -3.4 -0.25 -3.3 -7.3 -0.25 -3.3 -7.9 -0.25 -5
4 15 -7.9 -0.25 -5 -7.3 -0.25 -3.3 -8.1 -0.25 -2.9 -9.7 -0.25 -4
4 15 -3.5 -0.25 -4.2 -3.7 -0.25 -3.9 -7.9 -0.25 -5 -8.1 -0.25 -5.4
4 15 -3.5 -0.25 -4.2 -8.1 -0.25 -5.4 -2.7 -0.25 -5 -2.7 -0.25 -4.1
4 15 -2.8 -0.25 -3.5 -3.5 -0.25 -4.2 -2.7 -0.25 -4.1 -2.2 -0.25 -3.4
4 15 -2.5 -0.25 -5.6 -2.7 -0.25 -5 -8.1 -0.25 -5.4 -5.68 -0.25 -8.48
4 15 -7.25 -0.25 -8.48 -5.68 -0.25 -8.48 -8.1 -0.25 -5.4 -11.2 -0.25 -5
4 15 -12.4 -0.25 -7.3 -7.25 -0.25 -8.48 -11.2 -0.25 -5 -12.7 -0.25 -5.8
4 15 -12.8 -0.25 -7.3 -12.4 -0.25 -7.3 -12.7 -0.25 -5.8 -12.9 -0.25 -5.5
4 15 -7.25 -0.25 -8.48 -12.4 -0.25 -7.3 -12.2 -0.25 -7.7 -12 -0.25 -8
3 15 -12.4 -0.25 -7.3 -12.4 -0.25 -8 -12.2 -0.25 -7.7
4 15 -7.93 -0.25 -9.38 -7.25 -0.25 -8.48 -12 -0.25 -8 -11.9 -0.25 -8.7
4 15 -11.9 -0.25 -8.7 -12 -0.25 -8 -12.4 -0.25 -8.6 -12.4 -0.25 -9
4 15 -7.93 -0.25 -9.38 -11.9 -0.25 -8.7 -11.7 -0.25 -9 -9.57 -0.25 -9.38
4 15 -9.57 -0.25 -9.38 -11.7 -0.25 -9 -11.6 -0.25 -9.4 -9.72 -0.25 -9.6
4 15 -11.6 -0.25 -9.4 -11.7 -0.25 -9 -12.4 -0.25 -9.6 -12.4 -0.25 -9.9
4 15 -9.72 -0.25 -9.6 -11.6 -0.25 -9.4 -11.3 -0.25 -9.7 -9.8 -0.25 -10.12
4 15 -9.8 -0.25 -10.12 -11.3 -0.25 -9.7 -12.3 -0.25 -10.5 -9.5 -0.25 -11.02
4 15 -9.5 -0.25 -11.02 -12.3 -0.25 -10.5 -12.3 -0.25 -11.6 -9.2 -0.25 -13.8
4 15 -9.7 -0.25 -14.1 -9.2 -0.25 -13.8 -12.3 -0.25 -11.6 -12.14 -0.25 -13.96
3 15 -12.3 -0.25 -11.6 -12.32 -0.25 -13.78 -12.14 -0.25 -13.96
4 15 -12.32 -0.25 -13.78 -12.3 -0.25 -11.6 -12.68 -0.25 -13.54 -12.62 -0.25 -13.9
4 15 -12.62 -0.25 -13.9 -12.68 -0.25 -13.54 -12.8 -0.25 -13.78 -12.98 -0.25 -14.2
4 15 -12.74 -0.25 -13.3 -12.68 -0.25 -13.54 -12.3 -0.25 -11.6 -12.9 -0.25 -11.6
3 15 -12.9 -0.25 -11.6 -12.98 -0.25 -13.18 -12.74 -0.25 -13.3
4 15 -13.28 -0.25 -13.24 -12.98 -0.25 -13.18 -12.9 -0.25 -11.6 -12.9 -0.25 -10.5
4 15 -13.28 -0.25 -13.24 -12.9 -0.25 -10.5 -13.9 -0.25 -9.7 -13.46 -0.25 -13.48
4 15 -13.46 -0.25 -13.48 -13.9 -0.25 -9.7 -14 -0.25 -14.74 -13.46 -0.25 -13.78
3 15 -13.9 -0.25 -9.7 -14.42 -0.25 -15.16 -14 -0.25 -14.74
3 15 -13.46 -0.25 -13.78 -14 -0.25 -14.74 -13.34 -0.25 -14.2
4 15 -9.7 -0.25 -14.1 -12.14 -0.25 -13.96 -12.02 -0.25 -14.26 -9.1 -0.25 -15.3
4 15 -9.9 -0.25 -15.3 -9.1 -0.25 -15.3 -12.02 -0.25 -14.26 -12.26 -0.25 -14.56
4 15 -10.1 -0.25 -15.7 -9.9 -0.25 -15.3 -12.26 -0.25 -14.56 -12.62 -0.25 -14.62
4 15 -13.52 -0.25 -15.1 -10.1 -0.25 -15.7 -12.62 -0.25 -14.62 -13.04 -0.25 -14.56
4 15 -9.9 -0.25 -16.1 -10.1 -0.25 -15.7 -13.52 -0.25 -15.1 -13.94 -0.25 -15.58
4 15 -13.52 -0.25 -17.71 -9.9 -0.25 -16.1 -13.94 -0.25 -15.58 -13.77 -0.25 -17.77
3 15 -13.94 -0.25 -15.58 -13.89 -0.25 -17.92 -13.77 -0.25 -17.77
3 15 -13.89 -0.25 -17.92 -14.02 -0.25 -18.4 -13.89 -0.25 -18.19
3 15 -9.9 -0.25 -16.1 -13.52 -0.25 -17.71 -13.31 -0.25 -17.75
3 15 -9.9 -0.25 -16.1 -13.31 -0.25 -17.75 -13.2 -0.25 -17.9
4 15 -9.9 -0.25 -16.1 -13.2 -0.25 -17.9 -13.16 -0.25 -18.11 -12.97 -0.25 -18.67
4 15 -12.97 -0.25 -18.67 -13.16 -0.25 -18.11 -13.22 -0.25 -18.34 -13.18 -0.25 -18.78
4 15 -13.18 -0.25 -18.78 -13.22 -0.25 -18.34 -13.52 -0.25 -18.8 -13.33 -0.25 -19.03
4 15 -13.33 -0.25 -19.03 -13.52 -0.25 -18.8 -13.77 -0.25 -19.22 -13.52 -0.25 -19.37
4 15 -13.52 -0.25 -19.37 -13.77 -0.25 -19.22 -13.79 -0.25 -19.39 -13.66 -0.25 -19.49
3 15 -9.9 -0.25 -16.1 -12.97 -0.25 -18.67 -12.7 -0.25 -18.76
4 15 -9.9 -0.25 -16.1 -12.7 -0.25 -18.76 -12.34 -0.25 -18.95 -12.02 -0.25 -18.91
4 15 -9.9 -0.25 -16.1 -12.02 -0.25 -18.91 -11.96 -0.25 -18.97 -10.08 -0.25 -18.86
4 15 -10.08 -0.25 -18.86 -11.96 -0.25 -18.97 -12.07 -0.25 -19.05 -9.48 -0.25 -19.34
4 15 -9.48 -0.25 -19.34 -12.07 -0.25 -19.05 -12.26 -0.25 -19.18 -12.3 -0.25 -19.47
4 15 -12.38 -0.25 -19.45 -12.3 -0.25 -19.47 -12.26 -0.25 -19.18 -12.53 -0.25 -19.16
4 15 -12.63 -0.25 -19.49 -12.38 -0.25 -19.45 -12.53 -0.25 -19.16 -12.74 -0.25 -19.28
4 15 -12.74 -0.25 -19.28 -12.53 -0.25 -19.16 -12.8 -0.25 -19.05 -12.97 -0.25 -19.2
3 15 -12.8 -0.25 -19.05 -12.97 -0.25 -19.09 -12.97 -0.25 -19.2
4 15 -9.48 -0.25 -19.34 -12.3 -0.25 -19.47 -12.36 -0.25 -19.62 -9.48 -0.25 -20
3 15 -12.36 -0.25 -19.62 -12.51 -0.25 -19.75 -9.48 -0.25 -20
4 15 -9.9 -0.25 -16.1 -10.08 -0.25 -18.86 -9.9 -0.25 -18.68 -9.84 -0.25 -18.44
4 15 -9.84 -0.25 -18.44 -9.9 -0.25 -18.68 -9.42 -0.25 -18.98 -9.42 -0.25 -18.8
4 15 -9.9 -0.25 -16.1 -9.84 -0.25 -18.44 -9.72 -0.25 -18.26 -9.66 -0.25 -17.84
4 15 -9.42 -0.25 -18.2 -9.66 -0.25 -17.84 -9.72 -0.25 -18.26 -9.42 -0.25 -18.44
4 15 -9.9 -0.25 -16.1 -9.66 -0.25 -17.84 -9.54 -0.25 -17.66 -9.42 -0.25 -17.42
3 15 -9.42 -0.25 -17.42 -9.54 -0.25 -17.66 -9.42 -0.25 -17.84
4 15 -9.4 -0.25 -16.1 -9.9 -0.25 -16.1 -9.42 -0.25 -17.42 -9.18 -0.25 -17.42
4 15 -9.4 -0.25 -16.1 -9.18 -0.25 -17.42 -8.6 -0.25 -16.1 -9.3 -0.25 -15.6
3 15 -8.7 -0.25 -15.6 -9.3 -0.25 -15.6 -8.6 -0.25 -16.1
4 15 -9.06 -0.25 -17.66 -8.6 -0.25 -16.1 -9.18 -0.25 -17.42 -9.18 -0.25 -17.84
4 15 -8.6 -0.25 -16.1 -9.06 -0.25 -17.66 -8.94 -0.25 -17.84 -8.1 -0.25 -16.1
4 15 -8.1 -0.25 -16.1 -8.94 -0.25 -17.84 -8.88 -0.25 -18.26 -8.76 -0.25 -18.44
4 15 -8.88 -0.25 -18.26 -8.94 -0.25 -17.84 -9.18 -0.25 -18.2 -9.18 -0.25 -18.44
4 15 -7.8 -0.25 -15.7 -8.1 -0.25 -16.1 -8.76 -0.25 -18.44 -5.45 -0.25 -18.13
4 15 -5.45 -0.25 -18.13 -8.76 -0.25 -18.44 -8.7 -0.25 -18.68 -8.52 -0.25 -18.86
4 15 -8.7 -0.25 -18.68 -8.76 -0.25 -18.44 -9.18 -0.25 -18.8 -9.18 -0.25 -18.98
4 15 -5.45 -0.25 -18.65 -5.45 -0.25 -18.13 -8.52 -0.25 -18.86 -6.35 -0.25 -19.55
4 15 -6.35 -0.25 -19.55 -8.52 -0.25 -18.86 -9.12 -0.25 -19.34 -9.12 -0.25 -20
3 15 -6.35 -0.25 -19.55 -9.12 -0.25 -20 -6.13 -0.25 -19.77
4 15 -5.58 -0.25 -16.26 -7.8 -0.25 -15.7 -5.45 -0.25 -18.13 -5.15 -0.25 -17.9
4 15 -5.58 -0.25 -16.26 -5.15 -0.25 -17.9 -4.85 -0.25 -17.9 -3.02 -0.25 -16.26
4 15 -3.02 -0.25 -16.26 -4.85 -0.25 -17.9 -4.47 -0.25 -18.27 -2.23 -0.25 -18.23
4 15 -2.23 -0.25 -18.23 -4.47 -0.25 -18.27 -4.47 -0.25 -18.58 -2.38 -0.25 -19.13
3 15 -2.23 -0.25 -18.23 -2.38 -0.25 -19.13 -1.78 -0.25 -19.13
4 15 -2.53 -0.25 -19.43 -2.38 -0.25 -19.13 -4.47 -0.25 -18.58 -4.7 -0.25 -18.88
3 15 -4.7 -0.25 -18.88 -2.38 -0.25 -19.73 -2.53 -0.25 -19.43
4 15 -3.02 -0.25 -16.26 -2.23 -0.25 -18.23 -1.85 -0.25 -18 -0.8 -0.25 -16.3
4 15 -0.8 -0.25 -16.3 -1.85 -0.25 -18 -1.1 -0.25 -18.75 -0.5 -0.25 -16.3
4 15 -0.5 -0.25 -16.3 -1.1 -0.25 -18.75 0.3 -0.25 -16.3 -0.2 -0.25 -15.8
3 15 0.2 -0.25 -15.8 -0.2 -0.25 -15.8 0.3 -0.25 -16.3
4 15 0.3 -0.25 -16.3 -1.1 -0.25 -18.75 -0.95 -0.25 -19.13 -0.8 -0.25 -19.43
3 15 -1.1 -0.25 -18.75 -1.33 -0.25 -19.13 -0.95 -0.25 -19.13
4 15 0.7 -0.25 -16.3 0.3 -0.25 -16.3 -0.8 -0.25 -19.43 1.52 -0.25 -18.78
3 15 1.52 -0.25 -18.78 -0.8 -0.25 -19.43 1.48 -0.25 -19.06
4 15 0.7 -0.25 -16.3 1.52 -0.25 -18.78 1.6 -0.25 -18.66 1.4 -0.25 -15.8
4 15 1.4 -0.25 -15.8 1.6 -0.25 -18.66 2.2 -0.25 -16.1 2.1 -0.25 -15.2
3 15 2.1 -0.25 -15.2 1.7 -0.25 -15.2 1.4 -0.25 -15.8
4 15 2.5 -0.25 -16.3 2.2 -0.25 -16.1 1.6 -0.25 -18.66 2.48 -0.25 -18.66
4 15 2.7 -0.25 -16.3 2.5 -0.25 -16.3 2.48 -0.25 -18.66 2.84 -0.25 -18.18
4 15 2.7 -0.25 -16.3 2.84 -0.25 -18.18 3.68 -0.25 -18.18 5 -0.25 -15.6
4 15 5.3 -0.25 -15.9 5 -0.25 -15.6 3.68 -0.25 -18.18 4.04 -0.25 -18.3
4 15 5.8 -0.25 -15.9 5.3 -0.25 -15.9 4.04 -0.25 -18.3 4.24 -0.25 -18.54
4 15 5.8 -0.25 -15.9 4.24 -0.25 -18.54 4.36 -0.25 -18.78 4.8 -0.25 -18.82
4 15 5.8 -0.25 -15.9 4.8 -0.25 -18.82 5.04 -0.25 -18.9 6.45 -0.25 -18.8
4 15 6.45 -0.25 -18.8 5.04 -0.25 -18.9 4.76 -0.25 -19.54 6.61 -0.25 -18.8
3 15 6.61 -0.25 -18.8 4.76 -0.25 -19.54 6.61 -0.25 -19.82
4 15 4.16 -0.25 -19.7 6.61 -0.25 -19.82 4.76 -0.25 -19.54 4.52 -0.25 -19.54
3 15 4.52 -0.25 -19.54 4.32 -0.25 -19.54 4.16 -0.25 -19.7
4 15 4.32 -0.25 -19.34 4.32 -0.25 -19.54 4.52 -0.25 -19.54 4.48 -0.25 -19.18
4 15 4.16 -0.25 -19.18 4.32 -0.25 -19.34 4.48 -0.25 -19.18 4.32 -0.25 -19.02
4 15 4.16 -0.25 -19.18 4.32 -0.25 -19.02 3.88 -0.25 -19.02 3.96 -0.25 -19.18
4 15 3.96 -0.25 -19.18 3.88 -0.25 -19.02 3.68 -0.25 -19.14 3.8 -0.25 -19.34
4 15 3.8 -0.25 -19.34 3.68 -0.25 -19.14 3.6 -0.25 -19.54 3.8 -0.25 -19.54
4 15 5.8 -0.25 -15.9 6.45 -0.25 -18.8 6.76 -0.25 -18.09 6.1 -0.25 -15.7
4 15 7.38 -0.25 -17.56 6.1 -0.25 -15.7 6.76 -0.25 -18.09 7.38 -0.25 -17.75
4 15 7.38 -0.25 -17.75 6.76 -0.25 -18.09 7.51 -0.25 -18.09 7.51 -0.25 -17.75
4 15 6.1 -0.25 -15.7 7.38 -0.25 -17.56 6.5 -0.25 -14.7 5.9 -0.25 -15.4
4 15 6.5 -0.25 -14.7 7.38 -0.25 -17.56 7.82 -0.25 -17.56 7.2 -0.25 -14.7
4 15 7.2 -0.25 -14.7 7.82 -0.25 -17.56 9.06 -0.25 -15.72 9.02 -0.25 -15.48
4 15 9.06 -0.25 -15.72 7.82 -0.25 -17.56 7.82 -0.25 -17.75 9.54 -0.25 -15.84
4 15 8.44 -0.25 -18.09 9.54 -0.25 -15.84 7.82 -0.25 -17.75 7.69 -0.25 -18.09
3 15 7.82 -0.25 -17.75 7.69 -0.25 -17.75 7.69 -0.25 -18.09
4 15 9.66 -0.25 -16.079 9.54 -0.25 -15.84 8.44 -0.25 -18.09 8.75 -0.25 -18.8
4 15 11 -0.25 -18.63 9.66 -0.25 -16.079 8.75 -0.25 -18.8 10.7 -0.25 -18.93
4 15 8.59 -0.25 -19.82 10.7 -0.25 -18.93 8.75 -0.25 -18.8 8.59 -0.25 -18.8
3 15 10.7 -0.25 -18.93 8.59 -0.25 -19.82 10.78 -0.25 -19.38
3 15 10.78 -0.25 -19.38 8.59 -0.25 -19.82 10.93 -0.25 -19.75
4 15 9.66 -0.25 -16.079 11 -0.25 -18.63 12.35 -0.25 -18.63 12.58 -0.25 -18.33
4 15 13.42 -0.25 -16.079 9.66 -0.25 -16.079 12.58 -0.25 -18.33 13.03 -0.25 -18.4
4 15 13.42 -0.25 -16.079 13.03 -0.25 -18.4 13.33 -0.25 -18.33 13.63 -0.25 -17.95
4 15 14.06 -0.25 -15.48 13.42 -0.25 -16.079 13.63 -0.25 -17.95 13.93 -0.25 -17.95
3 15 14.06 -0.25 -15.48 13.93 -0.25 -17.95 14.15 -0.25 -18.18
4 15 7.5 -0.25 -14.3 7.2 -0.25 -14.7 9.02 -0.25 -15.48 9.18 -0.25 -15.32
4 15 7.5 -0.25 -13.9 7.5 -0.25 -14.3 9.18 -0.25 -15.32 9.38 -0.25 -15.32
4 15 7.5 -0.25 -13.9 9.38 -0.25 -15.32 10.7 -0.25 -14.24 9.38 -0.25 -11.15
4 15 10.7 -0.25 -14.24 9.38 -0.25 -15.32 9.5 -0.25 -15.56 10.26 -0.25 -15.56
4 15 10.74 -0.25 -15.28 10.7 -0.25 -14.24 10.26 -0.25 -15.56 10.62 -0.25 -15.6
3 15 10.26 -0.25 -15.56 10.34 -0.25 -15.68 10.62 -0.25 -15.6
3 15 10.7 -0.25 -14.24 10.74 -0.25 -15.28 11.06 -0.25 -15.28
4 15 10.5 -0.25 -10.55 9.38 -0.25 -11.15 10.7 -0.25 -14.24 11.06 -0.25 -14.24
4 15 11.38 -0.25 -14.28 10.5 -0.25 -10.55 11.06 -0.25 -14.24 11.34 -0.25 -15.28
3 15 11.38 -0.25 -14.28 11.34 -0.25 -15.28 11.7 -0.25 -15.28
4 15 10.5 -0.25 -10.55 11.38 -0.25 -14.28 11.7 -0.25 -14.28 12.83 -0.25 -10.85
4 15 12.22 -0.25 -14.96 12.83 -0.25 -10.85 11.7 -0.25 -14.28 11.98 -0.25 -15.28
3 15 12.22 -0.25 -14.96 11.98 -0.25 -15.28 12.22 -0.25 -15.28
3 15 12.83 -0.25 -10.85 12.22 -0.25 -14.96 12.62 -0.25 -14.96
4 15 12.83 -0.25 -10.85 12.62 -0.25 -14.96 13.14 -0.25 -15.48 12.97 -0.25 -10.55
4 15 13.14 -0.25 -15.48 12.62 -0.25 -14.96 12.46 -0.25 -15.36 12.98 -0.25 -15.68
3 15 12.46 -0.25 -15.36 12.62 -0.25 -15.68 12.98 -0.25 -15.68
4 15 12.97 -0.25 -10.55 13.14 -0.25 -15.48 14.06 -0.25 -15.48 13.43 -0.25 -9.28
3 15 13.65 -0.25 -9.05 13.43 -0.25 -9.28 14.06 -0.25 -15.48
4 15 12.97 -0.25 -10.55 13.43 -0.25 -9.28 12.83 -0.25 -8.98 11.63 -0.25 -9.8
4 15 7 -0.25 -13.4 7.5 -0.25 -13.9 9.38 -0.25 -11.15 9.23 -0.25 -10.93
4 15 6.2 -0.25 -11.1 7 -0.25 -13.4 9.23 -0.25 -10.93 6.2 -0.25 -10.6
4 15 6.2 -0.25 -10.6 9.23 -0.25 -10.93 10.28 -0.25 -10.1 6.3 -0.25 -9.3
4 15 6.2 -0.25 -10.6 6.3 -0.25 -9.3 6 -0.25 -9.4 5.5 -0.25 -9.6
3 15 5.5 -0.25 -9 5.5 -0.25 -9.6 6 -0.25 -9.4
4 15 6.2 -0.25 -8.9 6.3 -0.25 -9.3 10.28 -0.25 -10.1 10.58 -0.25 -7.48
4 15 5.4 -0.25 -8 6.2 -0.25 -8.9 10.58 -0.25 -7.48 5.6 -0.25 -7.6
4 15 5.6 -0.25 -7.1 5.6 -0.25 -7.6 10.58 -0.25 -7.48 8.3 -0.25 -5.2
4 15 9.9 -0.25 -5.2 8.3 -0.25 -5.2 10.58 -0.25 -7.48 10.88 -0.25 -7.47
4 15 9.9 -0.25 -5.2 10.88 -0.25 -7.47 10.8 -0.25 -5.6 10.4 -0.25 -5.2
4 15 9.9 -0.25 -5.2 10.4 -0.25 -5.2 10.4 -0.25 -4.7 10.1 -0.25 -4.2
4 15 10.1 -0.25 -4.2 10.4 -0.25 -4.7 10.8 -0.25 -4.3 10.6 -0.25 -3.9
4 15 10.6 -0.25 -3.9 10.8 -0.25 -4.3 11.3 -0.25 -4.3 11.7 -0.25 -3.9
4 15 11.7 -0.25 -3.9 11.3 -0.25 -4.3 11.7 -0.25 -4.7 12.1 -0.25 -4.3
4 15 12.2 -0.25 -5.2 12.1 -0.25 -4.3 11.7 -0.25 -4.7 11.7 -0.25 -5.2
4 15 12.68 -0.25 -7.7 12.2 -0.25 -5.2 11.7 -0.25 -5.2 11.3 -0.25 -5.6
4 15 12.8 -0.25 -5.2 12.2 -0.25 -5.2 12.68 -0.25 -7.7 13.05 -0.25 -7.7
3 15 13.5 -0.25 -3.6 12.8 -0.25 -5.2 13.05 -0.25 -7.7
4 15 10.88 -0.25 -7.47 12.68 -0.25 -7.7 11.3 -0.25 -5.6 10.8 -0.25 -5.6
4 15 12.6 -0.25 -8.6 12.68 -0.25 -7.7 10.88 -0.25 -7.47 11.4 -0.25 -9.35
4 15 6.5 -0.25 -5.6 5.6 -0.25 -7.1 8.3 -0.25 -5.2 6.9 -0.25 -5.2
3 15 6.9 -0.25 -4.7 6.9 -0.25 -5.2 8.3 -0.25 -5.2
4 15 6.9 -0.25 -4.7 8.3 -0.25 -5.2 6.8 -0.25 -4 6.5 -0.25 -4.3
4 15 6 -0.25 -4.3 6.5 -0.25 -4.3 6.8 -0.25 -4 5.7 -0.25 -4
4 15 6 -0.25 -4.3 5.7 -0.25 -4 5.4 -0.25 -4.4 5.6 -0.25 -4.7
4 15 5.6 -0.25 -4.7 5.4 -0.25 -4.4 5.4 -0.25 -5.2 5.6 -0.25 -5.2
4 15 5.6 -0.25 -5.2 5.4 -0.25 -5.2 5.2 -0.25 -6.9 6 -0.25 -5.6
4 15 6 -0.25 -5.6 5.2 -0.25 -6.9 5.6 -0.25 -7.1 6.5 -0.25 -5.6
4 15 5.2 -0.25 -6.9 5.4 -0.25 -5.2 5 -0.25 -5.2 4.8 -0.25 -7.1
4 15 0.8 -0.25 -7.5 4.8 -0.25 -7.1 5 -0.25 -5.2 0.1 -0.25 -5.6
4 15 0.1 -0.25 -5.6 5 -0.25 -5.2 4.6 -0.25 -4 0.2 -0.25 -3.7
4 15 0.2 -0.25 -3.7 4.6 -0.25 -4 1.3 -0.25 -2.8 0.4 -0.25 -2.7
3 15 0.9 -0.25 -2.2 0.4 -0.25 -2.7 1.3 -0.25 -2.8
4 15 1.3 -0.25 -2.8 4.6 -0.25 -4 4.7 -0.25 -3.3 1.7 -0.25 -2.5
4 15 1.7 -0.25 -2.5 4.7 -0.25 -3.3 4.9 -0.25 -3 1.4 -0.25 -1.3
4 15 2.2 -0.25 0.2 1.4 -0.25 -1.3 4.9 -0.25 -3 7.1 -0.25 -3
4 15 1.4 -0.25 -1.3 2.2 -0.25 0.2 1.9 -0.25 0.8 0.5 -0.25 -1.3
3 15 0.7 -0.25 1.1 0.5 -0.25 -1.3 1.9 -0.25 0.8
3 15 2.2 -0.25 0.2 7.1 -0.25 -3 8 -0.25 -1.8
4 15 11.6 -0.25 0.2 2.2 -0.25 0.2 8 -0.25 -1.8 10.1 -0.25 -1.8
4 15 0.4 -0.25 -7.3 0.8 -0.25 -7.5 0.1 -0.25 -5.6 -0.3 -0.25 -5.6
4 15 -0.1 -0.25 -7.4 0.4 -0.25 -7.3 -0.3 -0.25 -5.6 -2.2 -0.25 -5.6
4 15 -2.1 -0.25 -4.5 -2.2 -0.25 -5.6 -0.3 -0.25 -5.6 -0.4 -0.25 -3.8
3 15 -1.7 -0.25 -3.7 -2.1 -0.25 -4.5 -0.4 -0.25 -3.8
4 15 -0.1 -0.25 -7.4 -2.2 -0.25 -5.6 -2.5 -0.25 -5.6 -5.68 -0.25 -8.48
4 15 -0.1 -0.25 -7.4 -5.68 -0.25 -8.48 -5 -0.25 -8.7 -0.4 -0.25 -7.8
4 15 -0.4 -0.25 -7.8 -5 -0.25 -8.7 -4.63 -0.25 -9.15 -0.4 -0.25 -8.3
4 15 -3.58 -0.25 -9.68 -0.4 -0.25 -8.3 -4.63 -0.25 -9.15 -4.4 -0.25 -9.6
4 15 -0.4 -0.25 -8.3 -3.58 -0.25 -9.68 -3.13 -0.25 -9.83 -0.2 -0.25 -9
3 15 -0.2 -0.25 -9 -3.13 -0.25 -9.83 -1.3 -0.25 -9.9
4 15 -2 -0.25 -10.6 -1.3 -0.25 -9.9 -3.13 -0.25 -9.83 -3.65 -0.25 -11.03
4 15 -3.22 -0.25 -14.02 -2 -0.25 -10.6 -3.65 -0.25 -11.03 -4.019 -0.25 -13.34
3 15 -4.019 -0.25 -13.34 -4.019 -0.25 -13.58 -3.22 -0.25 -14.02
4 15 -4.18 -0.25 -14.02 -3.22 -0.25 -14.02 -4.019 -0.25 -13.58 -4.18 -0.25 -13.58
4 15 -4.019 -0.25 -13.34 -3.65 -0.25 -11.03 -4.1 -0.25 -11.03 -4.58 -0.25 -13.34
4 15 -4.58 -0.25 -13.34 -4.1 -0.25 -11.03 -4.48 -0.25 -11.03 -4.77 -0.25 -11.33
4 15 -4.47 -0.25 -10.65 -4.48 -0.25 -11.03 -4.1 -0.25 -11.03 -4.18 -0.25 -10.35
4 15 -4.47 -0.25 -10.65 -4.18 -0.25 -10.35 -4.47 -0.25 -10.05 -4.78 -0.25 -10.35
4 15 -4.78 -0.25 -10.35 -4.47 -0.25 -10.05 -5.3 -0.25 -10.05 -5.15 -0.25 -10.35
4 15 -5.15 -0.25 -10.35 -5.3 -0.25 -10.05 -5.68 -0.25 -10.28 -5.45 -0.25 -10.65
4 15 -5.45 -0.25 -10.65 -5.68 -0.25 -10.28 -5.83 -0.25 -11.03 -5.45 -0.25 -11.02
4 15 -5.45 -0.25 -11.02 -5.83 -0.25 -11.03 -5.38 -0.25 -14.02 -5.15 -0.25 -11.33
4 15 -5.15 -0.25 -11.33 -5.38 -0.25 -14.02 -4.58 -0.25 -13.34 -4.77 -0.25 -11.33
3 15 -4.58 -0.25 -13.34 -5.38 -0.25 -14.02 -4.58 -0.25 -13.58
4 15 -4.58 -0.25 -13.58 -5.38 -0.25 -14.02 -4.42 -0.25 -14.02 -4.42 -0.25 -13.58
4 15 -5.38 -0.25 -14.02 -5.83 -0.25 -11.03 -7.03 -0.25 -11.03 -5.78 -0.25 -14.94
4 15 -8.2 -0.25 -14.8 -5.78 -0.25 -14.94 -7.03 -0.25 -11.03 -8.07 -0.25 -11.03
3 15 -8.07 -0.25 -10.65 -8.07 -0.25 -11.03 -7.03 -0.25 -11.03
4 15 -8.07 -0.25 -10.65 -7.03 -0.25 -11.03 -8.15 -0.25 -10.12 -8.38 -0.25 -10.35
4 15 -8.75 -0.25 -10.35 -8.38 -0.25 -10.35 -8.15 -0.25 -10.12 -8.98 -0.25 -10.12
4 15 -9.05 -0.25 -10.65 -8.75 -0.25 -10.35 -8.98 -0.25 -10.12 -9.2 -0.25 -10.43
4 15 -9.05 -0.25 -10.65 -9.2 -0.25 -10.43 -9.2 -0.25 -11.02 -9.05 -0.25 -11.03
4 15 -9.2 -0.25 -13.8 -9.05 -0.25 -11.03 -9.2 -0.25 -11.02 -9.5 -0.25 -11.02
4 15 -8.75 -0.25 -11.33 -9.05 -0.25 -11.03 -9.2 -0.25 -13.8 -8.2 -0.25 -14.8
3 15 -8.38 -0.25 -11.33 -8.75 -0.25 -11.33 -8.2 -0.25 -14.8
3 15 -8.07 -0.25 -11.03 -8.38 -0.25 -11.33 -8.2 -0.25 -14.8
4 15 -8.2 -0.25 -14.8 -8.5 -0.25 -15.3 -8 -0.25 -15.3 -5.78 -0.25 -14.94
4 15 -5.78 -0.25 -14.94 -8 -0.25 -15.3 -7.8 -0.25 -15.7 -5.58 -0.25 -14.94
3 15 -5.58 -0.25 -14.94 -7.8 -0.25 -15.7 -5.58 -0.25 -16.26
4 15 -1.8 -0.25 -10.8 -2 -0.25 -10.6 -3.22 -0.25 -14.02 -2.82 -0.25 -14.94
4 15 -1.4 -0.25 -11.1 -1.8 -0.25 -10.8 -2.82 -0.25 -14.94 -1.2 -0.25 -11.3
4 15 -0.9 -0.25 -10.1 -1.8 -0.25 -10.8 -1.4 -0.25 -11.1 -0.7 -0.25 -10.3
3 15 -0.3 -0.25 -9.6 -0.9 -0.25 -10.1 -0.7 -0.25 -10.3
4 15 -0.7 -0.25 -14.8 -1.2 -0.25 -11.3 -2.82 -0.25 -14.94 -1.1 -0.25 -15.2
4 15 -3.02 -0.25 -16.26 -1.1 -0.25 -15.2 -2.82 -0.25 -14.94 -3.02 -0.25 -14.94
3 15 -1.1 -0.25 -15.2 -3.02 -0.25 -16.26 -1 -0.25 -15.8
3 15 -1 -0.25 -15.8 -3.02 -0.25 -16.26 -0.8 -0.25 -16.3
4 15 -1.2 -0.25 -11.3 -0.7 -0.25 -14.8 1.1 -0.25 -14.8 -0.5 -0.25 -10.5
4 15 -0.5 -0.25 -10.5 1.1 -0.25 -14.8 1.4 -0.25 -14.4 0.3 -0.25 -9.6
4 15 0.3 -0.25 -9.6 1.4 -0.25 -14.4 2 -0.25 -14.5 1 -0.25 -9.7
4 15 1 -0.25 -9.7 2 -0.25 -14.5 2.4 -0.25 -14.4 2.8 -0.25 -13.9
4 15 1.6 -0.25 -9.6 1 -0.25 -9.7 2.8 -0.25 -13.9 4 -0.25 -10.7
4 15 2 -0.25 -9.1 1.6 -0.25 -9.6 4 -0.25 -10.7 4 -0.25 -9.2
4 15 4.3 -0.25 -9.4 4 -0.25 -9.2 4 -0.25 -10.7 4.7 -0.25 -9.7
3 15 4.8 -0.25 -9 4.3 -0.25 -9.4 4.7 -0.25 -9.7
4 15 2 -0.25 -9.1 4 -0.25 -9.2 4.2 -0.25 -8.9 1.8 -0.25 -8.6
4 15 1.8 -0.25 -8.6 4.2 -0.25 -8.9 5 -0.25 -8 1.5 -0.25 -8.3
4 15 1.5 -0.25 -8.3 5 -0.25 -8 4.8 -0.25 -7.6 0.9 -0.25 -7.9
4 15 1 -0.25 -8.5 1.5 -0.25 -8.3 0.9 -0.25 -7.9 0.7 -0.25 -8.3
3 15 0.7 -0.25 -8.3 0.4 -0.25 -9 1 -0.25 -8.5
4 15 4.8 -0.25 -7.1 0.8 -0.25 -7.5 0.9 -0.25 -7.9 4.8 -0.25 -7.6
4 15 4.1 -0.25 -11.1 4 -0.25 -10.7 2.8 -0.25 -13.9 3.2 -0.25 -13.9
4 15 4.4 -0.25 -11.1 4.1 -0.25 -11.1 3.2 -0.25 -13.9 3.5 -0.25 -14.2
4 15 4.4 -0.25 -11.1 3.5 -0.25 -14.2 5.8 -0.25 -11.1 5.2 -0.25 -10.1
4 15 5.8 -0.25 -11.1 3.5 -0.25 -14.2 6.2 -0.25 -13.7 6.2 -0.25 -11.1
3 15 6.2 -0.25 -11.1 6.2 -0.25 -13.7 6.6 -0.25 -13.4
3 15 6.2 -0.25 -11.1 6.6 -0.25 -13.4 7 -0.25 -13.4
4 15 6.2 -0.25 -14.4 6.2 -0.25 -13.7 3.5 -0.25 -14.2 3.5 -0.25 -14.6
4 15 5 -0.25 -15.6 6.2 -0.25 -14.4 3.5 -0.25 -14.6 2.7 -0.25 -14.8
3 15 2.7 -0.25 -14.8 2.7 -0.25 -16.3 5 -0.25 -15.6
