0 Minifig Crutch
0 Name: 24077.dat
0 Author: Ulrich Röder [UR]
0 !LDRAW_ORG Part UPDATE 2020-03
0 !LICENSE Licensed under CC BY 4.0 : see CAreadme.txt

0 BFC CERTIFY CCW

0 !CATEGORY Minifig Accessory

0 !HISTORY 2020-12-29 [PTadmin] Official Update 2020-03


1 16 -12 -66 0 0 -6.4 0 0 0 -4 4 0 0 t02o4000.dat
1 16 -12 -66 -4 -2.56 0 0 0 4 0 0 0 -1.6 1-4cyli.dat
1 16 -14.56 -66 0 0 1 0 0 0 -4 4 0 0 2-4chrd.dat
1 16 14.56 -66 0 0 -1 0 0 0 -4 4 0 0 2-4chrd.dat
1 16 -12 -66 4 -2.56 0 0 0 4 0 0 0 1.6 1-4cyli.dat
1 16 -8.5 -38 -3.9 -2.56 3.8 0 0 8 0 0 1 -1.6 1-4cyli.dat
1 16 -8.5 -38 3.9 -2.56 3.8 0 0 8 0 0 -1 1.6 1-4cyli.dat
1 16 12 -66 4 2.56 0 0 0 4 0 0 0 1.6 1-4cyli.dat
1 16 12 -66 -4 2.56 0 0 0 4 0 0 0 -1.6 1-4cyli.dat
1 16 8.5 -38 3.9 2.56 -3.8 0 0 8 0 0 -1 1.6 1-4cyli.dat
1 16 11 -48 4 2.56 -0.7 0 0 4 0 0 0 1.6 1-4cyli.dat
1 16 10.3 -44 4 2.56 -0.8 0 0 3 0 0 0 1.6 1-4cyli.dat
1 16 9.5 -41 4 2.56 -1 0 0 3 0 0 -0.1 1.6 1-4cyli.dat
1 16 8.5 -38 -3.9 2.56 -3.8 0 0 8 0 0 1 -1.6 1-4cyli.dat
1 16 12 -66 0 0 6.4 0 0 0 -4 -4 0 0 t02o4000.dat
1 16 12 -66 0 0 -24 0 0 0 -4 4 0 0 4-4cyli.dat
1 16 6.6 -34 0 0 -9.4 1.9 0 0 -4 4 0 0 4-4cyli.dat
1 16 6.6 -34 0 0 -1 1.9 0 0 -4 4 0 0 4-4edge.dat
1 16 -2.8 -34 0 -1.9 -3.8 0 4 0 0 0 0 4 4-4cylse.dat
1 16 12 -66 0 0 1 0 0 0 -5.6 5.6 0 0 2-4chrd.dat
1 16 12 -66 0 0 1 0 0 0 -5.6 5.6 0 0 2-4edge.dat
1 16 -12 -66 0 0 -1 0 0 0 -4 4 0 0 4-4edge.dat
1 16 12 -66 0 0 -1 0 0 0 -4 4 0 0 4-4edge.dat
1 16 -12 -66 0 0 -1 0 0 0 -5.6 5.6 0 0 2-4chrd.dat
1 16 -12 -66 0 0 -1 0 0 0 -5.6 5.6 0 0 2-4edge.dat
1 16 0 0 0 0 0 4 0 -10 0 4 0 0 4-4cylc.dat
1 16 0 -10 0 0 0 2.6 0 1 0 2.6 0 0 4-4edge.dat
1 16 0 -10 0 4 0 0 0 1 0 0 0 4 4-4disc.dat
1 16 0 -10 0 0 0 2.6 0 -1 0 2.6 0 0 4-4cyli.dat
1 16 0 -11 0 0 -0.3 -2.6 0 -4 0 2.6 0.03 0 1-4cyli.dat
1 16 0 -11 0 0 -0.3 -2.6 0 -4 0 -2.6 -0.03 0 1-4cyli.dat
1 16 0 -11 0 0 0.3 2.6 0 -4 0 2.6 0.03 0 1-4cyli.dat
1 16 -0.3 -15 0.03 0 -0.76 -2.6 0 -3.4 0 2.6 0.15 0 1-4cyli.dat
1 16 -0.3 -15 -0.03 0 -0.76 -2.6 0 -3.4 0 -2.6 -0.15 0 1-4cyli.dat
1 16 0.3 -15 -0.03 0 0.76 2.6 0 -3.4 0 -2.6 -0.15 0 1-4cyli.dat
1 16 0.3 -15 0.03 0 0.76 2.6 0 -3.4 0 2.6 0.15 0 1-4cyli.dat
1 16 -1.06 -18.4 0.18 0 -0.88 -2.6 0 -3 0 2.6 0.22 0 1-4cyli.dat
1 16 -1.06 -18.4 -0.18 0 -0.88 -2.6 0 -3 0 -2.6 -0.22 0 1-4cyli.dat
1 16 1.06 -18.4 -0.18 0 0.88 2.6 0 -3 0 -2.6 -0.22 0 1-4cyli.dat
1 16 1.06 -18.4 0.18 0 0.88 2.6 0 -3 0 2.6 0.22 0 1-4cyli.dat
1 16 0 -11 0 0 0.3 2.6 0 -4 0 -2.6 -0.03 0 1-4cyli.dat
1 16 0 -22.424 3 1.9 0 0 0 -1 -1.882 0 0 0.264 4-4disc.dat
1 16 0 -22.403 3.15 1.9 0 0 0 -1 -1.882 0 0 0.264 2-4ndis.dat
0 BFC INVERTNEXT
1 16 0 -22.424 3 1.9 0 0 0 0.021 -1.882 0 0.15 0.264 4-4cyli.dat
1 16 0 -22.424 3 -1.9 0 0 0 1 -1.882 0 0 0.264 4-4edge.dat
1 16 0 -22.403 3.15 -1.9 0 0 0 1 -1.882 0 0 0.264 4-4edge.dat
1 16 0 -22.427 -3.15 1.9 0 0 0 -1 -1.882 0 0 -0.264 2-4ndis.dat
1 16 0 -22.427 -3.15 1.9 0 0 0 -1 -1.882 0 0 -0.264 4-4edge.dat
0 BFC INVERTNEXT
1 16 0 -22.448 -3 1.9 0 0 0 0 -1.882 0 0.7 -0.264 4-4con0.dat
1 16 -12 -62 -4 -2.56 0.1 0 0 4 0 0 0 -1.6 1-4cyli.dat
1 16 -12 -62 4 -2.56 0.1 0 0 4 0 0 0 1.6 1-4cyli.dat
1 16 0 -22.448 -3 1.9 0 0 0 -1 -1.882 0 0 -0.264 4-4edge.dat
1 16 -11.9 -58 -4 -2.56 0.2 0 0 4 0 0 0 -1.6 1-4cyli.dat
1 16 -11.9 -58 4 -2.56 0.2 0 0 4 0 0 0 1.6 1-4cyli.dat
0 BFC INVERTNEXT
1 16 0 -22.448 -3 1.9 0 0 0 0.021 -1.882 0 -0.15 -0.264 4-4cyli.dat
1 16 -11.7 -54 -4 -2.56 0.3 0 0 3 0 0 0 -1.6 1-4cyli.dat
1 16 -11.7 -54 4 -2.56 0.3 0 0 3 0 0 0 1.6 1-4cyli.dat
1 16 -11.4 -51 -4 -2.56 0.4 0 0 3 0 0 0 -1.6 1-4cyli.dat
1 16 -11.4 -51 4 -2.56 0.4 0 0 3 0 0 0 1.6 1-4cyli.dat
1 16 -11 -48 -4 -2.56 0.7 0 0 4 0 0 0 -1.6 1-4cyli.dat
1 16 -11 -48 4 -2.56 0.7 0 0 4 0 0 0 1.6 1-4cyli.dat
1 16 -10.3 -44 -4 -2.56 0.8 0 0 3 0 0 0 -1.6 1-4cyli.dat
1 16 -10.3 -44 4 -2.56 0.8 0 0 3 0 0 0 1.6 1-4cyli.dat
1 16 -9.5 -41 -4 -2.56 1 0 0 3 0 0 0.1 -1.6 1-4cyli.dat
1 16 -9.5 -41 4 -2.56 1 0 0 3 0 0 -0.1 1.6 1-4cyli.dat
1 16 12 -62 4 2.56 -0.1 0 0 4 0 0 0 1.6 1-4cyli.dat
1 16 12 -62 -4 2.56 -0.1 0 0 4 0 0 0 -1.6 1-4cyli.dat
1 16 11.9 -58 4 2.56 -0.2 0 0 4 0 0 0 1.6 1-4cyli.dat
1 16 11.9 -58 -4 2.56 -0.2 0 0 4 0 0 0 -1.6 1-4cyli.dat
1 16 11.7 -54 4 2.56 -0.3 0 0 3 0 0 0 1.6 1-4cyli.dat
1 16 11.7 -54 -4 2.56 -0.3 0 0 3 0 0 0 -1.6 1-4cyli.dat
1 16 11.4 -51 4 2.56 -0.4 0 0 3 0 0 0 1.6 1-4cyli.dat
1 16 11.4 -51 -4 2.56 -0.4 0 0 3 0 0 0 -1.6 1-4cyli.dat
1 16 11 -48 -4 2.56 -0.7 0 0 4 0 0 0 -1.6 1-4cyli.dat
1 16 10.3 -44 -4 2.56 -0.8 0 0 3 0 0 0 -1.6 1-4cyli.dat
1 16 9.5 -41 -4 2.56 -1 0 0 3 0 0 0.1 -1.6 1-4cyli.dat
3 16 14.46 -58 0 14.26 -54 4 14.46 -58 4
3 16 -13.151 -44 0 -13.75 -48 0 -13.56 -48 4
3 16 14.46 -58 -4 14.46 -54 0 14.46 -58 0
3 16 -11.06 -38 -3.9 -12.333 -41 0 -10.998 -36 0
3 16 13.75 -48 0 12.86 -44 4 13.56 -48 4
3 16 -14.26 -54 -4 -14.46 -58 0 -14.46 -54 0
3 16 -13.56 -48 -4 -13.75 -48 0 -12.86 -44 -4
3 16 -12.86 -44 -4 -13.75 -48 0 -13.151 -44 0
3 16 -14.26 -54 4 -14.46 -54 0 -14.46 -58 4
3 16 13.75 -48 0 13.151 -44 0 12.86 -44 4
3 16 14.46 -58 -4 14.26 -54 -4 14.46 -54 0
3 16 13.56 -48 -4 13.151 -44 0 13.75 -48 0
3 16 12.333 -41 0 10.998 -36 0 11.06 -38 3.9
3 16 12.06 -41 4 12.333 -41 0 11.06 -38 3.9
3 16 -11.06 -38 -3.9 -12.06 -41 -4 -12.333 -41 0
3 16 -14.46 -58 0 -14.26 -54 -4 -14.46 -58 -4
3 16 14.46 -54 0 14.26 -54 4 14.46 -58 0
3 16 12.86 -44 -4 13.151 -44 0 13.56 -48 -4
3 16 -13.151 -44 0 -13.56 -48 4 -12.86 -44 4
3 16 -14.46 -58 0 -14.46 -58 4 -14.46 -54 0
3 16 6.51018 -30 4.03136 4.34214 -21.4 1.39502 3.77846 -21.4 2.23846
3 16 6.51018 -30 4.03136 7.06518 -30 3.51232 4.34214 -21.4 1.39502
3 16 -4.7 -30 -4.5 -2.93502 -21.4 -2.80214 -1.94 -21.4 -3
3 16 -4.7 -30 -4.5 -5.67971 -30 -4.37824 -2.93502 -21.4 -2.80214
3 16 -4.54 -21.4 0.4 -8.596 -30 0 -7.26 -30 2.9
3 16 -8.596 -30 0 -4.54 -21.4 0.4 -4.54 -21.4 -0.4
3 16 4.7 -30 4.5 1.9 -22.403 3.15 3.641 -28 4.1
3 16 -7.26 -30 2.9 -4.34214 -21.4 1.39502 -4.54 -21.4 0.4
3 16 -7.26 -30 2.9 -7.06518 -30 3.51232 -4.34214 -21.4 1.39502
3 16 -5.67971 -30 4.37824 -1.94 -21.4 3 -2.93502 -21.4 2.80214
3 16 -1.94 -21.4 3 -5.67971 -30 4.37824 -4.7 -30 4.5
3 16 4.54 -21.4 -0.4 4.54 -21.4 0.4 8.596 -30 0
3 16 -6.51018 -30 -4.03136 -4.34214 -21.4 -1.39502 -3.77846 -21.4 -2.23846
3 16 -7.06518 -30 -3.51232 -4.34214 -21.4 -1.39502 -6.51018 -30 -4.03136
3 16 -7.26 -30 -2.9 -8.596 -30 0 -4.54 -21.4 -0.4
3 16 -10.998 -36 0 -8.596 -30 0 -7.26 -30 -2.9
3 16 -5.67971 -30 -4.37824 -3.77846 -21.4 -2.23846 -2.93502 -21.4 -2.80214
3 16 -6.51018 -30 -4.03136 -3.77846 -21.4 -2.23846 -5.67971 -30 -4.37824
3 16 4.54 -21.4 0.4 4.34214 -21.4 1.39502 7.06518 -30 3.51232
3 16 7.26 -30 2.9 4.54 -21.4 0.4 7.06518 -30 3.51232
3 16 -3.77846 -21.4 2.23846 -4.34214 -21.4 1.39502 -7.06518 -30 3.51232
3 16 -7.06518 -30 -3.51232 -4.54 -21.4 -0.4 -4.34214 -21.4 -1.39502
3 16 -4.54 -21.4 -0.4 -7.06518 -30 -3.51232 -7.26 -30 -2.9
3 16 -8.596 -30 0 -10.998 -36 0 -7.26 -30 2.9
3 16 6.51018 -30 4.03136 3.77846 -21.4 2.23846 5.67971 -30 4.37824
3 16 3.77846 -21.4 2.23846 2.93502 -21.4 2.80214 5.67971 -30 4.37824
3 16 2.935 -21.4 -2.802 5.67971 -30 -4.37824 1.94 -21.4 -3
3 16 7.26 -30 -2.9 8.596 -30 0 10.998 -36 0
3 16 10.998 -36 0 11.06 -38 -3.9 7.26 -30 -2.9
3 16 3.77846 -21.4 -2.23846 5.67971 -30 -4.37824 2.935 -21.4 -2.802
3 16 11.06 -38 3.9 10.998 -36 0 7.26 -30 2.9
3 16 4.54 -21.4 -0.4 7.26 -30 -2.9 4.34214 -21.4 -1.39502
3 16 8.596 -30 0 4.54 -21.4 0.4 7.26 -30 2.9
3 16 3.77846 -21.4 -2.23846 4.34214 -21.4 -1.39502 6.51018 -30 -4.03136
3 16 5.67971 -30 4.37824 2.93502 -21.4 2.80214 4.7 -30 4.5
3 16 1.94 -21.4 3 4.7 -30 4.5 2.93502 -21.4 2.80214
3 16 -6.51018 -30 4.03136 -2.93502 -21.4 2.80214 -3.77846 -21.4 2.23846
3 16 -5.67971 -30 4.37824 -2.93502 -21.4 2.80214 -6.51018 -30 4.03136
3 16 10.998 -36 0 8.596 -30 0 7.26 -30 2.9
3 16 7.26 -30 -2.9 4.54 -21.4 -0.4 8.596 -30 0
3 16 3.77846 -21.4 -2.23846 6.51018 -30 -4.03136 5.67971 -30 -4.37824
3 16 -1.34349 -21.0722 2.96333 -1.06 -18.4 2.78 -1.94 -21.4 3
3 16 -1.34349 -21.0722 2.96333 -1.94 -21.4 3 -1.75541 -21.6828 3.04897
3 16 -1.75541 -21.6828 3.04897 -1.94 -21.4 3 -1.9 -22.403 3.15
3 16 -1.9 -22.403 3.15 -1.94 -21.4 3 -4.7 -30 4.5
3 16 -1.9 -24.285 3.414 -1.123 -25.269 3.626 -0.572 -25.073 3.596
3 16 -1.9 -24.285 3.414 -0.572 -25.073 3.596 0 -24.285 3.414
3 16 0 -24.285 3.414 -0.572 -25.073 3.596 0 -25 3.585
3 16 0 -24.285 3.414 0 -25 3.585 0.565 -25.07 3.596
3 16 0 -24.285 3.414 0.565 -25.07 3.596 1.9 -24.285 3.414
3 16 1.9 -24.285 3.414 0.565 -25.07 3.596 1.104 -25.263 3.625
3 16 1.34349 -21.0722 2.96333 1.94 -21.4 3 1.06 -18.4 2.78
3 16 1.94 -21.4 3 1.34349 -21.0722 2.96333 1.75541 -21.6828 3.04897
3 16 1.94 -21.4 3 1.75541 -21.6828 3.04897 1.9 -22.403 3.15
3 16 0 -20.545 -2.886 1.06 -18.4 -2.78 0.72713 -20.6882 -2.90609
3 16 0.72713 -20.6882 -2.90609 1.06 -18.4 -2.78 1.34349 -21.0962 -2.96333
3 16 1.34349 -21.0962 -2.96333 1.06 -18.4 -2.78 1.75541 -21.7068 -3.04897
3 16 1.75541 -21.7068 -3.04897 1.06 -18.4 -2.78 1.94 -21.4 -3
3 16 -1.06 -18.4 -2.78 0 -20.545 -2.886 -0.72713 -20.6882 -2.90609
3 16 -1.06 -18.4 -2.78 -0.72713 -20.6882 -2.90609 -1.34349 -21.0962 -2.96333
3 16 -1.123 -25.269 -3.626 -1.9 -24.309 -3.414 -0.572 -25.073 -3.596
3 16 1.75541 -21.7068 -3.04897 1.94 -21.4 -3 1.9 -22.427 -3.15
3 16 1.9 -24.309 -3.414 1.104 -25.263 -3.625 0.565 -25.07 -3.596
3 16 -0.572 -25.073 -3.596 -1.9 -24.309 -3.414 0 -24.309 -3.414
3 16 -0.572 -25.073 -3.596 0 -24.309 -3.414 0 -25 -3.585
3 16 0 -24.309 -3.414 0.565 -25.07 -3.596 0 -25 -3.585
3 16 0.565 -25.07 -3.596 0 -24.309 -3.414 1.9 -24.309 -3.414
3 16 -2.9 -15 -0.03 -2.9 -15 0.03 -2.6 -11 0
3 16 0.3 -15 2.63 0 -11 2.6 -0.3 -15 2.63
3 16 2.9 -15 0.03 2.9 -15 -0.03 2.6 -11 0
3 16 0.3 -15 -2.63 -0.3 -15 -2.63 0 -11 -2.6
4 16 1.06 -18.4 -2.78 0 -20.545 -2.886 -1.06 -18.4 -2.78 0.3 -15 -2.63
3 16 0.72713 -20.6642 2.90609 1.34349 -21.0722 2.96333 1.06 -18.4 2.78
3 16 0 -20.521 2.886 0.72713 -20.6642 2.90609 1.06 -18.4 2.78
4 16 -1.06 -18.4 2.78 0 -20.521 2.886 1.06 -18.4 2.78 -0.3 -15 2.63
3 16 0 -20.521 2.886 -1.06 -18.4 2.78 -0.72713 -20.6642 2.90609
3 16 -0.72713 -20.6642 2.90609 -1.06 -18.4 2.78 -1.34349 -21.0722 2.96333
3 16 -10.998 -36 0 -11.06 -38 3.9 -7.26 -30 2.9
3 16 -11.06 -38 -3.9 -10.998 -36 0 -7.26 -30 -2.9
3 16 1.94 -21.4 -3 5.67971 -30 -4.37824 4.7 -30 -4.5
3 16 1.94 -21.4 -3 4.7 -30 -4.5 3.641 -28 -4.1
3 16 1.94 -21.4 -3 3.641 -28 -4.1 2.716 -26.654 -3.855
3 16 1.94 -21.4 -3 2.716 -26.654 -3.855 1.9 -22.427 -3.15
3 16 1.9 -24.309 -3.414 1.9 -22.427 -3.15 2.716 -26.654 -3.855
3 16 1.9 -24.309 -3.414 2.716 -26.654 -3.855 2.147 -26.022 -3.74
3 16 1.9 -24.309 -3.414 2.147 -26.022 -3.74 1.634 -25.588 -3.674
3 16 1.9 -24.309 -3.414 1.634 -25.588 -3.674 1.104 -25.263 -3.625
3 16 7.06518 -30 -3.51232 6.51018 -30 -4.03136 4.34214 -21.4 -1.39502
3 16 7.06518 -30 -3.51232 4.34214 -21.4 -1.39502 7.26 -30 -2.9
3 16 -7.06518 -30 3.51232 -6.51018 -30 4.03136 -3.77846 -21.4 2.23846
3 16 -1.34349 -21.0962 -2.96333 -1.75541 -21.7068 -3.04897 -1.06 -18.4 -2.78
3 16 -1.06 -18.4 -2.78 -1.75541 -21.7068 -3.04897 -1.94 -21.4 -3
3 16 -1.94 -21.4 -3 -1.75541 -21.7068 -3.04897 -1.9 -22.427 -3.15
3 16 -3.643 -28 -4.1 -4.7 -30 -4.5 -1.94 -21.4 -3
3 16 -3.643 -28 -4.1 -1.94 -21.4 -3 -2.731 -26.654 -3.855
3 16 -1.94 -21.4 -3 -1.9 -22.427 -3.15 -2.731 -26.654 -3.855
3 16 -2.166 -26.022 -3.74 -1.9 -24.309 -3.414 -1.659 -25.595 -3.675
3 16 -1.123 -25.269 -3.626 -1.659 -25.595 -3.675 -1.9 -24.309 -3.414
3 16 -2.166 -26.022 -3.74 -2.731 -26.654 -3.855 -1.9 -24.309 -3.414
3 16 -1.9 -22.427 -3.15 -1.9 -24.309 -3.414 -2.731 -26.654 -3.855
3 16 -3.643 -28 4.1 -1.9 -22.403 3.15 -4.7 -30 4.5
3 16 -1.9 -22.403 3.15 -3.643 -28 4.1 -1.9 -24.285 3.414
3 16 -1.9 -24.285 3.414 -3.643 -28 4.1 -2.731 -26.654 3.855
3 16 -1.9 -24.285 3.414 -2.731 -26.654 3.855 -2.166 -26.022 3.74
3 16 -1.123 -25.269 3.626 -1.9 -24.285 3.414 -1.659 -25.595 3.675
3 16 -1.659 -25.595 3.675 -1.9 -24.285 3.414 -2.166 -26.022 3.74
3 16 1.94 -21.4 3 1.9 -22.403 3.15 4.7 -30 4.5
3 16 1.9 -22.403 3.15 1.9 -24.285 3.414 3.641 -28 4.1
3 16 3.641 -28 4.1 1.9 -24.285 3.414 2.716 -26.654 3.855
3 16 1.9 -24.285 3.414 2.147 -26.022 3.74 2.716 -26.654 3.855
3 16 2.147 -26.022 3.74 1.9 -24.285 3.414 1.634 -25.588 3.674
3 16 1.634 -25.588 3.674 1.9 -24.285 3.414 1.104 -25.263 3.625
3 16 11.06 -38 -3.9 10.998 -36 0 12.333 -41 0
3 16 11.06 -38 -3.9 12.333 -41 0 12.06 -41 -4
4 16 14.56 -62 0 14.56 -62 4 14.56 -66 4 14.56 -66 -4
3 16 14.56 -62 0 14.56 -66 -4 14.56 -62 -4
3 16 -11.06 -38 3.9 -10.998 -36 0 -12.333 -41 0
3 16 -11.06 -38 3.9 -12.333 -41 0 -12.06 -41 4
4 16 -14.56 -62 0 -14.56 -62 -4 -14.56 -66 -4 -14.56 -66 4
3 16 -14.56 -62 0 -14.56 -66 4 -14.56 -62 4
4 16 -14.46 -58 -4 -14.56 -62 -4 -14.56 -62 0 -14.46 -58 0
4 16 -14.46 -58 0 -14.56 -62 0 -14.56 -62 4 -14.46 -58 4
4 16 -14.156 -51 0 -14.46 -54 0 -14.26 -54 4 -13.96 -51 4
4 16 -13.75 -48 0 -14.156 -51 0 -13.96 -51 4 -13.56 -48 4
4 16 -12.86 -44 4 -12.06 -41 4 -12.333 -41 0 -13.151 -44 0
4 16 14.26 -54 4 14.46 -54 0 14.156 -51 0 13.96 -51 4
4 16 12.86 -44 -4 12.06 -41 -4 12.333 -41 0 13.151 -44 0
4 16 12.333 -41 0 12.06 -41 4 12.86 -44 4 13.151 -44 0
4 16 13.75 -48 0 13.56 -48 4 13.96 -51 4 14.156 -51 0
4 16 -13.96 -51 -4 -14.156 -51 0 -13.75 -48 0 -13.56 -48 -4
4 16 -12.333 -41 0 -12.06 -41 -4 -12.86 -44 -4 -13.151 -44 0
4 16 -14.26 -54 -4 -14.46 -54 0 -14.156 -51 0 -13.96 -51 -4
4 16 14.26 -54 -4 13.96 -51 -4 14.156 -51 0 14.46 -54 0
4 16 14.46 -58 0 14.46 -58 4 14.56 -62 4 14.56 -62 0
4 16 13.96 -51 -4 13.56 -48 -4 13.75 -48 0 14.156 -51 0
4 16 14.56 -62 -4 14.46 -58 -4 14.46 -58 0 14.56 -62 0
4 16 1.104 -25.263 -3.625 1.634 -25.588 -3.674 1.634 -25.588 3.674 1.104 -25.263 3.625
4 16 2.716 -26.654 3.855 2.147 -26.022 3.74 2.147 -26.022 -3.74 2.716 -26.654 -3.855
4 16 -2.731 -26.654 -3.855 -2.166 -26.022 -3.74 -2.166 -26.022 3.74 -2.731 -26.654 3.855
4 16 -0.572 -25.073 -3.596 0 -25 -3.585 0 -25 3.585 -0.572 -25.073 3.596
4 16 -0.572 -25.073 3.596 -1.123 -25.269 3.626 -1.123 -25.269 -3.626 -0.572 -25.073 -3.596
4 16 -2.731 -26.654 -3.855 -2.731 -26.654 3.855 -3.643 -28 4.1 -3.643 -28 -4.1
4 16 2.716 -26.654 -3.855 3.641 -28 -4.1 3.641 -28 4.1 2.716 -26.654 3.855
4 16 1.634 -25.588 3.674 1.634 -25.588 -3.674 2.147 -26.022 -3.74 2.147 -26.022 3.74
4 16 -2.166 -26.022 3.74 -2.166 -26.022 -3.74 -1.659 -25.595 -3.675 -1.659 -25.595 3.675
4 16 -1.123 -25.269 3.626 -1.659 -25.595 3.675 -1.659 -25.595 -3.675 -1.123 -25.269 -3.626
4 16 1.104 -25.263 3.625 0.565 -25.07 3.596 0.565 -25.07 -3.596 1.104 -25.263 -3.625
4 16 0 -25 -3.585 0.565 -25.07 -3.596 0.565 -25.07 3.596 0 -25 3.585
4 16 2.9 -15 -0.03 2.9 -15 0.03 3.66 -18.4 0.18 3.66 -18.4 -0.18
3 16 -1.06 -18.4 -2.78 -0.3 -15 -2.63 0.3 -15 -2.63
4 16 -2.9 -15 0.03 -2.9 -15 -0.03 -3.66 -18.4 -0.18 -3.66 -18.4 0.18
4 16 -3.66 -18.4 -0.18 -4.54 -21.4 -0.4 -4.54 -21.4 0.4 -3.66 -18.4 0.18
4 16 3.66 -18.4 0.18 4.54 -21.4 0.4 4.54 -21.4 -0.4 3.66 -18.4 -0.18
4 16 -4.7 -30 -4.5 -4.7 -30 4.5 -8.5 -38 5.5 -8.5 -38 -5.5
4 16 8.5 -38 -5.5 8.5 -38 5.5 4.7 -30 4.5 4.7 -30 -4.5
4 16 9.5 -41 -5.6 9.5 -41 5.6 8.5 -38 5.5 8.5 -38 -5.5
4 16 3.641 -28 -4.1 4.7 -30 -4.5 4.7 -30 4.5 3.641 -28 4.1
4 16 -8.5 -38 5.5 -9.5 -41 5.6 -9.5 -41 -5.6 -8.5 -38 -5.5
4 16 -3.643 -28 -4.1 -3.643 -28 4.1 -4.7 -30 4.5 -4.7 -30 -4.5
4 16 -10.3 -44 5.6 -10.3 -44 -5.6 -9.5 -41 -5.6 -9.5 -41 5.6
4 16 -11 -48 5.6 -11 -48 -5.6 -10.3 -44 -5.6 -10.3 -44 5.6
4 16 -11.4 -51 5.6 -11.4 -51 -5.6 -11 -48 -5.6 -11 -48 5.6
4 16 -11.7 -54 5.6 -11.7 -54 -5.6 -11.4 -51 -5.6 -11.4 -51 5.6
4 16 10.3 -44 5.6 10.3 -44 -5.6 11 -48 -5.6 11 -48 5.6
4 16 9.5 -41 5.6 9.5 -41 -5.6 10.3 -44 -5.6 10.3 -44 5.6
4 16 11.4 -51 5.6 11.4 -51 -5.6 11.7 -54 -5.6 11.7 -54 5.6
4 16 11.9 -58 -5.6 11.9 -58 5.6 11.7 -54 5.6 11.7 -54 -5.6
4 16 -11.9 -58 5.6 -11.9 -58 -5.6 -11.7 -54 -5.6 -11.7 -54 5.6
4 16 11 -48 5.6 11 -48 -5.6 11.4 -51 -5.6 11.4 -51 5.6
4 16 11.9 -58 5.6 11.9 -58 -5.6 12 -62 -5.6 12 -62 5.6
4 16 -12 -62 5.6 -12 -62 -5.6 -11.9 -58 -5.6 -11.9 -58 5.6
4 16 12 -62 5.6 12 -62 -5.6 12 -66 -5.6 12 -66 5.6
4 16 -12 -62 -5.6 -12 -62 5.6 -12 -66 5.6 -12 -66 -5.6
3 16 1.06 -18.4 2.78 0.3 -15 2.63 -0.3 -15 2.63
0 // Added lines/Condlines
0 // Unmatched edges
0 // Added lines/Condlines
5 24 14.46 -58 0 14.26 -54 4 14.46 -58 4 14.46 -54 0
5 24 14.46 -58 4 14.46 -58 0 14.26 -54 4 14.56 -62 4
5 24 -13.151 -44 0 -13.75 -48 0 -13.56 -48 4 -12.86 -44 -4
5 24 -13.75 -48 0 -13.56 -48 4 -13.151 -44 0 -14.156 -51 0
5 24 -13.56 -48 4 -13.151 -44 0 -13.75 -48 0 -12.86 -44 4
5 24 14.46 -58 -4 14.46 -54 0 14.46 -58 0 14.26 -54 -4
5 24 14.46 -54 0 14.46 -58 0 14.46 -58 -4 14.26 -54 4
5 24 14.46 -58 0 14.46 -58 -4 14.46 -54 0 14.56 -62 -4
5 24 -11.06 -38 -3.9 -12.333 -41 0 -10.998 -36 0 -12.06 -41 -4
5 24 -12.333 -41 0 -10.998 -36 0 -11.06 -38 -3.9 -11.06 -38 3.9
5 24 -10.998 -36 0 -11.06 -38 -3.9 -12.333 -41 0 -7.26 -30 -2.9
5 24 13.75 -48 0 12.86 -44 4 13.56 -48 4 13.151 -44 0
5 24 13.56 -48 4 13.75 -48 0 12.86 -44 4 13.96 -51 4
5 24 -14.26 -54 -4 -14.46 -58 0 -14.46 -54 0 -14.46 -58 -4
5 24 -14.46 -58 0 -14.46 -54 0 -14.26 -54 -4 -14.46 -58 4
5 24 -14.46 -54 0 -14.26 -54 -4 -14.46 -58 0 -14.156 -51 0
5 24 -13.56 -48 -4 -13.75 -48 0 -12.86 -44 -4 -13.96 -51 -4
5 24 -13.75 -48 0 -12.86 -44 -4 -13.56 -48 -4 -13.151 -44 0
5 24 -13.151 -44 0 -12.86 -44 -4 -13.75 -48 0 -12.333 -41 0
5 24 -14.26 -54 4 -14.46 -54 0 -14.46 -58 4 -14.156 -51 0
5 24 -14.46 -54 0 -14.46 -58 4 -14.26 -54 4 -14.46 -58 0
5 24 13.75 -48 0 13.151 -44 0 12.86 -44 4 13.56 -48 -4
5 24 13.151 -44 0 12.86 -44 4 13.75 -48 0 12.333 -41 0
5 24 14.26 -54 -4 14.46 -54 0 14.46 -58 -4 13.96 -51 -4
5 24 13.56 -48 -4 13.151 -44 0 13.75 -48 0 12.86 -44 -4
5 24 13.75 -48 0 13.56 -48 -4 13.151 -44 0 13.96 -51 -4
5 24 12.333 -41 0 10.998 -36 0 11.06 -38 3.9 11.06 -38 -3.9
5 24 10.998 -36 0 11.06 -38 3.9 12.333 -41 0 7.26 -30 2.9
5 24 11.06 -38 3.9 12.333 -41 0 10.998 -36 0 12.06 -41 4
5 24 12.06 -41 4 12.333 -41 0 11.06 -38 3.9 12.86 -44 4
5 24 -12.06 -41 -4 -12.333 -41 0 -11.06 -38 -3.9 -12.86 -44 -4
5 24 -14.46 -58 -4 -14.46 -58 0 -14.26 -54 -4 -14.56 -62 -4
5 24 14.46 -54 0 14.26 -54 4 14.46 -58 0 14.156 -51 0
5 24 12.86 -44 -4 13.151 -44 0 13.56 -48 -4 12.06 -41 -4
5 24 -12.86 -44 4 -13.151 -44 0 -13.56 -48 4 -12.06 -41 4
5 24 -14.46 -58 0 -14.46 -58 4 -14.46 -54 0 -14.56 -62 0
5 24 6.51018 -30 4.03136 4.34214 -21.4 1.39502 3.77846 -21.4 2.23846 7.06518 -30 3.51232
5 24 4.34214 -21.4 1.39502 3.77846 -21.4 2.23846 6.51018 -30 4.03136 3.46214 -18.4 1.17502
5 24 3.77846 -21.4 2.23846 6.51018 -30 4.03136 4.34214 -21.4 1.39502 5.67971 -30 4.37824
5 24 6.51018 -30 4.03136 7.06518 -30 3.51232 4.34214 -21.4 1.39502 10.3102 -38 5.03136
5 24 7.06518 -30 3.51232 4.34214 -21.4 1.39502 6.51018 -30 4.03136 4.54 -21.4 0.4
5 24 -4.7 -30 -4.5 -2.93502 -21.4 -2.80214 -1.94 -21.4 -3 -5.67971 -30 -4.37824
5 24 -2.93502 -21.4 -2.80214 -1.94 -21.4 -3 -4.7 -30 -4.5 -2.05502 -18.4 -2.58214
5 24 -1.94 -21.4 -3 -4.7 -30 -4.5 -2.93502 -21.4 -2.80214 -3.643 -28 -4.1
5 24 -4.7 -30 -4.5 -5.67971 -30 -4.37824 -2.93502 -21.4 -2.80214 -8.5 -38 -5.5
5 24 -5.67971 -30 -4.37824 -2.93502 -21.4 -2.80214 -4.7 -30 -4.5 -3.77846 -21.4 -2.23846
5 24 -4.54 -21.4 0.4 -8.596 -30 0 -7.26 -30 2.9 -4.54 -21.4 -0.4
5 24 -8.596 -30 0 -7.26 -30 2.9 -4.54 -21.4 0.4 -10.998 -36 0
5 24 -7.26 -30 2.9 -4.54 -21.4 0.4 -8.596 -30 0 -4.34214 -21.4 1.39502
5 24 -4.54 -21.4 0.4 -4.54 -21.4 -0.4 -8.596 -30 0 -3.66 -18.4 -0.18
5 24 -4.54 -21.4 -0.4 -8.596 -30 0 -4.54 -21.4 0.4 -7.26 -30 -2.9
5 24 4.7 -30 4.5 1.9 -22.403 3.15 3.641 -28 4.1 1.94 -21.4 3
5 24 1.9 -22.403 3.15 3.641 -28 4.1 4.7 -30 4.5 1.9 -24.285 3.414
2 24 3.641 -28 4.1 4.7 -30 4.5
5 24 -7.26 -30 2.9 -4.34214 -21.4 1.39502 -4.54 -21.4 0.4 -7.06518 -30 3.51232
5 24 -4.34214 -21.4 1.39502 -4.54 -21.4 0.4 -7.26 -30 2.9 -3.66 -18.4 0.18
5 24 -7.26 -30 2.9 -7.06518 -30 3.51232 -4.34214 -21.4 1.39502 -10.8652 -38 4.51232
5 24 -7.06518 -30 3.51232 -4.34214 -21.4 1.39502 -7.26 -30 2.9 -3.77846 -21.4 2.23846
5 24 -5.67971 -30 4.37824 -1.94 -21.4 3 -2.93502 -21.4 2.80214 -4.7 -30 4.5
5 24 -1.94 -21.4 3 -2.93502 -21.4 2.80214 -5.67971 -30 4.37824 -2.05502 -18.4 2.58214
5 24 -2.93502 -21.4 2.80214 -5.67971 -30 4.37824 -1.94 -21.4 3 -6.51018 -30 4.03136
5 24 -5.67971 -30 4.37824 -4.7 -30 4.5 -1.94 -21.4 3 -8.5 -38 5.5
5 24 -4.7 -30 4.5 -1.94 -21.4 3 -5.67971 -30 4.37824 -1.9 -22.403 3.15
5 24 4.54 -21.4 -0.4 4.54 -21.4 0.4 8.596 -30 0 3.66 -18.4 0.18
5 24 4.54 -21.4 0.4 8.596 -30 0 4.54 -21.4 -0.4 7.26 -30 2.9
5 24 8.596 -30 0 4.54 -21.4 -0.4 4.54 -21.4 0.4 7.26 -30 -2.9
5 24 -6.51018 -30 -4.03136 -4.34214 -21.4 -1.39502 -3.77846 -21.4 -2.23846 -7.06518 -30 -3.51232
5 24 -4.34214 -21.4 -1.39502 -3.77846 -21.4 -2.23846 -6.51018 -30 -4.03136 -3.46214 -18.4 -1.17502
5 24 -3.77846 -21.4 -2.23846 -6.51018 -30 -4.03136 -4.34214 -21.4 -1.39502 -5.67971 -30 -4.37824
5 24 -7.06518 -30 -3.51232 -4.34214 -21.4 -1.39502 -6.51018 -30 -4.03136 -4.54 -21.4 -0.4
5 24 -6.51018 -30 -4.03136 -7.06518 -30 -3.51232 -4.34214 -21.4 -1.39502 -10.3102 -38 -5.03136
5 24 -7.26 -30 -2.9 -8.596 -30 0 -4.54 -21.4 -0.4 -10.998 -36 0
5 24 -4.54 -21.4 -0.4 -7.26 -30 -2.9 -8.596 -30 0 -7.06518 -30 -3.51232
5 24 -10.998 -36 0 -8.596 -30 0 -7.26 -30 -2.9 -7.26 -30 2.9
5 24 -7.26 -30 -2.9 -10.998 -36 0 -8.596 -30 0 -11.06 -38 -3.9
5 24 -5.67971 -30 -4.37824 -3.77846 -21.4 -2.23846 -2.93502 -21.4 -2.80214 -6.51018 -30 -4.03136
5 24 -3.77846 -21.4 -2.23846 -2.93502 -21.4 -2.80214 -5.67971 -30 -4.37824 -2.89846 -18.4 -2.01846
5 24 -5.67971 -30 -4.37824 -6.51018 -30 -4.03136 -3.77846 -21.4 -2.23846 -9.47971 -38 -5.37824
5 24 4.54 -21.4 0.4 4.34214 -21.4 1.39502 7.06518 -30 3.51232 3.66 -18.4 0.18
5 24 7.06518 -30 3.51232 4.54 -21.4 0.4 4.34214 -21.4 1.39502 7.26 -30 2.9
5 24 7.26 -30 2.9 4.54 -21.4 0.4 7.06518 -30 3.51232 8.596 -30 0
5 24 7.06518 -30 3.51232 7.26 -30 2.9 4.54 -21.4 0.4 10.8652 -38 4.51232
5 24 -3.77846 -21.4 2.23846 -4.34214 -21.4 1.39502 -7.06518 -30 3.51232 -3.46214 -18.4 1.17502
5 24 -7.06518 -30 3.51232 -3.77846 -21.4 2.23846 -4.34214 -21.4 1.39502 -6.51018 -30 4.03136
5 24 -7.06518 -30 -3.51232 -4.54 -21.4 -0.4 -4.34214 -21.4 -1.39502 -7.26 -30 -2.9
5 24 -4.54 -21.4 -0.4 -4.34214 -21.4 -1.39502 -7.06518 -30 -3.51232 -3.66 -18.4 -0.18
5 24 -7.06518 -30 -3.51232 -7.26 -30 -2.9 -4.54 -21.4 -0.4 -10.8652 -38 -4.51232
5 24 -10.998 -36 0 -7.26 -30 2.9 -8.596 -30 0 -11.06 -38 3.9
5 24 3.77846 -21.4 2.23846 5.67971 -30 4.37824 6.51018 -30 4.03136 2.93502 -21.4 2.80214
5 24 5.67971 -30 4.37824 6.51018 -30 4.03136 3.77846 -21.4 2.23846 9.47971 -38 5.37824
5 24 3.77846 -21.4 2.23846 2.93502 -21.4 2.80214 5.67971 -30 4.37824 2.89846 -18.4 2.01846
5 24 2.93502 -21.4 2.80214 5.67971 -30 4.37824 3.77846 -21.4 2.23846 4.7 -30 4.5
5 24 2.935 -21.4 -2.802 5.67971 -30 -4.37824 1.94 -21.4 -3 3.77846 -21.4 -2.23846
5 24 5.67971 -30 -4.37824 1.94 -21.4 -3 2.935 -21.4 -2.802 4.7 -30 -4.5
5 24 1.94 -21.4 -3 2.935 -21.4 -2.802 5.67971 -30 -4.37824 2.05502 -18.4 -2.58214
5 24 7.26 -30 -2.9 8.596 -30 0 10.998 -36 0 4.54 -21.4 -0.4
5 24 8.596 -30 0 10.998 -36 0 7.26 -30 -2.9 7.26 -30 2.9
5 24 10.998 -36 0 7.26 -30 -2.9 8.596 -30 0 11.06 -38 -3.9
5 24 10.998 -36 0 11.06 -38 -3.9 7.26 -30 -2.9 12.333 -41 0
5 24 3.77846 -21.4 -2.23846 5.67971 -30 -4.37824 2.935 -21.4 -2.802 6.51018 -30 -4.03136
5 24 2.935 -21.4 -2.802 3.77846 -21.4 -2.23846 5.67971 -30 -4.37824 2.89846 -18.4 -2.01846
5 24 10.998 -36 0 7.26 -30 2.9 11.06 -38 3.9 8.596 -30 0
5 24 4.54 -21.4 -0.4 7.26 -30 -2.9 4.34214 -21.4 -1.39502 8.596 -30 0
5 24 7.26 -30 -2.9 4.34214 -21.4 -1.39502 4.54 -21.4 -0.4 7.06518 -30 -3.51232
5 24 4.34214 -21.4 -1.39502 4.54 -21.4 -0.4 7.26 -30 -2.9 3.66 -18.4 -0.18
5 24 7.26 -30 2.9 8.596 -30 0 4.54 -21.4 0.4 10.998 -36 0
5 24 3.77846 -21.4 -2.23846 4.34214 -21.4 -1.39502 6.51018 -30 -4.03136 3.46214 -18.4 -1.17502
5 24 4.34214 -21.4 -1.39502 6.51018 -30 -4.03136 3.77846 -21.4 -2.23846 7.06518 -30 -3.51232
5 24 6.51018 -30 -4.03136 3.77846 -21.4 -2.23846 4.34214 -21.4 -1.39502 5.67971 -30 -4.37824
5 24 2.93502 -21.4 2.80214 4.7 -30 4.5 5.67971 -30 4.37824 1.94 -21.4 3
5 24 4.7 -30 4.5 5.67971 -30 4.37824 2.93502 -21.4 2.80214 8.5 -38 5.5
5 24 1.94 -21.4 3 4.7 -30 4.5 2.93502 -21.4 2.80214 1.9 -22.403 3.15
5 24 2.93502 -21.4 2.80214 1.94 -21.4 3 4.7 -30 4.5 2.05502 -18.4 2.58214
5 24 -6.51018 -30 4.03136 -2.93502 -21.4 2.80214 -3.77846 -21.4 2.23846 -5.67971 -30 4.37824
5 24 -2.93502 -21.4 2.80214 -3.77846 -21.4 2.23846 -6.51018 -30 4.03136 -2.89846 -18.4 2.01846
5 24 -3.77846 -21.4 2.23846 -6.51018 -30 4.03136 -2.93502 -21.4 2.80214 -7.06518 -30 3.51232
5 24 -6.51018 -30 4.03136 -5.67971 -30 4.37824 -2.93502 -21.4 2.80214 -9.47971 -38 5.37824
5 24 6.51018 -30 -4.03136 5.67971 -30 -4.37824 3.77846 -21.4 -2.23846 9.47971 -38 -5.37824
5 24 -1.34349 -21.0722 2.96333 -1.06 -18.4 2.78 -1.94 -21.4 3 -0.72713 -20.6642 2.90609
5 24 -1.06 -18.4 2.78 -1.94 -21.4 3 -1.34349 -21.0722 2.96333 -2.05502 -18.4 2.58214
5 24 -1.94 -21.4 3 -1.34349 -21.0722 2.96333 -1.06 -18.4 2.78 -1.75541 -21.6828 3.04897
5 24 -1.94 -21.4 3 -1.75541 -21.6828 3.04897 -1.34349 -21.0722 2.96333 -1.9 -22.403 3.15
5 24 -1.94 -21.4 3 -1.9 -22.403 3.15 -1.75541 -21.6828 3.04897 -4.7 -30 4.5
5 24 -4.7 -30 4.5 -1.9 -22.403 3.15 -1.94 -21.4 3 -3.643 -28 4.1
5 24 -1.9 -24.285 3.414 -1.123 -25.269 3.626 -0.572 -25.073 3.596 -1.659 -25.595 3.675
2 24 -1.123 -25.269 3.626 -0.572 -25.073 3.596
5 24 -0.572 -25.073 3.596 -1.9 -24.285 3.414 -1.123 -25.269 3.626 0 -24.285 3.414
5 24 -0.572 -25.073 3.596 0 -24.285 3.414 -1.9 -24.285 3.414 0 -25 3.585
5 24 0 -24.285 3.414 -1.9 -24.285 3.414 -0.572 -25.073 3.596 -0.72713 -24.1418 3.39391
2 24 -0.572 -25.073 3.596 0 -25 3.585
5 24 0 -25 3.585 0 -24.285 3.414 -0.572 -25.073 3.596 0.565 -25.07 3.596
2 24 0 -25 3.585 0.565 -25.07 3.596
5 24 0.565 -25.07 3.596 0 -24.285 3.414 0 -25 3.585 1.9 -24.285 3.414
5 24 0.565 -25.07 3.596 1.9 -24.285 3.414 0 -24.285 3.414 1.104 -25.263 3.625
5 24 1.9 -24.285 3.414 0 -24.285 3.414 0.565 -25.07 3.596 0.72713 -24.1418 3.39391
2 24 0.565 -25.07 3.596 1.104 -25.263 3.625
5 24 1.104 -25.263 3.625 1.9 -24.285 3.414 0.565 -25.07 3.596 1.634 -25.588 3.674
5 24 1.34349 -21.0722 2.96333 1.94 -21.4 3 1.06 -18.4 2.78 1.75541 -21.6828 3.04897
5 24 1.94 -21.4 3 1.06 -18.4 2.78 1.34349 -21.0722 2.96333 2.93502 -21.4 2.80214
5 24 1.06 -18.4 2.78 1.34349 -21.0722 2.96333 1.94 -21.4 3 0.72713 -20.6642 2.90609
5 24 1.75541 -21.6828 3.04897 1.94 -21.4 3 1.34349 -21.0722 2.96333 1.9 -22.403 3.15
5 24 1.9 -22.403 3.15 1.94 -21.4 3 1.75541 -21.6828 3.04897 4.7 -30 4.5
5 24 0 -20.545 -2.886 1.06 -18.4 -2.78 0.72713 -20.6882 -2.90609 -1.06 -18.4 -2.78
5 24 1.06 -18.4 -2.78 0.72713 -20.6882 -2.90609 0 -20.545 -2.886 1.34349 -21.0962 -2.96333
5 24 1.06 -18.4 -2.78 1.34349 -21.0962 -2.96333 0.72713 -20.6882 -2.90609 1.75541 -21.7068 -3.04897
5 24 1.06 -18.4 -2.78 1.75541 -21.7068 -3.04897 1.34349 -21.0962 -2.96333 1.94 -21.4 -3
5 24 1.94 -21.4 -3 1.75541 -21.7068 -3.04897 1.06 -18.4 -2.78 1.9 -22.427 -3.15
5 24 -1.06 -18.4 -2.78 0 -20.545 -2.886 -0.72713 -20.6882 -2.90609 1.06 -18.4 -2.78
5 24 -0.72713 -20.6882 -2.90609 -1.06 -18.4 -2.78 0 -20.545 -2.886 -1.34349 -21.0962 -2.96333
5 24 -1.34349 -21.0962 -2.96333 -1.06 -18.4 -2.78 -0.72713 -20.6882 -2.90609 -1.75541 -21.7068 -3.04897
5 24 -1.123 -25.269 -3.626 -1.9 -24.309 -3.414 -0.572 -25.073 -3.596 -1.659 -25.595 -3.675
5 24 -1.9 -24.309 -3.414 -0.572 -25.073 -3.596 -1.123 -25.269 -3.626 0 -24.309 -3.414
2 24 -0.572 -25.073 -3.596 -1.123 -25.269 -3.626
5 24 1.94 -21.4 -3 1.9 -22.427 -3.15 1.75541 -21.7068 -3.04897 2.716 -26.654 -3.855
5 24 1.9 -24.309 -3.414 1.104 -25.263 -3.625 0.565 -25.07 -3.596 1.634 -25.588 -3.674
2 24 1.104 -25.263 -3.625 0.565 -25.07 -3.596
5 24 0.565 -25.07 -3.596 1.9 -24.309 -3.414 1.104 -25.263 -3.625 0 -24.309 -3.414
5 24 -1.9 -24.309 -3.414 0 -24.309 -3.414 -0.572 -25.073 -3.596 -0.72713 -24.1658 -3.39391
5 24 0 -24.309 -3.414 -0.572 -25.073 -3.596 -1.9 -24.309 -3.414 0 -25 -3.585
5 24 0 -24.309 -3.414 0 -25 -3.585 -0.572 -25.073 -3.596 0.565 -25.07 -3.596
2 24 0 -25 -3.585 -0.572 -25.073 -3.596
5 24 0 -24.309 -3.414 0.565 -25.07 -3.596 0 -25 -3.585 1.9 -24.309 -3.414
2 24 0.565 -25.07 -3.596 0 -25 -3.585
5 24 0 -24.309 -3.414 1.9 -24.309 -3.414 0.565 -25.07 -3.596 0.72713 -24.1658 -3.39391
5 24 -2.9 -15 -0.03 -2.9 -15 0.03 -2.6 -11 0 -3.66 -18.4 -0.18
5 24 -0.3 -15 2.63 0.3 -15 2.63 0 -11 2.6 1.06 -18.4 2.78
5 24 2.9 -15 0.03 2.9 -15 -0.03 2.6 -11 0 3.66 -18.4 0.18
5 24 0.3 -15 -2.63 -0.3 -15 -2.63 0 -11 -2.6 -1.06 -18.4 -2.78
5 24 -1.06 -18.4 -2.78 0.3 -15 -2.63 1.06 -18.4 -2.78 -0.3 -15 -2.63
5 24 1.06 -18.4 2.78 0.72713 -20.6642 2.90609 1.34349 -21.0722 2.96333 0 -20.521 2.886
5 24 1.06 -18.4 2.78 0 -20.521 2.886 0.72713 -20.6642 2.90609 -1.06 -18.4 2.78
5 24 -1.06 -18.4 2.78 0 -20.521 2.886 1.06 -18.4 2.78 -0.72713 -20.6642 2.90609
5 24 1.06 -18.4 2.78 -0.3 -15 2.63 -1.06 -18.4 2.78 0.3 -15 2.63
5 24 -1.06 -18.4 2.78 -0.72713 -20.6642 2.90609 0 -20.521 2.886 -1.34349 -21.0722 2.96333
5 24 -10.998 -36 0 -11.06 -38 3.9 -7.26 -30 2.9 -12.333 -41 0
5 24 5.67971 -30 -4.37824 4.7 -30 -4.5 1.94 -21.4 -3 8.5 -38 -5.5
5 24 4.7 -30 -4.5 1.94 -21.4 -3 5.67971 -30 -4.37824 3.641 -28 -4.1
2 24 4.7 -30 -4.5 3.641 -28 -4.1
5 24 3.641 -28 -4.1 1.94 -21.4 -3 4.7 -30 -4.5 2.716 -26.654 -3.855
2 24 3.641 -28 -4.1 2.716 -26.654 -3.855
5 24 2.716 -26.654 -3.855 1.94 -21.4 -3 3.641 -28 -4.1 1.9 -22.427 -3.15
5 24 2.716 -26.654 -3.855 1.9 -22.427 -3.15 1.94 -21.4 -3 1.9 -24.309 -3.414
5 24 1.9 -24.309 -3.414 1.9 -22.427 -3.15 2.716 -26.654 -3.855 1.75541 -23.1472 -3.25103
5 24 2.716 -26.654 -3.855 1.9 -24.309 -3.414 1.9 -22.427 -3.15 2.147 -26.022 -3.74
2 24 2.716 -26.654 -3.855 2.147 -26.022 -3.74
5 24 2.147 -26.022 -3.74 1.9 -24.309 -3.414 2.716 -26.654 -3.855 1.634 -25.588 -3.674
2 24 2.147 -26.022 -3.74 1.634 -25.588 -3.674
5 24 1.634 -25.588 -3.674 1.9 -24.309 -3.414 2.147 -26.022 -3.74 1.104 -25.263 -3.625
2 24 1.634 -25.588 -3.674 1.104 -25.263 -3.625
5 24 7.06518 -30 -3.51232 6.51018 -30 -4.03136 4.34214 -21.4 -1.39502 10.3102 -38 -5.03136
5 24 4.34214 -21.4 -1.39502 7.06518 -30 -3.51232 6.51018 -30 -4.03136 7.26 -30 -2.9
5 24 7.26 -30 -2.9 7.06518 -30 -3.51232 4.34214 -21.4 -1.39502 10.8652 -38 -4.51232
5 24 -7.06518 -30 3.51232 -6.51018 -30 4.03136 -3.77846 -21.4 2.23846 -10.3102 -38 5.03136
5 24 -1.75541 -21.7068 -3.04897 -1.06 -18.4 -2.78 -1.34349 -21.0962 -2.96333 -1.94 -21.4 -3
5 24 -1.75541 -21.7068 -3.04897 -1.94 -21.4 -3 -1.06 -18.4 -2.78 -1.9 -22.427 -3.15
5 24 -1.9 -22.427 -3.15 -1.94 -21.4 -3 -1.75541 -21.7068 -3.04897 -2.731 -26.654 -3.855
2 24 -3.643 -28 -4.1 -4.7 -30 -4.5
5 24 -1.94 -21.4 -3 -3.643 -28 -4.1 -4.7 -30 -4.5 -2.731 -26.654 -3.855
5 24 -1.94 -21.4 -3 -2.731 -26.654 -3.855 -3.643 -28 -4.1 -1.9 -22.427 -3.15
2 24 -2.731 -26.654 -3.855 -3.643 -28 -4.1
5 24 -1.9 -22.427 -3.15 -2.731 -26.654 -3.855 -1.94 -21.4 -3 -1.9 -24.309 -3.414
5 24 -2.166 -26.022 -3.74 -1.9 -24.309 -3.414 -1.659 -25.595 -3.675 -2.731 -26.654 -3.855
5 24 -1.9 -24.309 -3.414 -1.659 -25.595 -3.675 -2.166 -26.022 -3.74 -1.123 -25.269 -3.626
2 24 -1.659 -25.595 -3.675 -2.166 -26.022 -3.74
2 24 -1.123 -25.269 -3.626 -1.659 -25.595 -3.675
2 24 -2.166 -26.022 -3.74 -2.731 -26.654 -3.855
5 24 -2.731 -26.654 -3.855 -1.9 -24.309 -3.414 -2.166 -26.022 -3.74 -1.9 -22.427 -3.15
5 24 -1.9 -22.427 -3.15 -1.9 -24.309 -3.414 -2.731 -26.654 -3.855 -1.75541 -23.1472 -3.25103
5 24 -3.643 -28 4.1 -1.9 -22.403 3.15 -4.7 -30 4.5 -1.9 -24.285 3.414
2 24 -4.7 -30 4.5 -3.643 -28 4.1
5 24 -3.643 -28 4.1 -1.9 -24.285 3.414 -1.9 -22.403 3.15 -2.731 -26.654 3.855
5 24 -1.9 -24.285 3.414 -1.9 -22.403 3.15 -3.643 -28 4.1 -1.75541 -23.1232 3.25103
2 24 -3.643 -28 4.1 -2.731 -26.654 3.855
5 24 -2.731 -26.654 3.855 -1.9 -24.285 3.414 -3.643 -28 4.1 -2.166 -26.022 3.74
2 24 -2.731 -26.654 3.855 -2.166 -26.022 3.74
5 24 -2.166 -26.022 3.74 -1.9 -24.285 3.414 -2.731 -26.654 3.855 -1.659 -25.595 3.675
5 24 -1.9 -24.285 3.414 -1.659 -25.595 3.675 -1.123 -25.269 3.626 -2.166 -26.022 3.74
2 24 -1.659 -25.595 3.675 -1.123 -25.269 3.626
2 24 -2.166 -26.022 3.74 -1.659 -25.595 3.675
5 24 1.9 -22.403 3.15 1.9 -24.285 3.414 3.641 -28 4.1 1.75541 -23.1232 3.25103
5 24 1.9 -24.285 3.414 3.641 -28 4.1 1.9 -22.403 3.15 2.716 -26.654 3.855
5 24 1.9 -24.285 3.414 2.716 -26.654 3.855 3.641 -28 4.1 2.147 -26.022 3.74
2 24 2.716 -26.654 3.855 3.641 -28 4.1
5 24 1.9 -24.285 3.414 2.147 -26.022 3.74 2.716 -26.654 3.855 1.634 -25.588 3.674
2 24 2.147 -26.022 3.74 2.716 -26.654 3.855
5 24 1.9 -24.285 3.414 1.634 -25.588 3.674 2.147 -26.022 3.74 1.104 -25.263 3.625
2 24 1.634 -25.588 3.674 2.147 -26.022 3.74
2 24 1.104 -25.263 3.625 1.634 -25.588 3.674
5 24 12.333 -41 0 11.06 -38 -3.9 10.998 -36 0 12.06 -41 -4
5 24 12.333 -41 0 12.06 -41 -4 11.06 -38 -3.9 12.86 -44 -4
5 24 14.56 -62 0 14.56 -62 4 14.56 -66 4 14.46 -58 0
5 24 14.56 -62 -4 14.56 -62 0 14.56 -66 -4 14.46 -58 -4
5 24 -12.333 -41 0 -11.06 -38 3.9 -10.998 -36 0 -12.06 -41 4
5 24 -12.333 -41 0 -12.06 -41 4 -11.06 -38 3.9 -12.86 -44 4
5 24 -14.56 -62 0 -14.56 -62 -4 -14.56 -66 -4 -14.46 -58 -4
5 24 -14.56 -62 4 -14.56 -62 0 -14.56 -66 4 -14.46 -58 0
5 24 -14.156 -51 0 -14.46 -54 0 -14.26 -54 4 -14.26 -54 -4
5 24 -13.96 -51 4 -14.156 -51 0 -14.46 -54 0 -13.75 -48 0
5 24 -13.75 -48 0 -14.156 -51 0 -13.96 -51 4 -13.96 -51 -4
5 24 -12.333 -41 0 -13.151 -44 0 -12.86 -44 4 -12.06 -41 -4
5 24 14.46 -54 0 14.156 -51 0 14.26 -54 4 14.26 -54 -4
5 24 14.156 -51 0 13.96 -51 4 14.26 -54 4 13.75 -48 0
5 24 12.333 -41 0 13.151 -44 0 12.86 -44 -4 12.06 -41 4
5 24 14.156 -51 0 13.75 -48 0 13.56 -48 4 13.96 -51 -4
5 24 -13.96 -51 -4 -14.156 -51 0 -13.75 -48 0 -14.26 -54 -4
5 24 13.96 -51 -4 14.156 -51 0 14.26 -54 -4 13.56 -48 -4
5 24 1.634 -25.588 -3.674 1.634 -25.588 3.674 1.104 -25.263 -3.625 2.147 -26.022 -3.74
5 24 1.104 -25.263 3.625 1.104 -25.263 -3.625 1.634 -25.588 -3.674 0.565 -25.07 3.596
5 24 2.147 -26.022 3.74 2.147 -26.022 -3.74 2.716 -26.654 3.855 1.634 -25.588 3.674
5 24 2.716 -26.654 -3.855 2.716 -26.654 3.855 2.147 -26.022 3.74 3.641 -28 -4.1
5 24 -2.166 -26.022 -3.74 -2.166 -26.022 3.74 -2.731 -26.654 -3.855 -1.659 -25.595 -3.675
5 24 -2.731 -26.654 3.855 -2.731 -26.654 -3.855 -2.166 -26.022 -3.74 -3.643 -28 4.1
5 24 0 -25 -3.585 0 -25 3.585 -0.572 -25.073 -3.596 0.565 -25.07 -3.596
5 24 -0.572 -25.073 3.596 -0.572 -25.073 -3.596 0 -25 -3.585 -1.123 -25.269 3.626
5 24 -1.123 -25.269 3.626 -1.123 -25.269 -3.626 -0.572 -25.073 3.596 -1.659 -25.595 3.675
5 24 -3.643 -28 4.1 -3.643 -28 -4.1 -2.731 -26.654 -3.855 -4.7 -30 4.5
5 24 3.641 -28 -4.1 3.641 -28 4.1 2.716 -26.654 -3.855 4.7 -30 -4.5
5 24 -1.659 -25.595 -3.675 -1.659 -25.595 3.675 -2.166 -26.022 3.74 -1.123 -25.269 3.626
5 24 0.565 -25.07 3.596 0.565 -25.07 -3.596 1.104 -25.263 3.625 0 -25 -3.585
5 24 3.66 -18.4 0.18 3.66 -18.4 -0.18 2.9 -15 -0.03 4.54 -21.4 0.4
5 24 -3.66 -18.4 -0.18 -3.66 -18.4 0.18 -2.9 -15 0.03 -4.54 -21.4 -0.4
5 24 -4.7 -30 -4.5 -4.7 -30 4.5 -8.5 -38 5.5 -3.643 -28 -4.1
2 24 -4.7 -30 4.5 -8.5 -38 5.5
5 24 -8.5 -38 5.5 -8.5 -38 -5.5 -4.7 -30 -4.5 -9.5 -41 5.6
2 24 -8.5 -38 -5.5 -4.7 -30 -4.5
5 24 8.5 -38 -5.5 8.5 -38 5.5 4.7 -30 4.5 9.5 -41 -5.6
2 24 8.5 -38 5.5 4.7 -30 4.5
5 24 4.7 -30 4.5 4.7 -30 -4.5 8.5 -38 -5.5 3.641 -28 -4.1
2 24 4.7 -30 -4.5 8.5 -38 -5.5
5 24 9.5 -41 -5.6 9.5 -41 5.6 8.5 -38 5.5 10.3 -44 -5.6
2 24 9.5 -41 5.6 8.5 -38 5.5
2 24 8.5 -38 -5.5 9.5 -41 -5.6
2 24 -8.5 -38 5.5 -9.5 -41 5.6
5 24 -9.5 -41 5.6 -9.5 -41 -5.6 -8.5 -38 5.5 -10.3 -44 5.6
2 24 -9.5 -41 -5.6 -8.5 -38 -5.5
5 24 -10.3 -44 5.6 -10.3 -44 -5.6 -9.5 -41 -5.6 -11 -48 5.6
2 24 -10.3 -44 -5.6 -9.5 -41 -5.6
2 24 -9.5 -41 5.6 -10.3 -44 5.6
5 24 -11 -48 5.6 -11 -48 -5.6 -10.3 -44 -5.6 -11.4 -51 5.6
2 24 -11 -48 -5.6 -10.3 -44 -5.6
2 24 -10.3 -44 5.6 -11 -48 5.6
5 24 -11.4 -51 5.6 -11.4 -51 -5.6 -11 -48 -5.6 -11.7 -54 5.6
2 24 -11.4 -51 -5.6 -11 -48 -5.6
2 24 -11 -48 5.6 -11.4 -51 5.6
5 24 -11.7 -54 5.6 -11.7 -54 -5.6 -11.4 -51 -5.6 -11.9 -58 5.6
2 24 -11.7 -54 -5.6 -11.4 -51 -5.6
2 24 -11.4 -51 5.6 -11.7 -54 5.6
5 24 10.3 -44 5.6 10.3 -44 -5.6 11 -48 -5.6 9.5 -41 5.6
2 24 10.3 -44 -5.6 11 -48 -5.6
5 24 11 -48 -5.6 11 -48 5.6 10.3 -44 5.6 11.4 -51 -5.6
2 24 11 -48 5.6 10.3 -44 5.6
2 24 9.5 -41 -5.6 10.3 -44 -5.6
2 24 10.3 -44 5.6 9.5 -41 5.6
5 24 11.4 -51 5.6 11.4 -51 -5.6 11.7 -54 -5.6 11 -48 5.6
2 24 11.4 -51 -5.6 11.7 -54 -5.6
5 24 11.7 -54 -5.6 11.7 -54 5.6 11.4 -51 5.6 11.9 -58 -5.6
2 24 11.7 -54 5.6 11.4 -51 5.6
5 24 11.9 -58 -5.6 11.9 -58 5.6 11.7 -54 5.6 12 -62 -5.6
2 24 11.9 -58 5.6 11.7 -54 5.6
2 24 11.7 -54 -5.6 11.9 -58 -5.6
5 24 -11.9 -58 5.6 -11.9 -58 -5.6 -11.7 -54 -5.6 -12 -62 5.6
2 24 -11.9 -58 -5.6 -11.7 -54 -5.6
2 24 -11.7 -54 5.6 -11.9 -58 5.6
2 24 11 -48 -5.6 11.4 -51 -5.6
2 24 11.4 -51 5.6 11 -48 5.6
2 24 11.9 -58 -5.6 12 -62 -5.6
5 24 12 -62 -5.6 12 -62 5.6 11.9 -58 5.6 12 -66 -5.6
2 24 12 -62 5.6 11.9 -58 5.6
5 24 -12 -62 5.6 -12 -62 -5.6 -11.9 -58 -5.6 -12 -66 5.6
2 24 -12 -62 -5.6 -11.9 -58 -5.6
2 24 -11.9 -58 5.6 -12 -62 5.6
2 24 12 -62 -5.6 12 -66 -5.6
2 24 12 -66 5.6 12 -62 5.6
2 24 -12 -62 5.6 -12 -66 5.6
2 24 -12 -66 -5.6 -12 -62 -5.6
5 24 -14.56 -62 -4 -14.3652 -62 -4.61232 -14.3652 -66 -4.61232 -14.46 -58 -4
5 24 -14.3652 -62 -4.61232 -13.8102 -62 -5.13136 -13.8102 -66 -5.13136 -14.2652 -58 -4.61232
5 24 -13.8102 -62 -5.13136 -12.9797 -62 -5.47824 -12.9797 -66 -5.47824 -13.7102 -58 -5.13136
5 24 -12.9797 -62 -5.47824 -12 -62 -5.6 -12 -66 -5.6 -12.8797 -58 -5.47824
5 24 -14.3652 -62 4.61232 -14.56 -62 4 -14.3652 -66 4.61232 -14.2652 -58 4.61232
5 24 -13.8102 -62 5.13136 -14.3652 -62 4.61232 -13.8102 -66 5.13136 -13.7102 -58 5.13136
5 24 -12.9797 -62 5.47824 -13.8102 -62 5.13136 -12.9797 -66 5.47824 -12.8797 -58 5.47824
5 24 -12 -62 5.6 -12.9797 -62 5.47824 -12 -66 5.6 -11.9 -58 5.6
5 24 -10.8652 -38 -4.51232 -11.06 -38 -3.9 -7.26 -30 -2.9 -11.8652 -41 -4.61232
5 24 -10.3102 -38 -5.03136 -10.8652 -38 -4.51232 -7.06518 -30 -3.51232 -11.3102 -41 -5.13136
5 24 -9.47971 -38 -5.37824 -10.3102 -38 -5.03136 -6.51018 -30 -4.03136 -10.4797 -41 -5.47824
5 24 -8.5 -38 -5.5 -9.47971 -38 -5.37824 -5.67971 -30 -4.37824 -9.5 -41 -5.6
5 24 -11.06 -38 3.9 -10.8652 -38 4.51232 -7.06518 -30 3.51232 -11.8652 -41 4.61232
5 24 -10.8652 -38 4.51232 -10.3102 -38 5.03136 -6.51018 -30 4.03136 -11.3102 -41 5.13136
5 24 -10.3102 -38 5.03136 -9.47971 -38 5.37824 -5.67971 -30 4.37824 -10.4797 -41 5.47824
5 24 -9.47971 -38 5.37824 -8.5 -38 5.5 -4.7 -30 4.5 -9.5 -41 5.6
5 24 14.56 -62 4 14.3652 -62 4.61232 14.3652 -66 4.61232 14.46 -58 4
5 24 14.3652 -62 4.61232 13.8102 -62 5.13136 13.8102 -66 5.13136 14.2652 -58 4.61232
5 24 13.8102 -62 5.13136 12.9797 -62 5.47824 12.9797 -66 5.47824 13.7102 -58 5.13136
5 24 12.9797 -62 5.47824 12 -62 5.6 12 -66 5.6 12.8797 -58 5.47824
5 24 14.3652 -62 -4.61232 14.56 -62 -4 14.3652 -66 -4.61232 14.2652 -58 -4.61232
5 24 13.8102 -62 -5.13136 14.3652 -62 -4.61232 13.8102 -66 -5.13136 13.7102 -58 -5.13136
5 24 12.9797 -62 -5.47824 13.8102 -62 -5.13136 12.9797 -66 -5.47824 12.8797 -58 -5.47824
5 24 12 -62 -5.6 12.9797 -62 -5.47824 12 -66 -5.6 11.9 -58 -5.6
5 24 10.8652 -38 4.51232 11.06 -38 3.9 7.26 -30 2.9 11.8652 -41 4.61232
5 24 10.3102 -38 5.03136 10.8652 -38 4.51232 7.06518 -30 3.51232 11.3102 -41 5.13136
5 24 9.47971 -38 5.37824 10.3102 -38 5.03136 6.51018 -30 4.03136 10.4797 -41 5.47824
5 24 8.5 -38 5.5 9.47971 -38 5.37824 5.67971 -30 4.37824 9.5 -41 5.6
5 24 12.86 -44 4 12.6652 -44 4.61232 13.3652 -48 4.61232 12.06 -41 4
5 24 13.3652 -48 4.61232 13.56 -48 4 12.86 -44 4 13.7652 -51 4.61232
5 24 12.6652 -44 4.61232 12.1102 -44 5.13136 12.8102 -48 5.13136 11.8652 -41 4.61232
5 24 12.8102 -48 5.13136 13.3652 -48 4.61232 12.6652 -44 4.61232 13.2102 -51 5.13136
5 24 12.1102 -44 5.13136 11.2797 -44 5.47824 11.9797 -48 5.47824 11.3102 -41 5.13136
5 24 11.9797 -48 5.47824 12.8102 -48 5.13136 12.1102 -44 5.13136 12.3797 -51 5.47824
5 24 11.2797 -44 5.47824 10.3 -44 5.6 11 -48 5.6 10.4797 -41 5.47824
5 24 11 -48 5.6 11.9797 -48 5.47824 11.2797 -44 5.47824 11.4 -51 5.6
5 24 12.06 -41 4 11.8652 -41 4.61232 12.6652 -44 4.61232 11.06 -38 3.9
5 24 11.8652 -41 4.61232 11.3102 -41 5.13136 12.1102 -44 5.13136 10.8652 -38 4.51232
5 24 11.3102 -41 5.13136 10.4797 -41 5.47824 11.2797 -44 5.47824 10.3102 -38 5.03136
5 24 10.4797 -41 5.47824 9.5 -41 5.6 10.3 -44 5.6 9.47971 -38 5.37824
5 24 11.06 -38 -3.9 10.8652 -38 -4.51232 7.06518 -30 -3.51232 11.8652 -41 -4.61232
5 24 10.8652 -38 -4.51232 10.3102 -38 -5.03136 6.51018 -30 -4.03136 11.3102 -41 -5.13136
5 24 10.3102 -38 -5.03136 9.47971 -38 -5.37824 5.67971 -30 -4.37824 10.4797 -41 -5.47824
5 24 9.47971 -38 -5.37824 8.5 -38 -5.5 4.7 -30 -4.5 9.5 -41 -5.6
5 24 0 -11 2.6 0.99502 -11 2.40214 0.99502 -10 2.40214 0.3 -15 2.63
5 24 0.99502 -11 2.40214 1.83846 -11 1.83846 1.83846 -10 1.83846 1.29502 -15 2.43214
5 24 1.83846 -11 1.83846 2.40214 -11 0.99502 2.40214 -10 0.99502 2.13846 -15 1.86846
5 24 2.40214 -11 0.99502 2.6 -11 0 2.6 -10 0 2.70214 -15 1.02502
5 24 2.6 -11 0 2.40214 -11 -0.99502 2.40214 -10 -0.99502 2.9 -15 -0.03
5 24 2.40214 -11 -0.99502 1.83846 -11 -1.83846 1.83846 -10 -1.83846 2.70214 -15 -1.02502
5 24 1.83846 -11 -1.83846 0.99502 -11 -2.40214 0.99502 -10 -2.40214 2.13846 -15 -1.86846
5 24 0.99502 -11 -2.40214 0 -11 -2.6 0 -10 -2.6 1.29502 -15 -2.43214
5 24 0 -11 -2.6 -0.99502 -11 -2.40214 -0.99502 -10 -2.40214 -0.3 -15 -2.63
5 24 -0.99502 -11 -2.40214 -1.83846 -11 -1.83846 -1.83846 -10 -1.83846 -1.29502 -15 -2.43214
5 24 -1.83846 -11 -1.83846 -2.40214 -11 -0.99502 -2.40214 -10 -0.99502 -2.13846 -15 -1.86846
5 24 -2.40214 -11 -0.99502 -2.6 -11 0 -2.6 -10 0 -2.70214 -15 -1.02502
5 24 -2.6 -11 0 -2.40214 -11 0.99502 -2.40214 -10 0.99502 -2.9 -15 0.03
5 24 -2.40214 -11 0.99502 -1.83846 -11 1.83846 -1.83846 -10 1.83846 -2.70214 -15 1.02502
5 24 -1.83846 -11 1.83846 -0.99502 -11 2.40214 -0.99502 -10 2.40214 -2.13846 -15 1.86846
5 24 -0.99502 -11 2.40214 0 -11 2.6 0 -10 2.6 -1.29502 -15 2.43214
5 24 -1.29502 -15 2.43214 -0.3 -15 2.63 -0.99502 -11 2.40214 -2.05502 -18.4 2.58214
5 24 -2.13846 -15 1.86846 -1.29502 -15 2.43214 -1.83846 -11 1.83846 -2.89846 -18.4 2.01846
5 24 -2.70214 -15 1.02502 -2.13846 -15 1.86846 -2.40214 -11 0.99502 -3.46214 -18.4 1.17502
5 24 -2.9 -15 0.03 -2.70214 -15 1.02502 -2.6 -11 0 -3.66 -18.4 0.18
5 24 -0.3 -15 -2.63 -1.29502 -15 -2.43214 -0.99502 -11 -2.40214 -1.06 -18.4 -2.78
5 24 -1.29502 -15 -2.43214 -2.13846 -15 -1.86846 -1.83846 -11 -1.83846 -2.05502 -18.4 -2.58214
5 24 -2.13846 -15 -1.86846 -2.70214 -15 -1.02502 -2.40214 -11 -0.99502 -2.89846 -18.4 -2.01846
5 24 -2.70214 -15 -1.02502 -2.9 -15 -0.03 -2.6 -11 0 -3.46214 -18.4 -1.17502
5 24 0.3 -15 2.63 1.29502 -15 2.43214 0.99502 -11 2.40214 1.06 -18.4 2.78
5 24 1.29502 -15 2.43214 2.13846 -15 1.86846 1.83846 -11 1.83846 2.05502 -18.4 2.58214
5 24 2.13846 -15 1.86846 2.70214 -15 1.02502 2.40214 -11 0.99502 2.89846 -18.4 2.01846
5 24 2.70214 -15 1.02502 2.9 -15 0.03 2.6 -11 0 3.46214 -18.4 1.17502
5 24 -2.05502 -18.4 2.58214 -1.06 -18.4 2.78 -1.29502 -15 2.43214 -2.93502 -21.4 2.80214
5 24 -2.89846 -18.4 2.01846 -2.05502 -18.4 2.58214 -2.13846 -15 1.86846 -3.77846 -21.4 2.23846
5 24 -3.46214 -18.4 1.17502 -2.89846 -18.4 2.01846 -2.70214 -15 1.02502 -4.34214 -21.4 1.39502
5 24 -3.66 -18.4 0.18 -3.46214 -18.4 1.17502 -2.9 -15 0.03 -4.54 -21.4 0.4
5 24 -1.06 -18.4 -2.78 -2.05502 -18.4 -2.58214 -1.29502 -15 -2.43214 -1.94 -21.4 -3
5 24 -2.05502 -18.4 -2.58214 -2.89846 -18.4 -2.01846 -2.13846 -15 -1.86846 -2.93502 -21.4 -2.80214
5 24 -2.89846 -18.4 -2.01846 -3.46214 -18.4 -1.17502 -2.70214 -15 -1.02502 -3.77846 -21.4 -2.23846
5 24 -3.46214 -18.4 -1.17502 -3.66 -18.4 -0.18 -2.9 -15 -0.03 -4.34214 -21.4 -1.39502
5 24 2.05502 -18.4 -2.58214 1.06 -18.4 -2.78 1.29502 -15 -2.43214 2.93502 -21.4 -2.80214
5 24 0.3 -15 -2.63 1.29502 -15 -2.43214 2.05502 -18.4 -2.58214 0.99502 -11 -2.40214
5 24 2.89846 -18.4 -2.01846 2.05502 -18.4 -2.58214 2.13846 -15 -1.86846 3.77846 -21.4 -2.23846
5 24 1.29502 -15 -2.43214 2.13846 -15 -1.86846 2.89846 -18.4 -2.01846 1.83846 -11 -1.83846
5 24 3.46214 -18.4 -1.17502 2.89846 -18.4 -2.01846 2.70214 -15 -1.02502 4.34214 -21.4 -1.39502
5 24 2.13846 -15 -1.86846 2.70214 -15 -1.02502 3.46214 -18.4 -1.17502 2.40214 -11 -0.99502
5 24 3.66 -18.4 -0.18 3.46214 -18.4 -1.17502 2.9 -15 -0.03 4.54 -21.4 -0.4
5 24 2.70214 -15 -1.02502 2.9 -15 -0.03 3.66 -18.4 -0.18 2.6 -11 0
5 24 1.06 -18.4 2.78 2.05502 -18.4 2.58214 1.29502 -15 2.43214 1.94 -21.4 3
5 24 2.05502 -18.4 2.58214 2.89846 -18.4 2.01846 2.13846 -15 1.86846 2.93502 -21.4 2.80214
5 24 2.89846 -18.4 2.01846 3.46214 -18.4 1.17502 2.70214 -15 1.02502 3.77846 -21.4 2.23846
5 24 3.46214 -18.4 1.17502 3.66 -18.4 0.18 2.9 -15 0.03 4.34214 -21.4 1.39502
5 24 -14.46 -58 -4 -14.2652 -58 -4.61232 -14.3652 -62 -4.61232 -14.26 -54 -4
5 24 -14.2652 -58 -4.61232 -13.7102 -58 -5.13136 -13.8102 -62 -5.13136 -14.0652 -54 -4.61232
5 24 -13.7102 -58 -5.13136 -12.8797 -58 -5.47824 -12.9797 -62 -5.47824 -13.5102 -54 -5.13136
5 24 -12.8797 -58 -5.47824 -11.9 -58 -5.6 -12 -62 -5.6 -12.6797 -54 -5.47824
5 24 -14.2652 -58 4.61232 -14.46 -58 4 -14.3652 -62 4.61232 -14.0652 -54 4.61232
5 24 -13.7102 -58 5.13136 -14.2652 -58 4.61232 -13.8102 -62 5.13136 -13.5102 -54 5.13136
5 24 -12.8797 -58 5.47824 -13.7102 -58 5.13136 -12.9797 -62 5.47824 -12.6797 -54 5.47824
5 24 -11.9 -58 5.6 -12.8797 -58 5.47824 -12 -62 5.6 -11.7 -54 5.6
5 24 -14.26 -54 -4 -14.0652 -54 -4.61232 -14.2652 -58 -4.61232 -13.96 -51 -4
5 24 -14.0652 -54 -4.61232 -13.5102 -54 -5.13136 -13.7102 -58 -5.13136 -13.7652 -51 -4.61232
5 24 -13.5102 -54 -5.13136 -12.6797 -54 -5.47824 -12.8797 -58 -5.47824 -13.2102 -51 -5.13136
5 24 -12.6797 -54 -5.47824 -11.7 -54 -5.6 -11.9 -58 -5.6 -12.3797 -51 -5.47824
5 24 -14.0652 -54 4.61232 -14.26 -54 4 -14.2652 -58 4.61232 -13.7652 -51 4.61232
5 24 -13.5102 -54 5.13136 -14.0652 -54 4.61232 -13.7102 -58 5.13136 -13.2102 -51 5.13136
5 24 -12.6797 -54 5.47824 -13.5102 -54 5.13136 -12.8797 -58 5.47824 -12.3797 -51 5.47824
5 24 -11.7 -54 5.6 -12.6797 -54 5.47824 -11.9 -58 5.6 -11.4 -51 5.6
5 24 -13.96 -51 -4 -13.7652 -51 -4.61232 -14.0652 -54 -4.61232 -13.56 -48 -4
5 24 -13.7652 -51 -4.61232 -13.2102 -51 -5.13136 -13.5102 -54 -5.13136 -13.3652 -48 -4.61232
5 24 -13.2102 -51 -5.13136 -12.3797 -51 -5.47824 -12.6797 -54 -5.47824 -12.8102 -48 -5.13136
5 24 -12.3797 -51 -5.47824 -11.4 -51 -5.6 -11.7 -54 -5.6 -11.9797 -48 -5.47824
5 24 -13.7652 -51 4.61232 -13.96 -51 4 -14.0652 -54 4.61232 -13.3652 -48 4.61232
5 24 -13.2102 -51 5.13136 -13.7652 -51 4.61232 -13.5102 -54 5.13136 -12.8102 -48 5.13136
5 24 -12.3797 -51 5.47824 -13.2102 -51 5.13136 -12.6797 -54 5.47824 -11.9797 -48 5.47824
5 24 -11.4 -51 5.6 -12.3797 -51 5.47824 -11.7 -54 5.6 -11 -48 5.6
5 24 -13.56 -48 -4 -13.3652 -48 -4.61232 -13.7652 -51 -4.61232 -12.86 -44 -4
5 24 -13.3652 -48 -4.61232 -12.8102 -48 -5.13136 -13.2102 -51 -5.13136 -12.6652 -44 -4.61232
5 24 -12.8102 -48 -5.13136 -11.9797 -48 -5.47824 -12.3797 -51 -5.47824 -12.1102 -44 -5.13136
5 24 -11.9797 -48 -5.47824 -11 -48 -5.6 -11.4 -51 -5.6 -11.2797 -44 -5.47824
5 24 -13.3652 -48 4.61232 -13.56 -48 4 -13.7652 -51 4.61232 -12.6652 -44 4.61232
5 24 -12.8102 -48 5.13136 -13.3652 -48 4.61232 -13.2102 -51 5.13136 -12.1102 -44 5.13136
5 24 -11.9797 -48 5.47824 -12.8102 -48 5.13136 -12.3797 -51 5.47824 -11.2797 -44 5.47824
5 24 -11 -48 5.6 -11.9797 -48 5.47824 -11.4 -51 5.6 -10.3 -44 5.6
5 24 -12.86 -44 -4 -12.6652 -44 -4.61232 -13.3652 -48 -4.61232 -12.06 -41 -4
5 24 -12.6652 -44 -4.61232 -12.1102 -44 -5.13136 -12.8102 -48 -5.13136 -11.8652 -41 -4.61232
5 24 -12.1102 -44 -5.13136 -11.2797 -44 -5.47824 -11.9797 -48 -5.47824 -11.3102 -41 -5.13136
5 24 -11.2797 -44 -5.47824 -10.3 -44 -5.6 -11 -48 -5.6 -10.4797 -41 -5.47824
5 24 -12.6652 -44 4.61232 -12.86 -44 4 -13.3652 -48 4.61232 -11.8652 -41 4.61232
5 24 -12.1102 -44 5.13136 -12.6652 -44 4.61232 -12.8102 -48 5.13136 -11.3102 -41 5.13136
5 24 -11.2797 -44 5.47824 -12.1102 -44 5.13136 -11.9797 -48 5.47824 -10.4797 -41 5.47824
5 24 -10.3 -44 5.6 -11.2797 -44 5.47824 -11 -48 5.6 -9.5 -41 5.6
5 24 -12.06 -41 -4 -11.8652 -41 -4.61232 -12.6652 -44 -4.61232 -11.06 -38 -3.9
5 24 -11.8652 -41 -4.61232 -11.3102 -41 -5.13136 -12.1102 -44 -5.13136 -10.8652 -38 -4.51232
5 24 -11.3102 -41 -5.13136 -10.4797 -41 -5.47824 -11.2797 -44 -5.47824 -10.3102 -38 -5.03136
5 24 -10.4797 -41 -5.47824 -9.5 -41 -5.6 -10.3 -44 -5.6 -9.47971 -38 -5.37824
5 24 -11.8652 -41 4.61232 -12.06 -41 4 -12.6652 -44 4.61232 -10.8652 -38 4.51232
5 24 -11.3102 -41 5.13136 -11.8652 -41 4.61232 -12.1102 -44 5.13136 -10.3102 -38 5.03136
5 24 -10.4797 -41 5.47824 -11.3102 -41 5.13136 -11.2797 -44 5.47824 -9.47971 -38 5.37824
5 24 -9.5 -41 5.6 -10.4797 -41 5.47824 -10.3 -44 5.6 -8.5 -38 5.5
5 24 14.46 -58 4 14.2652 -58 4.61232 14.3652 -62 4.61232 14.26 -54 4
5 24 14.2652 -58 4.61232 13.7102 -58 5.13136 13.8102 -62 5.13136 14.0652 -54 4.61232
5 24 13.7102 -58 5.13136 12.8797 -58 5.47824 12.9797 -62 5.47824 13.5102 -54 5.13136
5 24 12.8797 -58 5.47824 11.9 -58 5.6 12 -62 5.6 12.6797 -54 5.47824
5 24 14.2652 -58 -4.61232 14.46 -58 -4 14.3652 -62 -4.61232 14.0652 -54 -4.61232
5 24 13.7102 -58 -5.13136 14.2652 -58 -4.61232 13.8102 -62 -5.13136 13.5102 -54 -5.13136
5 24 12.8797 -58 -5.47824 13.7102 -58 -5.13136 12.9797 -62 -5.47824 12.6797 -54 -5.47824
5 24 11.9 -58 -5.6 12.8797 -58 -5.47824 12 -62 -5.6 11.7 -54 -5.6
5 24 14.26 -54 4 14.0652 -54 4.61232 14.2652 -58 4.61232 13.96 -51 4
5 24 14.0652 -54 4.61232 13.5102 -54 5.13136 13.7102 -58 5.13136 13.7652 -51 4.61232
5 24 13.5102 -54 5.13136 12.6797 -54 5.47824 12.8797 -58 5.47824 13.2102 -51 5.13136
5 24 12.6797 -54 5.47824 11.7 -54 5.6 11.9 -58 5.6 12.3797 -51 5.47824
5 24 14.0652 -54 -4.61232 14.26 -54 -4 14.2652 -58 -4.61232 13.7652 -51 -4.61232
5 24 13.5102 -54 -5.13136 14.0652 -54 -4.61232 13.7102 -58 -5.13136 13.2102 -51 -5.13136
5 24 12.6797 -54 -5.47824 13.5102 -54 -5.13136 12.8797 -58 -5.47824 12.3797 -51 -5.47824
5 24 11.7 -54 -5.6 12.6797 -54 -5.47824 11.9 -58 -5.6 11.4 -51 -5.6
5 24 13.96 -51 4 13.7652 -51 4.61232 14.0652 -54 4.61232 13.56 -48 4
5 24 13.7652 -51 4.61232 13.2102 -51 5.13136 13.5102 -54 5.13136 13.3652 -48 4.61232
5 24 13.2102 -51 5.13136 12.3797 -51 5.47824 12.6797 -54 5.47824 12.8102 -48 5.13136
5 24 12.3797 -51 5.47824 11.4 -51 5.6 11.7 -54 5.6 11.9797 -48 5.47824
5 24 13.7652 -51 -4.61232 13.96 -51 -4 14.0652 -54 -4.61232 13.3652 -48 -4.61232
5 24 13.2102 -51 -5.13136 13.7652 -51 -4.61232 13.5102 -54 -5.13136 12.8102 -48 -5.13136
5 24 12.3797 -51 -5.47824 13.2102 -51 -5.13136 12.6797 -54 -5.47824 11.9797 -48 -5.47824
5 24 11.4 -51 -5.6 12.3797 -51 -5.47824 11.7 -54 -5.6 11 -48 -5.6
5 24 13.3652 -48 -4.61232 13.56 -48 -4 13.7652 -51 -4.61232 12.6652 -44 -4.61232
5 24 12.8102 -48 -5.13136 13.3652 -48 -4.61232 13.2102 -51 -5.13136 12.1102 -44 -5.13136
5 24 11.9797 -48 -5.47824 12.8102 -48 -5.13136 12.3797 -51 -5.47824 11.2797 -44 -5.47824
5 24 11 -48 -5.6 11.9797 -48 -5.47824 11.4 -51 -5.6 10.3 -44 -5.6
5 24 12.6652 -44 -4.61232 12.86 -44 -4 13.3652 -48 -4.61232 11.8652 -41 -4.61232
5 24 12.1102 -44 -5.13136 12.6652 -44 -4.61232 12.8102 -48 -5.13136 11.3102 -41 -5.13136
5 24 11.2797 -44 -5.47824 12.1102 -44 -5.13136 11.9797 -48 -5.47824 10.4797 -41 -5.47824
5 24 10.3 -44 -5.6 11.2797 -44 -5.47824 11 -48 -5.6 9.5 -41 -5.6
5 24 11.8652 -41 -4.61232 12.06 -41 -4 12.6652 -44 -4.61232 10.8652 -38 -4.51232
5 24 11.3102 -41 -5.13136 11.8652 -41 -4.61232 12.1102 -44 -5.13136 10.3102 -38 -5.03136
5 24 10.4797 -41 -5.47824 11.3102 -41 -5.13136 11.2797 -44 -5.47824 9.47971 -38 -5.37824
5 24 9.5 -41 -5.6 10.4797 -41 -5.47824 10.3 -44 -5.6 8.5 -38 -5.5
