0 Brick  2 x  3 with Octan Right Sticker
0 Name: 3002d06.dat
0 Author: Takeshi Takahashi [RainbowDolphin]
0 !LDRAW_ORG Shortcut UPDATE 2024-08
0 !LICENSE Licensed under CC BY 4.0 : see CAreadme.txt

0 BFC CERTIFY CCW

0 !CATEGORY Sticker Shortcut
0 !KEYWORDS Bricklink 3002pb37R, Gas Station, Set 6397

0 !HISTORY 2024-09-30 [OrionP] Official Update 2024-08

1 16 0 0 0 1 0 0 0 1 0 0 0 1 3002.dat
1 16 10 12 -20 1 0 0 0 0 -1 0 1 0 165495c.dat
