0 Brick  1 x  8 with "Engine Co. No. 9" Sticker
0 Name: 3008d01.dat
0 Author: Takeshi Takahashi [RainbowDolphin]
0 !LDRAW_ORG Shortcut UPDATE 2024-04
0 !LICENSE Licensed under CC BY 4.0 : see CAreadme.txt

0 BFC CERTIFY CCW

0 !CATEGORY Sticker Shortcut
0 !KEYWORDS Bricklink 3008pb158, Fire Station, Set 590-1

0 !HISTORY 2024-05-28 [OrionP] Official Update 2024-04

1 16 0 0 0 1 0 0 0 1 0 0 0 1 3008.dat
1 16 0 12 -10 1 0 0 0 0 -1 0 1 0 004659h.dat
