0 Cylinder  2 x  2 with Dome Top with Lavender Dots, Dark Blue R2-D2 Pattern
0 Name: 30367cps8.dat
0 Author: Franklin W. Cain [fwcain]
0 !LDRAW_ORG Part UPDATE 2024-04
0 !LICENSE Licensed under CC BY 4.0 : see CAreadme.txt

0 BFC CERTIFY CCW

0 !KEYWORDS Artoo, Artoo-Detoo, astromech, blue droid, BrickLink 553pb017b
0 !KEYWORDS BrickOwl 429769, droid, minifig, R2, Rebrickable 30367cpr1000
0 !KEYWORDS Set 75136, set 75159, Set 75168, set 75214, Star Wars

0 !HISTORY 2024-05-28 [OrionP] Official Update 2024-04

1 272 0 0 0 1 0 0 0 1 0 0 0 1 s\30367ps0s01.dat
1 272 0 0 0 1 0 0 0 1 0 0 0 1 s\30367ps0s02.dat
1 272 0 0 0 1 0 0 0 1 0 0 0 1 s\30367ps0s03.dat
1 16 0 0 0 1 0 0 0 1 0 0 0 1 s\30367ps0s04.dat

0 // secondary eye

4 31 1.8077 11.1602 -18.9189 1.1786 11.128 -19.0392 0.5985 11.3732 -19.1912 2.3897 11.4646 -18.8485
3 31 2.3897 11.4646 -18.8485 0.5985 11.3732 -19.1912 0.1557 11.8586 -19.3516
4 31 2.8365 11.9954 -18.8388 2.3897 11.4646 -18.8485 0.1557 11.8586 -19.3516 0 12.2845 -19.4461
3 31 3.0797 12.6715 -18.8912 2.8365 11.9954 -18.8388 0 12.2845 -19.4461
4 31 -0.0798 13.2285 -19.5712 0 13.4503 -19.6199 0 12.2845 -19.4461 -0.0825 12.5101 -19.4635
4 31 3.0797 12.6715 -18.8912 0 12.2845 -19.4461 0 13.4503 -19.6199 3.0823 13.3898 -18.9978
4 31 0.1634 13.9045 -19.6551 2.8441 14.0413 -19.1423 3.0823 13.3898 -18.9978 0 13.4503 -19.6199
4 31 0.6101 14.4353 -19.6454 2.4013 14.5267 -19.3027 2.8441 14.0413 -19.1423 0.1634 13.9045 -19.6551
4 31 1.1922 14.7399 -19.575 1.8212 14.7719 -19.4547 2.4013 14.5267 -19.3027 0.6101 14.4353 -19.6454

0 // plug lights

4 322 -8.1727 11.7 -17.3751 -9.2421 11.7 -16.6603 -9.277 12.2 -16.725 -8.2034 12.2 -17.4425
4 322 -8.2955 13.7 -17.645 -9.3814 13.7 -16.9191 -9.4164 14.2 -16.9838 -8.3262 14.2 -17.7124

0 // thick-lined box

1 31 11.5 12.75 15.336 1.33 0 0.131 0 1 1.582 -0.89 0 0.195 4-4disc.dat

1 16 11.5 12.75 15.336 1.33 0 0.131 0 1 1.582 -0.89 0 0.195 4-4ndis.dat

3 16 7.3349 10.4 17.7062 10.039 11.168 16.030 10.17 12.75 16.226
3 16 7.3349 10.4 17.7062 11.369 11.168 15.141 10.039 11.168 16.030
3 16 7.3349 10.4 17.7062 13.4478 10.4 13.6205 11.369 11.168 15.141
3 16 13.4478 10.4 13.6205 12.698 11.168 14.251 11.369 11.168 15.141
3 16 13.4478 10.4 13.6205 12.83 12.75 14.446 12.698 11.168 14.251
3 16 13.4478 10.4 13.6205 13.9391 15.1001 14.1192 12.83 12.75 14.446
3 16 13.9391 15.1001 14.1192 12.961 14.332 14.642 12.83 12.75 14.446
3 16 13.9391 15.1001 14.1192 11.631 14.332 15.531 12.961 14.332 14.642
3 16 13.9391 15.1001 14.1192 7.6027 15.1001 18.3540 11.631 14.332 15.531
3 16 7.6027 15.1001 18.3540 10.302 14.332 16.421 11.631 14.332 15.531
3 16 7.6027 15.1001 18.3540 10.17 12.75 16.226 10.302 14.332 16.421
3 16 7.6027 15.1001 18.3540 7.3349 10.4 17.7062 10.17 12.75 16.226

4 16 7.3349 10.4 17.7062 7.6027 15.1001 18.354 4.9578 15.1 18.8801 4.7829 10.4 18.2138

0 // big slot within panel

4 0 -14.0997 12.95 13.4021 -13.9922 11.95 13.2997 -13.7148 11.95 13.7148 -13.8203 12.95 13.8203
4 0 -13.8203 12.95 13.8203 -13.7148 11.95 13.7148 -7.4232 11.95 17.9198 -7.4802 12.9501 18.0577
4 0 -7.1999 12.9501 18.1132 -7.4802 12.9501 18.0577 -7.4232 11.95 17.9198 -7.145 11.9501 17.975

0 // all else

1 16 0 19.3 0 20 0 0 0 0.7 0 0 0 20 4-4cyli.dat

1 16 0 16 0 -7.653669 0 -18.477591 0 0.7 0 18.477591 0 -7.653669 3-4cyli.dat

1 16 0 0 0 1 0 0 0 1 0 0 0 1 s\30367cs01.dat
