0 Tile  2 x  2 with Castle Maiden Portrait Sticker
0 Name: 3068bd09.dat
0 Author: Evert-Jan Boer [ejboer]
0 !LDRAW_ORG Shortcut UPDATE 2024-07
0 !LICENSE Licensed under CC BY 4.0 : see CAreadme.txt

0 BFC CERTIFY CCW

0 !CATEGORY Sticker Shortcut
0 !KEYWORDS Bricklink 3068pb0181, Set 10193

0 !HISTORY 2024-08-26 [OrionP] Official Update 2024-07

1 16 0 0 0 1 0 0 0 1 0 0 0 1 3068b.dat
1 16 0 0 0 1 0 0 0 1 0 0 0 1 4542886c.dat
