0 Minifig Leg Medium Left with with Orange and Brown Dots, White Shoes Pattern
0 Name: 37366pdg4.dat
0 Author: Magnus Forsberg [MagFors]
0 !LDRAW_ORG Part UPDATE 2024-09
0 !LICENSE Licensed under CC BY 4.0 : see CAreadme.txt

0 !HELP Move down 12 units to align with hips

0 BFC CERTIFY CCW

0 !KEYWORDS Bricklink 970cm00pb013, Brickowl 15344, CMF, Collectable, Gonzo
0 !KEYWORDS Rebrickable 37364c11pr2232, set 71033, The Muppets

0 !HISTORY 2024-10-27 [OrionP] Official Update 2024-09

1 16 0 0 0 1 0 0 0 1 0 0 0 1 s\37366s02.dat

4 15 1.5 13.75 -11.25 1.5 18 -11.25 19.1631 18 -11.25 18.9783 13.75 -11.25
4 0 1.5 18 -11.25 1.5 20 -11.25 19.25 20 -11.25 19.1631 18 -11.25
4 16 18.9022 12 -11.25 1.5 12 -11.25 1.5 13.75 -11.25 18.9783 13.75 -11.25
4 16 2 6.4793 -5.75 1.5 12 -5.75 18.9022 12 -5.75 18.6621 6.4793 -5.75
4 16 1.5 12 -5.75 1.5 12 -11.25 18.9022 12 -11.25 18.9022 12 -5.75
3 16 1.5 6.4793 -5.75 1.5 12 -5.75 2 6.4793 -5.75

0 // outer side surface
4 0 19.1631 18 -1 19.1631 18 -11.25 19.25 20 -11.25 19.25 20 8.75
3 0 19.25 20 8.75 19.163 18 6.025 19.1631 18 -1
3 0 19.25 20 8.75 19.163 18 8.75 19.163 18 6.025
4 15 19.1631 18 -11.25 19.1631 18 -1 19.1326 17.3823 -1.4276 19.1022 16.7647 -2.15
4 15 19.1631 18 -11.25 19.1022 16.7647 -2.15 19.0781 16.2352 -2.975 19.0569 15.794 -3.8
3 15 19.0363 15.2644 -4.6 19.1631 18 -11.25 19.0569 15.794 -3.8
3 15 19.0116 14.6465 -5.2 19.1631 18 -11.25 19.0363 15.2644 -4.6
4 15 19.1631 18 -11.25 19.0116 14.6465 -5.2 18.9956 14.2493 -5.5 18.9783 13.75 -11.25
4 15 19.163 18 6.025 19.163 18 8.75 19.076 16.2353 8.75 19.0554 15.8162 8.425
4 15 19.1065 16.8529 5.2 19.163 18 6.025 19.0554 15.8162 8.425 19.0326 15.3529 8
4 15 19.1065 16.8529 5.2 19.0326 15.3529 8 19.0141 14.9779 7.625 18.9956 14.6029 7.175
4 15 19.0717 16.1471 4.5 19.1065 16.8529 5.2 18.9956 14.6029 7.175 18.9782 14.25 6.7
3 15 18.9782 14.25 6.7 19.0413 15.5294 3.775 19.0717 16.1471 4.5
3 15 18.9782 14.25 6.7 19.0152 15 2.975 19.0413 15.5294 3.775
4 15 19.0033 14.7573 2.55 19.0152 15 2.975 18.9782 14.25 6.7 18.9933 14.5478 2.275
3 15 18.9782 14.25 6.7 18.981 14.2499 2.2 18.9933 14.5478 2.275
4 15 18.9536 13.7504 6.15 18.9602 13.7498 2.2 18.981 14.2499 2.2 18.9782 14.25 6.7
3 15 18.9783 13.75 -11.25 18.9956 14.2493 -5.5 18.9749 13.7491 -5.6
4 70 18.1942 -4.2825 3.3046 18.1579 -5.1175 3.3046 18.1579 -5.1175 2.4954 18.1942 -4.2825 2.4954
4 70 18.229 -3.4825 -2.3954 18.1927 -4.3175 -2.3954 18.1927 -4.3175 -3.2046 18.229 -3.4825 -3.2046
4 70 18.2943 -1.9801 1.0069 18.2578 -2.8199 1.0069 18.2578 -2.8199 .1932 18.2943 -1.9801 .1932
4 70 18.4074 .6199 7.2069 18.3708 -.2199 7.2069 18.3708 -.2199 6.3932 18.4074 .6199 6.3932
4 70 18.4595 1.8199 -2.6932 18.423 .9801 -2.6932 18.423 .9801 -3.5069 18.4595 1.8199 -3.5069
4 70 18.5465 3.8199 -5.5932 18.51 2.9801 -5.5932 18.51 2.9801 -6.4069 18.5465 3.8199 -6.4069
4 70 18.6639 6.5199 7.5069 18.6274 5.6801 7.5069 18.6274 5.6801 6.6932 18.6639 6.5199 6.6932
4 70 18.7204 7.8199 1.5069 18.6839 6.9801 1.5069 18.6839 6.9801 .6932 18.7204 7.8199 .6932
4 70 18.2971 -1.9162 -6.0932 18.242 -3.1838 -6.0932 18.242 -3.1838 -6.9069 18.2971 -1.9162 -6.9069
4 70 18.4275 1.0838 3.8069 18.3724 -.1838 3.8069 18.3724 -.1838 2.9932 18.4275 1.0838 2.9932
4 70 18.6014 5.0838 2.9069 18.5463 3.8162 2.9069 18.5463 3.8162 2.0932 18.6014 5.0838 2.0932
4 70 18.658 6.3838 -3.2932 18.6028 5.1162 -3.2932 18.6028 5.1162 -4.1069 18.658 6.3838 -4.1069
4 70 18.8362 10.4838 -2.0932 18.7811 9.2162 -2.0932 18.7811 9.2162 -2.9069 18.8362 10.4838 -2.9069
4 70 18.7971 9.5838 4.7069 18.742 8.3162 4.7069 18.742 8.3162 3.8932 18.7971 9.5838 3.8932
4 70 18.9602 13.7498 2.2 18.9749 13.7491 -5.6 18.9956 14.2493 -5.5 18.981 14.2499 2.2
4 70 18.981 14.2499 2.2 18.9956 14.2493 -5.5 19.0116 14.6465 -5.2 19.0363 15.2644 -4.6
4 70 18.981 14.2499 2.2 19.0363 15.2644 -4.6 19.0569 15.794 -3.8 18.9933 14.5478 2.275
4 70 19.0569 15.794 -3.8 19.0781 16.2352 -2.975 19.0152 15 2.975 19.0033 14.7573 2.55
4 70 19.0152 15 2.975 19.0781 16.2352 -2.975 19.1022 16.7647 -2.15 19.0413 15.5294 3.775
4 70 19.0717 16.1471 4.5 19.0413 15.5294 3.775 19.1631 18 -1 19.1065 16.8529 5.2
3 70 19.1065 16.8529 5.2 19.1631 18 -1 19.163 18 6.025
3 70 19.0413 15.5294 3.775 19.1326 17.3823 -1.4276 19.1631 18 -1
3 70 19.0413 15.5294 3.775 19.1022 16.7647 -2.15 19.1326 17.3823 -1.4276
3 70 18.9933 14.5478 2.275 19.0569 15.794 -3.8 19.0033 14.7573 2.55
4 70 18.9956 14.6029 7.175 18.9152 12.9706 8.75 18.9369 13.4105 7.5803 18.9782 14.25 6.7
3 70 18.9369 13.4105 7.5803 18.9536 13.7504 6.15 18.9782 14.25 6.7
3 70 18.9152 12.9706 8.75 18.9956 14.6029 7.175 19.0141 14.9779 7.625
3 70 18.9152 12.9706 8.75 19.0141 14.9779 7.625 19.0326 15.3529 8
3 70 18.9152 12.9706 8.75 19.0326 15.3529 8 19.0554 15.8162 8.425
3 70 18.9152 12.9706 8.75 19.0554 15.8162 8.425 19.076 16.2353 8.75
4 191 18.2552 -2.8801 4.6069 18.2187 -3.7199 4.6069 18.2187 -3.7199 3.7932 18.2552 -2.8801 3.7932
4 191 18.403 .5199 -7.1932 18.3665 -.3199 -7.1932 18.3665 -.3199 -8.0069 18.403 .5199 -8.0069
4 191 18.4813 2.3199 -.4932 18.4448 1.4801 -.4932 18.4448 1.4801 -1.3069 18.4813 2.3199 -1.3069
4 191 18.6204 5.5199 -.7932 18.5839 4.6801 -.7932 18.5839 4.6801 -1.6069 18.6204 5.5199 -1.6069
4 191 18.6291 5.7199 4.1069 18.5926 4.8801 4.1069 18.5926 4.8801 3.2932 18.6291 5.7199 3.2932
4 191 18.8378 10.5199 7.2069 18.8013 9.6801 7.2069 18.8013 9.6801 6.3932 18.8378 10.5199 6.3932
4 191 18.8204 10.1199 3.1069 18.7839 9.2801 3.1069 18.7839 9.2801 2.2932 18.8204 10.1199 2.2932
4 191 18.8682 11.2199 .7069 18.8317 10.3801 .7069 18.8317 10.3801 -.1069 18.8682 11.2199 -.1069
4 191 18.7813 9.2199 -3.5932 18.7448 8.3801 -3.5932 18.7448 8.3801 -4.4069 18.7813 9.2199 -4.4069
4 191 18.5101 2.9838 6.9069 18.455 1.7162 6.9069 18.455 1.7162 6.0932 18.5101 2.9838 6.0932
4 191 18.4058 .5838 -4.2932 18.3507 -.6838 -4.2932 18.3507 -.6838 -5.1069 18.4058 .5838 -5.1069
4 191 18.1403 -5.5227 -.4973 18.0857 -6.7773 -.4973 18.0857 -6.7773 -1.3027 18.1403 -5.5227 -1.3027
4 16 18.1114 -6.1871 -6.1871 18.2348 -3.3486 -8.0841 18.242 -3.1838 -6.9069 18.242 -3.1838 -6.0932
4 16 18.1927 -4.3175 -3.2046 18.1114 -6.1871 -6.1871 18.242 -3.1838 -6.0932 18.229 -3.4825 -3.2046
4 16 18.229 -3.4825 -3.2046 18.242 -3.1838 -6.0932 18.2971 -1.9162 -6.0932 18.3507 -.6838 -5.1069
4 16 18.229 -3.4825 -3.2046 18.3507 -.6838 -5.1069 18.3507 -.6838 -4.2932 18.229 -3.4825 -2.3954
4 16 18.3507 -.6838 -5.1069 18.2971 -1.9162 -6.0932 18.2971 -1.9162 -6.9069 18.3665 -.3199 -7.1932
4 16 18.2971 -1.9162 -6.9069 18.242 -3.1838 -6.9069 18.2348 -3.3486 -8.0841 18.3665 -.3199 -8.0069
3 16 18.2971 -1.9162 -6.9069 18.3665 -.3199 -8.0069 18.3665 -.3199 -7.1932
4 16 18.3665 -.3199 -8.0069 18.2348 -3.3486 -8.0841 18.3804 0 -8.75 18.403 .5199 -8.0069
4 16 18.3665 -.3199 -7.1932 18.403 .5199 -7.1932 18.4058 .5838 -5.1069 18.3507 -.6838 -5.1069
4 16 18.4058 .5838 -5.1069 18.403 .5199 -7.1932 18.51 2.9801 -6.4069 18.51 2.9801 -5.5932
4 16 18.51 2.9801 -6.4069 18.403 .5199 -8.0069 18.3804 0 -8.75 18.526 3.3486 -8.0841
3 16 18.51 2.9801 -6.4069 18.526 3.3486 -8.0841 18.5465 3.8199 -6.4069
4 16 18.5465 3.8199 -5.5932 18.5465 3.8199 -6.4069 18.6494 6.1871 -6.1871 18.6621 6.4793 -5.75
3 16 18.526 3.3486 -8.0841 18.6494 6.1871 -6.1871 18.5465 3.8199 -6.4069
4 16 18.51 2.9801 -5.5932 18.5465 3.8199 -5.5932 18.6028 5.1162 -4.1069 18.4595 1.8199 -3.5069
4 16 18.6028 5.1162 -4.1069 18.5465 3.8199 -5.5932 18.6621 6.4793 -5.75 18.658 6.3838 -4.1069
4 16 18.4058 .5838 -5.1069 18.51 2.9801 -5.5932 18.4595 1.8199 -3.5069 18.4058 .5838 -4.2932
4 16 18.4058 .5838 -4.2932 18.4595 1.8199 -3.5069 18.423 .9801 -3.5069 18.3507 -.6838 -4.2932
4 16 18.029 -8.0841 -3.3486 18.1114 -6.1871 -6.1871 18.1927 -4.3175 -3.2046 18.1927 -4.3175 -2.3954
4 16 18.029 -8.0841 -3.3486 18.1927 -4.3175 -2.3954 18.1403 -5.5227 -1.3027 18.0857 -6.7773 -1.3027
4 16 18.1403 -5.5227 -.4973 18.1403 -5.5227 -1.3027 18.1927 -4.3175 -2.3954 18.2943 -1.9801 .1932
4 16 18.029 -8.0841 -3.3486 18.0857 -6.7773 -1.3027 18.0857 -6.7773 -.4973 18 -8.75 0
4 16 18 -8.75 0 18.0857 -6.7773 -.4973 18.1403 -5.5227 -.4973 18.1579 -5.1175 2.4954
4 16 18.0289 -8.0843 3.349 18 -8.75 0 18.1579 -5.1175 2.4954 18.1579 -5.1175 3.3046
4 16 18.2187 -3.7199 3.7932 18.1942 -4.2825 3.3046 18.1942 -4.2825 2.4954 18.2943 -1.9801 1.0069
4 16 18.1579 -5.1175 3.3046 18.1942 -4.2825 3.3046 18.2187 -3.7199 3.7932 18.0289 -8.0843 3.349
4 16 18.0289 -8.0843 3.349 18.2187 -3.7199 3.7932 18.2187 -3.7199 4.6069 18.1114 -6.1881 6.187
4 16 18.1114 -6.1881 6.187 18.2187 -3.7199 4.6069 18.2552 -2.8801 4.6069 18.2348 -3.3486 8.0841
4 16 18.2348 -3.3486 8.0841 18.2552 -2.8801 4.6069 18.3708 -.2199 6.3932 18.3708 -.2199 7.2069
4 16 18.3708 -.2199 7.2069 18.4074 .6199 7.2069 18.3804 0 8.75 18.2348 -3.3486 8.0841
4 16 18.455 1.7162 6.9069 18.4074 .6199 7.2069 18.4074 .6199 6.3932 18.455 1.7162 6.0932
4 16 18.3804 0 8.75 18.4074 .6199 7.2069 18.455 1.7162 6.9069 18.5101 2.9838 6.9069
4 16 18.455 1.7162 6.0932 18.4074 .6199 6.3932 18.3708 -.2199 6.3932 18.3724 -.1838 3.8069
4 16 18.6274 5.6801 7.5069 18.5101 2.9838 6.9069 18.5101 2.9838 6.0932 18.6274 5.6801 6.6932
4 16 18.6639 6.5199 6.6932 18.6274 5.6801 6.6932 18.5101 2.9838 6.0932 18.5926 4.8801 4.1069
4 16 18.6639 6.5199 6.6932 18.5926 4.8801 4.1069 18.6291 5.7199 4.1069 18.742 8.3162 4.7069
4 16 18.5926 4.8801 3.2932 18.5926 4.8801 4.1069 18.5101 2.9838 6.0932 18.5463 3.8162 2.9069
4 16 18.5463 3.8162 2.9069 18.5101 2.9838 6.0932 18.455 1.7162 6.0932 18.4275 1.0838 3.8069
3 16 18.3724 -.1838 3.8069 18.4275 1.0838 3.8069 18.455 1.7162 6.0932
4 16 18.2552 -2.8801 4.6069 18.3724 -.1838 2.9932 18.3724 -.1838 3.8069 18.3708 -.2199 6.3932
3 16 18.2552 -2.8801 3.7932 18.3724 -.1838 2.9932 18.2552 -2.8801 4.6069
4 16 18.3724 -.1838 2.9932 18.2552 -2.8801 3.7932 18.2187 -3.7199 3.7932 18.2943 -1.9801 1.0069
3 16 18.1942 -4.2825 2.4954 18.2578 -2.8199 1.0069 18.2943 -1.9801 1.0069
4 16 18.2578 -2.8199 .1932 18.2578 -2.8199 1.0069 18.1942 -4.2825 2.4954 18.1579 -5.1175 2.4954
3 16 18.1403 -5.5227 -.4973 18.2943 -1.9801 .1932 18.2578 -2.8199 .1932
3 16 18.1403 -5.5227 -.4973 18.2578 -2.8199 .1932 18.1579 -5.1175 2.4954
3 16 18.1927 -4.3175 -2.3954 18.229 -3.4825 -2.3954 18.2943 -1.9801 .1932
4 16 18.2943 -1.9801 .1932 18.229 -3.4825 -2.3954 18.3507 -.6838 -4.2932 18.423 .9801 -2.6932
4 16 18.2943 -1.9801 .1932 18.423 .9801 -2.6932 18.4448 1.4801 -1.3069 18.4448 1.4801 -.4932
4 16 18.2943 -1.9801 1.0069 18.2943 -1.9801 .1932 18.4448 1.4801 -.4932 18.3724 -.1838 2.9932
4 16 18.4275 1.0838 2.9932 18.3724 -.1838 2.9932 18.4448 1.4801 -.4932 18.4813 2.3199 -.4932
4 16 18.4275 1.0838 3.8069 18.4275 1.0838 2.9932 18.5463 3.8162 2.0932 18.5463 3.8162 2.9069
3 16 18.4275 1.0838 2.9932 18.4813 2.3199 -.4932 18.5463 3.8162 2.0932
4 16 18.5463 3.8162 2.0932 18.4813 2.3199 -.4932 18.4813 2.3199 -1.3069 18.5839 4.6801 -.7932
4 16 18.5839 4.6801 -.7932 18.4813 2.3199 -1.3069 18.4595 1.8199 -2.6932 18.5839 4.6801 -1.6069
4 16 18.4595 1.8199 -2.6932 18.4813 2.3199 -1.3069 18.4448 1.4801 -1.3069 18.423 .9801 -2.6932
4 16 18.5839 4.6801 -1.6069 18.4595 1.8199 -2.6932 18.4595 1.8199 -3.5069 18.6028 5.1162 -3.2932
4 16 18.6204 5.5199 -1.6069 18.5839 4.6801 -1.6069 18.6028 5.1162 -3.2932 18.658 6.3838 -3.2932
3 16 18.4595 1.8199 -3.5069 18.6028 5.1162 -4.1069 18.6028 5.1162 -3.2932
4 16 18.6204 5.5199 -.7932 18.6204 5.5199 -1.6069 18.658 6.3838 -3.2932 18.6839 6.9801 .6932
4 16 18.7448 8.3801 -3.5932 18.658 6.3838 -3.2932 18.658 6.3838 -4.1069 18.6621 6.4793 -5.75
3 16 18.6621 6.4793 -5.75 18.7448 8.3801 -4.4069 18.7448 8.3801 -3.5932
4 16 18.658 6.3838 -3.2932 18.7448 8.3801 -3.5932 18.7813 9.2199 -3.5932 18.7811 9.2162 -2.9069
4 16 18.658 6.3838 -3.2932 18.7811 9.2162 -2.9069 18.7811 9.2162 -2.0932 18.6839 6.9801 .6932
3 16 18.7811 9.2162 -2.9069 18.7813 9.2199 -3.5932 18.8362 10.4838 -2.9069
4 16 18.8362 10.4838 -2.9069 18.7813 9.2199 -3.5932 18.7813 9.2199 -4.4069 18.9022 12 -5.75
4 16 18.8362 10.4838 -2.0932 18.8362 10.4838 -2.9069 18.9022 12 -5.75 18.9749 13.7491 -5.6
4 16 18.7811 9.2162 -2.0932 18.8362 10.4838 -2.0932 18.8682 11.2199 -.1069 18.8317 10.3801 -.1069
4 16 18.7811 9.2162 -2.0932 18.8317 10.3801 -.1069 18.8317 10.3801 .7069 18.7204 7.8199 .6932
3 16 18.6839 6.9801 .6932 18.7811 9.2162 -2.0932 18.7204 7.8199 .6932
4 16 18.5839 4.6801 -.7932 18.6204 5.5199 -.7932 18.6839 6.9801 .6932 18.6839 6.9801 1.5069
4 16 18.5839 4.6801 -.7932 18.6839 6.9801 1.5069 18.6014 5.0838 2.0932 18.5463 3.8162 2.0932
4 16 18.6014 5.0838 2.9069 18.6014 5.0838 2.0932 18.6839 6.9801 1.5069 18.6291 5.7199 3.2932
4 16 18.6014 5.0838 2.9069 18.6291 5.7199 3.2932 18.5926 4.8801 3.2932 18.5463 3.8162 2.9069
4 16 18.6291 5.7199 3.2932 18.6839 6.9801 1.5069 18.7204 7.8199 1.5069 18.6291 5.7199 4.1069
4 16 18.6291 5.7199 4.1069 18.7204 7.8199 1.5069 18.742 8.3162 3.8932 18.742 8.3162 4.7069
4 16 18.6639 6.5199 7.5069 18.6639 6.5199 6.6932 18.742 8.3162 4.7069 18.8013 9.6801 6.3932
4 16 18.8013 9.6801 6.3932 18.742 8.3162 4.7069 18.7971 9.5838 4.7069 18.8378 10.5199 6.3932
3 16 18.6639 6.5199 7.5069 18.8013 9.6801 6.3932 18.8013 9.6801 7.2069
4 16 18.9152 12.9706 8.75 18.8378 10.5199 7.2069 18.8378 10.5199 6.3932 18.9369 13.4105 7.5803
4 16 18.8013 9.6801 7.2069 18.8378 10.5199 7.2069 18.9152 12.9706 8.75 18.6639 6.5199 7.5069
4 16 18.9536 13.7504 6.15 18.9369 13.4105 7.5803 18.8378 10.5199 6.3932 18.7971 9.5838 4.7069
4 16 18.9536 13.7504 6.15 18.7971 9.5838 4.7069 18.7971 9.5838 3.8932 18.8204 10.1199 3.1069
4 16 18.7839 9.2801 3.1069 18.8204 10.1199 3.1069 18.7971 9.5838 3.8932 18.742 8.3162 3.8932
4 16 18.7839 9.2801 2.2932 18.7839 9.2801 3.1069 18.742 8.3162 3.8932 18.7204 7.8199 1.5069
4 16 18.8204 10.1199 2.2932 18.7839 9.2801 2.2932 18.7204 7.8199 1.5069 18.8317 10.3801 .7069
3 16 18.7204 7.8199 .6932 18.8317 10.3801 .7069 18.7204 7.8199 1.5069
4 16 18.8204 10.1199 2.2932 18.8317 10.3801 .7069 18.8682 11.2199 .7069 18.8204 10.1199 3.1069
3 16 18.8682 11.2199 -.1069 18.9602 13.7498 2.2 18.8682 11.2199 .7069
4 16 18.8204 10.1199 3.1069 18.8682 11.2199 .7069 18.9602 13.7498 2.2 18.9536 13.7504 6.15
4 16 18.9602 13.7498 2.2 18.8682 11.2199 -.1069 18.8362 10.4838 -2.0932 18.9749 13.7491 -5.6
4 16 18.9783 13.75 -11.25 18.9749 13.7491 -5.6 18.9022 12 -5.75 18.9022 12 -11.25
4 16 18.6274 5.6801 7.5069 18.6639 6.5199 7.5069 18.9152 12.9706 8.75 18.3804 0 8.75
3 16 18.3804 0 8.75 18.5101 2.9838 6.9069 18.6274 5.6801 7.5069
4 16 18.7813 9.2199 -4.4069 18.7448 8.3801 -4.4069 18.6621 6.4793 -5.75 18.9022 12 -5.75
3 16 18.403 .5199 -8.0069 18.51 2.9801 -6.4069 18.403 .5199 -7.1932
3 16 18.3507 -.6838 -4.2932 18.423 .9801 -3.5069 18.423 .9801 -2.6932

0 // Rounded Front
4 191 13.9505 -5.3595 -6.7402 13.1869 -5.3595 -6.7402 13.1869 -4.23 -7.495 13.9505 -4.23 -7.495
4 191 11.668 4.927 -7.0293 10.888 4.927 -7.0293 10.8839 5.7084 -6.507 11.668 5.705 -6.5093
4 191 16.036 -2.824 -8.1884 16.036 -2.084 -8.3356 16.8196 -2.0801 -8.3364 16.816 -2.824 -8.1884
4 191 5.9001 -4.6779 -7.1957 5.116 -4.674 -7.1983 5.116 -3.564 -7.9403 5.896 -3.564 -7.9402
4 191 8.2565 0 -8.75 7.4935 0 -8.75 7.4935 1.0619 -8.5388 8.2565 1.0619 -8.5388
4 191 8.2565 -.105 -8.7291 7.4935 -.105 -8.7291 7.4935 0 -8.75 8.2565 0 -8.75
4 191 12.1935 1.9665 -8.3589 11.4135 1.9665 -8.3589 11.4094 2.6715 -8.2187 12.1976 2.6715 -8.2187
4 191 16.66 5.853 -6.4104 16.6641 5.1291 -6.8942 15.8779 5.131 -6.8929 15.88 5.853 -6.4104
4 191 4.6459 3.4641 -8.0071 4.648 4.206 -7.5112 5.428 4.206 -7.5112 5.428 3.466 -8.0058
4 70 14.3569 4.132 -7.5606 14.3569 5.242 -6.8188 15.1205 5.242 -6.8188 15.1205 4.132 -7.5606
4 70 8.236 5.4835 -6.6573 8.236 4.354 -7.4123 7.456 4.354 -7.4123 7.456 5.4835 -6.6573
4 70 14.358 -4.748 -7.1488 15.12 -4.748 -7.1488 15.12 -5.488 -6.6543 14.358 -5.488 -6.6543
4 70 7.7885 -4.822 -7.0993 7.7885 -5.562 -6.6048 6.9859 -5.5639 -6.6034 6.988 -4.822 -7.0994
4 70 8.975 -3.3488 -8.084 9.7591 -3.3488 -8.084 9.7591 -3.6029 -7.9142 8.9749 -3.6029 -7.9142
4 70 9.7591 -3.3488 -8.084 8.975 -3.3488 -8.084 8.9749 -2.8396 -8.1853 9.7591 -2.8396 -8.1853
4 70 13.248 -1.4725 -8.4572 13.2321 -2.2164 -8.3092 12.4459 -2.2339 -8.3058 12.448 -1.4725 -8.4572
4 70 5.662 -.16 -8.7182 5.6456 -.9234 -8.5664 4.8799 -.9214 -8.5668 4.882 -.16 -8.7182
4 70 16.0401 1.3239 -8.4867 16.036 .1711 -8.716 15.256 .1711 -8.716 15.256 1.32 -8.4875
4 70 9.562 .6696 -8.6168 8.782 .6696 -8.6168 8.782 1.4329 -8.465 9.562 1.4329 -8.465
4 16 18.6494 6.1871 -6.1871 2 6.187 -6.187 2 6.4793 -5.75 18.6621 6.4793 -5.75
4 16 5.116 -4.674 -7.1983 5.9001 -4.6779 -7.1957 6.988 -4.822 -7.0994 6.9859 -5.5639 -6.6034
4 16 8.9749 -3.6029 -7.9142 9.7591 -3.6029 -7.9142 7.7885 -5.562 -6.6048 7.7885 -4.822 -7.0993
4 16 18.526 3.3486 -8.0841 15.1205 4.132 -7.5606 15.8779 5.131 -6.8929 16.6641 5.1291 -6.8942
3 16 14.3569 4.132 -7.5606 15.1205 4.132 -7.5606 18.526 3.3486 -8.0841
4 16 5.428 3.466 -8.0058 5.428 4.206 -7.5112 7.456 5.4835 -6.6573 7.456 4.354 -7.4123
4 16 13.248 -1.4725 -8.4572 16.036 -2.084 -8.3356 16.036 -2.824 -8.1884 13.2321 -2.2164 -8.3092
4 16 14.358 -5.488 -6.6543 13.9505 -5.3595 -6.7402 13.9505 -4.23 -7.495 14.358 -4.748 -7.1488
4 16 14.3569 4.132 -7.5606 11.668 4.927 -7.0293 11.668 5.705 -6.5093 14.3569 5.242 -6.8188
4 16 18.2348 -3.3486 -8.0841 15.12 -4.748 -7.1488 14.358 -4.748 -7.1488 13.9505 -4.23 -7.495
4 16 10.888 4.927 -7.0293 11.668 4.927 -7.0293 14.3569 4.132 -7.5606 8.236 4.354 -7.4123
3 16 5.428 3.466 -8.0058 7.456 4.354 -7.4123 8.236 4.354 -7.4123
4 16 12.1976 2.6715 -8.2187 11.4094 2.6715 -8.2187 2 3.349 -8.084 18.526 3.3486 -8.0841
4 16 15.88 5.853 -6.4104 15.8779 5.131 -6.8929 15.1205 4.132 -7.5606 15.1205 5.242 -6.8188
4 16 15.1205 5.242 -6.8188 14.3569 5.242 -6.8188 11.668 5.705 -6.5093 15.88 5.853 -6.4104
4 16 7.7885 -4.822 -7.0993 6.988 -4.822 -7.0994 5.9001 -4.6779 -7.1957 5.896 -3.564 -7.9402
4 16 16.8196 -2.0801 -8.3364 16.036 -2.084 -8.3356 13.248 -1.4725 -8.4572 18.3804 0 -8.75
4 16 16.036 .1711 -8.716 16.0401 1.3239 -8.4867 18.526 3.3486 -8.0841 18.3804 0 -8.75
4 16 12.1976 2.6715 -8.2187 18.526 3.3486 -8.0841 16.0401 1.3239 -8.4867 15.256 1.32 -8.4875
4 16 9.7591 -3.3488 -8.084 13.1869 -4.23 -7.495 13.1869 -5.3595 -6.7402 9.7591 -3.6029 -7.9142
4 16 8.236 4.354 -7.4123 8.236 5.4835 -6.6573 10.8839 5.7084 -6.507 10.888 4.927 -7.0293
4 16 7.7885 -4.822 -7.0993 5.896 -3.564 -7.9402 8.975 -3.3488 -8.084 8.9749 -3.6029 -7.9142
4 16 14.3569 4.132 -7.5606 18.526 3.3486 -8.0841 5.428 3.466 -8.0058 8.236 4.354 -7.4123
4 16 5.662 -.16 -8.7182 4.882 -.16 -8.7182 2 0 -8.75 7.4935 0 -8.75
4 16 5.6456 -.9234 -8.5664 7.4935 -.105 -8.7291 8.2565 -.105 -8.7291 8.9749 -2.8396 -8.1853
4 16 12.448 -1.4725 -8.4572 12.4459 -2.2339 -8.3058 9.7591 -3.3488 -8.084 9.7591 -2.8396 -8.1853
4 16 8.9749 -2.8396 -8.1853 8.2565 -.105 -8.7291 8.2565 0 -8.75 9.7591 -2.8396 -8.1853
4 16 7.4935 0 -8.75 7.4935 -.105 -8.7291 5.6456 -.9234 -8.5664 5.662 -.16 -8.7182
3 16 8.2565 0 -8.75 8.782 .6696 -8.6168 9.562 .6696 -8.6168
3 16 8.2565 0 -8.75 12.448 -1.4725 -8.4572 9.7591 -2.8396 -8.1853
4 16 18.526 3.3486 -8.0841 2 3.349 -8.084 4.6459 3.4641 -8.0071 5.428 3.466 -8.0058
4 16 7.4935 0 -8.75 2 0 -8.75 2 3.349 -8.084 7.4935 1.0619 -8.5388
4 16 12.448 -1.4725 -8.4572 8.2565 0 -8.75 18.3804 0 -8.75 13.248 -1.4725 -8.4572
4 16 8.2565 0 -8.75 15.256 .1711 -8.716 16.036 .1711 -8.716 18.3804 0 -8.75
3 16 7.4935 1.0619 -8.5388 8.782 1.4329 -8.465 8.2565 1.0619 -8.5388
4 16 12.1935 1.9665 -8.3589 15.256 .1711 -8.716 8.2565 0 -8.75 9.562 .6696 -8.6168
4 16 15.256 .1711 -8.716 12.1935 1.9665 -8.3589 12.1976 2.6715 -8.2187 15.256 1.32 -8.4875
4 16 9.562 1.4329 -8.465 11.4135 1.9665 -8.3589 12.1935 1.9665 -8.3589 9.562 .6696 -8.6168
4 16 8.2565 0 -8.75 8.2565 1.0619 -8.5388 8.782 1.4329 -8.465 8.782 .6696 -8.6168
4 16 7.4935 1.0619 -8.5388 2 3.349 -8.084 11.4094 2.6715 -8.2187 8.782 1.4329 -8.465
4 16 11.4135 1.9665 -8.3589 9.562 1.4329 -8.465 8.782 1.4329 -8.465 11.4094 2.6715 -8.2187
4 16 8.236 5.4835 -6.6573 7.456 5.4835 -6.6573 2 6.187 -6.187 10.8839 5.7084 -6.507

4 16 18.6494 6.1871 -6.1871 18.526 3.3486 -8.0841 16.6641 5.1291 -6.8942 16.66 5.853 -6.4104
3 16 18.6494 6.1871 -6.1871 16.66 5.853 -6.4104 15.88 5.853 -6.4104
3 16 18.6494 6.1871 -6.1871 15.88 5.853 -6.4104 11.668 5.705 -6.5093
4 16 10.8839 5.7084 -6.507 2 6.187 -6.187 18.6494 6.1871 -6.1871 11.668 5.705 -6.5093
4 16 5.428 4.206 -7.5112 4.648 4.206 -7.5112 2 6.187 -6.187 7.456 5.4835 -6.6573
4 16 2 6.187 -6.187 4.648 4.206 -7.5112 4.6459 3.4641 -8.0071 2 3.349 -8.084
4 16 2 -3.349 -8.084 2 0 -8.75 4.882 -.16 -8.7182 4.8799 -.9214 -8.5668
4 16 4.8799 -.9214 -8.5668 5.6456 -.9234 -8.5664 8.9749 -2.8396 -8.1853 2 -3.349 -8.084
3 16 2 -3.349 -8.084 8.9749 -2.8396 -8.1853 8.975 -3.3488 -8.084
4 16 5.116 -3.564 -7.9403 2 -3.349 -8.084 8.975 -3.3488 -8.084 5.896 -3.564 -7.9402
4 16 5.116 -3.564 -7.9403 5.116 -4.674 -7.1983 2 -6.187 -6.187 2 -3.349 -8.084
3 16 2 -6.187 -6.187 5.116 -4.674 -7.1983 6.9859 -5.5639 -6.6034
3 16 2 -6.187 -6.187 6.9859 -5.5639 -6.6034 7.7885 -5.562 -6.6048
3 16 7.7885 -5.562 -6.6048 9.7591 -3.6029 -7.9142 13.1869 -5.3595 -6.7402
4 16 13.9505 -5.3595 -6.7402 14.358 -5.488 -6.6543 7.7885 -5.562 -6.6048 13.1869 -5.3595 -6.7402
4 16 14.358 -5.488 -6.6543 18.1114 -6.1871 -6.1871 2 -6.187 -6.187 7.7885 -5.562 -6.6048
3 16 18.1114 -6.1871 -6.1871 14.358 -5.488 -6.6543 15.12 -5.488 -6.6543
4 16 15.12 -5.488 -6.6543 15.12 -4.748 -7.1488 18.2348 -3.3486 -8.0841 18.1114 -6.1871 -6.1871
4 16 13.1869 -4.23 -7.495 9.7591 -3.3488 -8.084 18.2348 -3.3486 -8.0841 13.9505 -4.23 -7.495
4 16 16.036 -2.824 -8.1884 9.7591 -3.3488 -8.084 12.4459 -2.2339 -8.3058 13.2321 -2.2164 -8.3092
4 16 9.7591 -3.3488 -8.084 16.036 -2.824 -8.1884 16.816 -2.824 -8.1884 18.2348 -3.3486 -8.0841
4 16 16.816 -2.824 -8.1884 16.8196 -2.0801 -8.3364 18.3804 0 -8.75 18.2348 -3.3486 -8.0841
