0 ~_Plate  2 x  6 White (Obsolete)
0 Name: 379501.dat
0 Author: Michael Heidemann [mikeheide]
0 !LDRAW_ORG Part Physical_Colour UPDATE 2019-02
0 !LICENSE Licensed under CC BY 4.0 : see CAreadme.txt

0 BFC CERTIFY CCW

0 !HISTORY 2010-12-31 [PTadmin] Official Update 2010-03
0 !HISTORY 2019-07-23 [Holly-Wood] Obsoleted per decision not to include physical colour parts
0 !HISTORY 2019-09-09 [PTadmin] Official Update 2019-02


0 // This file is a "shortcut" with the correct number for the actual
0 // colouring of the part (White).

1 15 0 0 0 1 0 0 0 1 0 0 0 1 3795.dat
