0 Sticker  3.8 x  1.6 with Yellow Nuts on Black Background
0 Name: 4297014h.dat
0 Author: Magnus Forsberg [MagFors]
0 !LDRAW_ORG Part UPDATE 2020-02
0 !LICENSE Licensed under CC BY 4.0 : see CAreadme.txt

0 BFC CERTIFY CCW

0 !KEYWORDS Batman

0 !HISTORY 2020-09-05 [PTadmin] Official Update 2020-02


0 // Small box

1 16 0 -0.25 0 16 0 0 0 0.25 0 0 0 38 box5-12.dat

0 // Sector1
1 16 11 -0.25 33 0 0 1 0 1 0 -1 0 0 s\4297014hs01.dat
1 16 0 -0.25 33 0 0 1 0 1 0 -1 0 0 s\4297014hs01.dat
1 16 -11 -0.25 33 0 0 1 0 1 0 -1 0 0 s\4297014hs01.dat
0 // Black
3 0 13 -0.25 24 13 -0.25 20 16 -0.25 22
4 0 9 -0.25 24 13 -0.25 24 13 -0.25 31 9 -0.25 31
4 0 16 -0.25 38 13 -0.25 31 13 -0.25 24 16 -0.25 22
4 0 9 -0.25 31 9 -0.25 35 2 -0.25 35 2 -0.25 31
4 0 -2 -0.25 31 -2 -0.25 35 -9 -0.25 35 -9 -0.25 31
3 0 -13 -0.25 35 -16 -0.25 38 -13 -0.25 31
3 0 13 -0.25 35 13 -0.25 31 16 -0.25 38
4 0 -9 -0.25 20 9 -0.25 20 9 -0.25 24 -9 -0.25 24
3 0 2 -0.25 31 9 -0.25 24 9 -0.25 31
4 0 -9 -0.25 24 9 -0.25 24 2 -0.25 31 -2 -0.25 31
3 0 -2 -0.25 31 -9 -0.25 31 -9 -0.25 24
4 0 -9 -0.25 24 -9 -0.25 31 -13 -0.25 31 -13 -0.25 24
4 0 -16 -0.25 38 -16 -0.25 22 -13 -0.25 24 -13 -0.25 31
3 0 16 -0.25 38 9 -0.25 35 13 -0.25 35
3 0 16 -0.25 38 2 -0.25 35 9 -0.25 35
4 0 -16 -0.25 38 -2 -0.25 35 2 -0.25 35 16 -0.25 38
3 0 -16 -0.25 38 -9 -0.25 35 -2 -0.25 35
3 0 -16 -0.25 38 -13 -0.25 35 -9 -0.25 35

0 // Sector2
1 16 11 -0.25 11 0 0 1 0 1 0 -1 0 0 s\4297014hs01.dat
1 16 -11 -0.25 11 0 0 1 0 1 0 -1 0 0 s\4297014hs01.dat
1 16 11 -0.25 22 0 0 1 0 1 0 -1 0 0 s\4297014hs01.dat
1 16 -11 -0.25 22 0 0 1 0 1 0 -1 0 0 s\4297014hs01.dat
0 // Black
3 0 -13 -0.25 20 -13 -0.25 24 -16 -0.25 22
4 0 9 -0.25 20 9 -0.25 13 13 -0.25 13 13 -0.25 20
3 0 13 -0.25 13 16 -0.25 22 13 -0.25 20
4 0 -9 -0.25 20 -13 -0.25 20 -13 -0.25 13 -9 -0.25 13
3 0 -13 -0.25 13 -13 -0.25 20 -16 -0.25 22
4 0 9 -0.25 20 -9 -0.25 20 -9 -0.25 13 9 -0.25 13
4 0 9 -0.25 13 -9 -0.25 13 -9 -0.25 9 9 -0.25 9
4 0 -13 -0.25 9 -13 -0.25 13 -16 -0.25 22 -16 -0.25 0
4 0 -9 -0.25 2 -9 -0.25 9 -13 -0.25 9 -13 -0.25 2
3 0 -16 -0.25 0 -13 -0.25 2 -13 -0.25 9
4 0 9 -0.25 9 -9 -0.25 9 -9 -0.25 2 9 -0.25 2
4 0 9 -0.25 2 13 -0.25 2 13 -0.25 9 9 -0.25 9
3 0 16 -0.25 0 13 -0.25 9 13 -0.25 2
4 0 13 -0.25 13 13 -0.25 9 16 -0.25 0 16 -0.25 22

0 // Sector3
1 16 11 -0.25 0 0 0 1 0 1 0 -1 0 0 s\4297014hs01.dat
1 16 -11 -0.25 0 0 0 1 0 1 0 -1 0 0 s\4297014hs01.dat
1 16 11 -0.25 -11 0 0 1 0 1 0 -1 0 0 s\4297014hs01.dat
1 16 -11 -0.25 -11 0 0 1 0 1 0 -1 0 0 s\4297014hs01.dat
0 // Black
4 0 9 -0.25 -9 -9 -0.25 -9 -9 -0.25 -13 9 -0.25 -13
3 0 16 -0.25 -22 13 -0.25 -13 13 -0.25 -20
4 0 13 -0.25 -13 9 -0.25 -13 9 -0.25 -20 13 -0.25 -20
4 0 9 -0.25 -13 -9 -0.25 -13 -9 -0.25 -20 9 -0.25 -20
4 0 -9 -0.25 -20 -9 -0.25 -13 -13 -0.25 -13 -13 -0.25 -20
3 0 -13 -0.25 -13 -16 -0.25 -22 -13 -0.25 -20
3 0 -16 -0.25 0 -13 -0.25 -2 -13 -0.25 2
3 0 -13 -0.25 -2 -16 -0.25 0 -13 -0.25 -9
4 0 -13 -0.25 -13 -13 -0.25 -9 -16 -0.25 0 -16 -0.25 -22
4 0 -9 -0.25 -9 -9 -0.25 -2 -13 -0.25 -2 -13 -0.25 -9
4 0 9 -0.25 -9 9 -0.25 -2 -9 -0.25 -2 -9 -0.25 -9
4 0 13 -0.25 -2 9 -0.25 -2 9 -0.25 -9 13 -0.25 -9
3 0 16 -0.25 0 13 -0.25 -2 13 -0.25 -9
3 0 13 -0.25 -2 16 -0.25 0 13 -0.25 2
4 0 13 -0.25 -13 16 -0.25 -22 16 -0.25 0 13 -0.25 -9
4 0 -9 -0.25 -2 9 -0.25 -2 9 -0.25 2 -9 -0.25 2

0 // Sector4
1 16 11 -0.25 -22 0 0 1 0 1 0 -1 0 0 s\4297014hs01.dat
1 16 11 -0.25 -33 0 0 1 0 1 0 -1 0 0 s\4297014hs01.dat
1 16 0 -0.25 -33 0 0 1 0 1 0 -1 0 0 s\4297014hs01.dat
1 16 -11 -0.25 -22 0 0 1 0 1 0 -1 0 0 s\4297014hs01.dat
1 16 -11 -0.25 -33 0 0 1 0 1 0 -1 0 0 s\4297014hs01.dat
0 // Black
4 0 -2 -0.25 -35 -16 -0.25 -38 16 -0.25 -38 2 -0.25 -35
3 0 -16 -0.25 -38 -9 -0.25 -35 -13 -0.25 -35
3 0 -16 -0.25 -38 -2 -0.25 -35 -9 -0.25 -35
3 0 2 -0.25 -35 16 -0.25 -38 9 -0.25 -35
3 0 9 -0.25 -35 16 -0.25 -38 13 -0.25 -35
4 0 13 -0.25 -31 13 -0.25 -24 9 -0.25 -24 9 -0.25 -31
4 0 9 -0.25 -35 9 -0.25 -31 2 -0.25 -31 2 -0.25 -35
4 0 -2 -0.25 -35 -2 -0.25 -31 -9 -0.25 -31 -9 -0.25 -35
4 0 -9 -0.25 -31 -9 -0.25 -24 -13 -0.25 -24 -13 -0.25 -31
3 0 13 -0.25 -31 13 -0.25 -35 16 -0.25 -38
4 0 13 -0.25 -31 16 -0.25 -38 16 -0.25 -22 13 -0.25 -24
3 0 13 -0.25 -20 13 -0.25 -24 16 -0.25 -22
3 0 -13 -0.25 -31 -16 -0.25 -38 -13 -0.25 -35
4 0 -13 -0.25 -31 -13 -0.25 -24 -16 -0.25 -22 -16 -0.25 -38
3 0 -13 -0.25 -20 -16 -0.25 -22 -13 -0.25 -24
4 0 -9 -0.25 -20 -9 -0.25 -24 9 -0.25 -24 9 -0.25 -20
3 0 2 -0.25 -31 9 -0.25 -31 9 -0.25 -24
4 0 2 -0.25 -31 9 -0.25 -24 -9 -0.25 -24 -2 -0.25 -31
3 0 -9 -0.25 -31 -2 -0.25 -31 -9 -0.25 -24
