0 Wheel Rim  8 x 18 with Deep Centre Groove and Axle Hole
0 Name: 56903.dat
0 Author: Philippe Hurbain [Philo]
0 !LDRAW_ORG Part UPDATE 2024-02
0 !LICENSE Licensed under CC BY 4.0 : see CAreadme.txt

0 BFC CERTIFY CW

0 !HISTORY 2015-10-11 [PTadmin] Official Update 2015-01
0 !HISTORY 2024-03-23 [OrionP] Updated ring primitives
0 !HISTORY 2024-03-24 [OrionP] Official Update 2024-02

0 // Nomenclature: width_(mm) x rim_diameter_(mm) [optional qualifier]

1 16 0 0 -9 21 0 0 0 0 -21 0 1 0 4-4edge.dat
1 16 0 0 -4 21 0 0 0 0 -21 0 1 0 4-4edge.dat
1 16 0 0 4 21 0 0 0 0 -21 0 1 0 4-4edge.dat
1 16 0 0 4 21 0 0 0 0 -21 0 5 0 4-4cyli.dat
1 16 0 0 2 12 0 0 0 0 -12 0 1 0 4-4edge.dat
1 16 0 0 -3 6 0 0 0 0 -6 0 1 0 4-4con2.dat
1 16 0 0 -4 3 0 0 0 0 -3 0 1 0 4-4con6.dat
1 16 0 0 3 -6 0 0 0 0 -6 0 -1 0 4-4con2.dat
1 16 0 0 4 -3 0 0 0 0 -3 0 -1 0 4-4con6.dat
1 16 0 0 -2 12 0 0 0 0 -12 0 1 0 4-4edge.dat
1 16 0 0 -2 12 0 0 0 0 -12 0 4 0 4-4cyli.dat
1 16 0 0 9 21 0 0 0 0 -21 0 1 0 4-4edge.dat
1 16 0 0 -9 21 0 0 0 0 -21 0 5 0 4-4cyli.dat
1 16 0 0 -8 19 0 0 0 0 -19 0 1 0 4-4edge.dat
1 16 0 0 -9 20 0 0 0 0 -20 0 1 0 4-4edge.dat
1 16 0 0 7 19 0 0 0 0 -19 0 1 0 4-4edge.dat
1 16 0 0 9 19 0 0 0 0 -19 0 1 0 4-4edge.dat
1 16 0 0 -9 1 0 0 0 0 -1 0 1 0 4-4ring20.dat
0 BFC INVERTNEXT
1 16 0 0 -9 1 0 0 0 0 -1 0 1 0 4-4con19.dat
1 16 0 0 9 1 0 0 0 0 1 0 -1 0 4-4ring20.dat
1 16 0 0 9 1 0 0 0 0 1 0 -1 0 4-4ring19.dat
0 BFC INVERTNEXT
1 16 0 0 -8 19 0 0 0 0 -19 0 1 0 4-4cyli.dat
0 BFC INVERTNEXT
1 16 0 0 7 19 0 0 0 0 -19 0 2 0 4-4cyli.dat
1 16 0 0 -7 19 0 0 0 0 -19 0 1 0 4-4edge.dat
1 16 0 0 7 5 0 0 0 0 5 0 -1 0 4-4ring2.dat
1 16 0 0 7 3 0 0 0 0 3 0 -1 0 4-4ring5.dat
1 16 0 0 7 1 0 0 0 0 1 0 -1 0 4-4ring18.dat
1 16 0 0 -10 10 0 0 0 0 -10 0 1 0 4-4edge.dat
1 16 0 0 -7 10 0 0 0 0 -10 0 1 0 4-4edge.dat
1 16 0 0 -10 10 0 0 0 0 -10 0 3 0 4-4cyli.dat
1 16 0 0 7 10 0 0 0 0 -10 0 3 0 4-4cyli.dat
1 16 0 0 10 10 0 0 0 0 -10 0 1 0 4-4edge.dat
1 16 0 0 7 10 0 0 0 0 -10 0 1 0 4-4edge.dat
1 16 0 0 10 2 0 0 0 0 2 0 -1 0 4-4ring4.dat
1 16 0 0 10 2 0 0 0 0 2 0 -1 0 4-4ring3.dat
1 16 0 0 -10 2 0 0 0 0 -2 0 1 0 4-4ring4.dat
1 16 0 0 -10 2 0 0 0 0 -2 0 1 0 4-4ring3.dat
1 16 0 0 7 1 0 0 0 1 0 0 0 0.6 s\55981s02.dat
1 16 0 0 7 0 -1 0 -1 0 0 0 0 0.6 s\55981s02.dat
1 16 0 0 7 -1 0 0 0 -1 0 0 0 0.6 s\55981s02.dat
1 16 0 0 7 0 1 0 1 0 0 0 0 0.6 s\55981s02.dat
1 16 0 0 -7 1 0 0 0 1 0 0 0 0.25 s\55981s01.dat
1 16 0 0 -7 -1 0 0 0 -1 0 0 0 0.25 s\55981s01.dat
1 16 0 0 -10 1 0 0 0 0 1 0 20 0 axl3hole.dat
5 24 16.6302 -6.8886 -3 18 0 -3 11.0868 -4.5924 -2 19.4019 -8.0367 -4
5 24 12.7278 -12.7278 -3 16.6302 -6.8886 -3 8.4852 -8.4852 -2 14.8491 -14.8491 -4
5 24 6.8886 -16.6302 -3 12.7278 -12.7278 -3 4.5924 -11.0868 -2 8.0367 -19.4019 -4
5 24 0 -18 -3 6.8886 -16.6302 -3 0 -12 -2 0 -21 -4
5 24 -6.8886 -16.6302 -3 0 -18 -3 -4.5924 -11.0868 -2 -8.0367 -19.4019 -4
5 24 -12.7278 -12.7278 -3 -6.8886 -16.6302 -3 -8.4852 -8.4852 -2 -14.8491 -14.8491 -4
5 24 -16.6302 -6.8886 -3 -12.7278 -12.7278 -3 -11.0868 -4.5924 -2 -19.4019 -8.0367 -4
5 24 -18 0 -3 -16.6302 -6.8886 -3 -12 0 -2 -21 0 -4
5 24 -16.6302 6.8886 -3 -18 0 -3 -11.0868 4.5924 -2 -19.4019 8.0367 -4
5 24 -12.7278 12.7278 -3 -16.6302 6.8886 -3 -8.4852 8.4852 -2 -14.8491 14.8491 -4
5 24 -6.8886 16.6302 -3 -12.7278 12.7278 -3 -4.5924 11.0868 -2 -8.0367 19.4019 -4
5 24 0 18 -3 -6.8886 16.6302 -3 0 12 -2 0 21 -4
5 24 6.8886 16.6302 -3 0 18 -3 4.5924 11.0868 -2 8.0367 19.4019 -4
5 24 12.7278 12.7278 -3 6.8886 16.6302 -3 8.4852 8.4852 -2 14.8491 14.8491 -4
5 24 16.6302 6.8886 -3 12.7278 12.7278 -3 11.0868 4.5924 -2 19.4019 8.0367 -4
5 24 18 0 -3 16.6302 6.8886 -3 12 0 -2 21 0 -4
5 24 -16.6302 -6.8886 3 -18 0 3 -11.0868 -4.5924 2 -19.4019 -8.0367 4
5 24 -12.7278 -12.7278 3 -16.6302 -6.8886 3 -8.4852 -8.4852 2 -14.8491 -14.8491 4
5 24 -6.8886 -16.6302 3 -12.7278 -12.7278 3 -4.5924 -11.0868 2 -8.0367 -19.4019 4
5 24 0 -18 3 -6.8886 -16.6302 3 0 -12 2 0 -21 4
5 24 6.8886 -16.6302 3 0 -18 3 4.5924 -11.0868 2 8.0367 -19.4019 4
5 24 12.7278 -12.7278 3 6.8886 -16.6302 3 8.4852 -8.4852 2 14.8491 -14.8491 4
5 24 16.6302 -6.8886 3 12.7278 -12.7278 3 11.0868 -4.5924 2 19.4019 -8.0367 4
5 24 18 0 3 16.6302 -6.8886 3 12 0 2 21 0 4
5 24 16.6302 6.8886 3 18 0 3 11.0868 4.5924 2 19.4019 8.0367 4
5 24 12.7278 12.7278 3 16.6302 6.8886 3 8.4852 8.4852 2 14.8491 14.8491 4
5 24 6.8886 16.6302 3 12.7278 12.7278 3 4.5924 11.0868 2 8.0367 19.4019 4
5 24 0 18 3 6.8886 16.6302 3 0 12 2 0 21 4
5 24 -6.8886 16.6302 3 0 18 3 -4.5924 11.0868 2 -8.0367 19.4019 4
5 24 -12.7278 12.7278 3 -6.8886 16.6302 3 -8.4852 8.4852 2 -14.8491 14.8491 4
5 24 -16.6302 6.8886 3 -12.7278 12.7278 3 -11.0868 4.5924 2 -19.4019 8.0367 4
5 24 -18 0 3 -16.6302 6.8886 3 -12 0 2 -21 0 4
