0 Technic Competition Cannon with Flat Bottom with Short Trigger (Unloaded)
0 Name: 57796bc01.dat
0 Author: Gerald Lasser [GeraldLasser]
0 !LDRAW_ORG Shortcut UPDATE 2024-08
0 !LICENSE Licensed under CC BY 4.0 : see CAreadme.txt

0 BFC CERTIFY CCW

0 !HISTORY 2024-09-30 [OrionP] Official Update 2024-08

1 16 0 0 0 1 0 0 0 1 0 0 0 1 57029bc01.dat
1 494 0 -26 25.5 0 0 1 -1 0 0 0 -1 0 71830-f1.dat
1 16 0 -19 37 1 0 0 0 1 0 0 0 1 61280.dat
