0 Sticker  2.0 x  2.5 with Medium Azure Schematic Circles and Lines - Right Angle
0 Name: 6124787d.dat
0 Author: Evert-Jan Boer [ejboer]
0 !LDRAW_ORG Part UPDATE 2022-03
0 !LICENSE Licensed under CC BY 4.0 : see CAreadme.txt

0 BFC CERTIFY CCW

0 !KEYWORDS Dimensions, Set 71200

0 !HISTORY 2022-05-07 [PTadmin] Official Update 2022-03


1 16 0 0 0 -1 0 0 0 1 0 0 0 1 6124787c.dat
