0 Sticker  1 x  1.8 with Grey "GT" Text on Black Background
0 Name: 6141955t.dat
0 Author: Massimo Maso [Sirio]
0 !LDRAW_ORG Part UPDATE 2024-07
0 !LICENSE Licensed under CC BY 4.0 : see CAreadme.txt

0 BFC CERTIFY CCW

0 !KEYWORDS Ford, Mustang, Set 75871, Speed Champions

0 !HISTORY 2024-08-26 [OrionP] Official Update 2024-07


0 // Subparts
1 7 0 -.25 0 .14 0 0 0 1 0 0 0 .14 s\logofordt02.dat
1 0 0 -.25 0 .14 0 0 0 1 0 0 0 .14 s\logofordb04.dat
0 // Primitives
1 16 -16.5 0 7.7732 -1.5 0 0 0 -1 0 0 0 1.5 1-4chrd.dat
1 16 16.5 0 7.7732 1.5 0 0 0 -1 0 0 0 1.5 1-4chrd.dat
1 16 0 -.25 0 0 0 18 0 .25 0 7.7732 0 0 box3u12.dat
1 16 -16.5 0 -7.7732 -1.5 0 0 0 -1 0 0 0 -1.5 1-4chrd.dat
1 16 16.5 0 -7.7732 1.5 0 0 0 -1 0 0 0 -1.5 1-4chrd.dat
1 16 -16.5 0 7.7732 -1.5 0 0 0 -.25 0 0 0 1.5 1-4cyli.dat
1 16 16.5 0 7.7732 1.5 0 0 0 -.25 0 0 0 1.5 1-4cyli.dat
1 16 -16.5 0 -7.7732 -1.5 0 0 0 -.25 0 0 0 -1.5 1-4cyli.dat
1 16 16.5 0 -7.7732 1.5 0 0 0 -.25 0 0 0 -1.5 1-4cyli.dat
1 0 -16.5 -.25 7.7732 -1.5 0 0 0 1 0 0 0 1.5 1-4chrd.dat
1 0 16.5 -.25 7.7732 1.5 0 0 0 1 0 0 0 1.5 1-4chrd.dat
1 0 -16.5 -.25 -7.7732 -1.5 0 0 0 1 0 0 0 -1.5 1-4chrd.dat
1 0 16.5 -.25 -7.7732 1.5 0 0 0 1 0 0 0 -1.5 1-4chrd.dat
0 // Bottom face
4 16 16.5 0 9.2732 18 0 7.7732 -18 0 7.7732 -16.5 0 9.2732
4 16 18 0 -7.7732 16.5 0 -9.2732 -16.5 0 -9.2732 -18 0 -7.7732
0 // Lateral face
4 16 -16.5 0 9.2732 -16.5 -.25 9.2732 16.5 -.25 9.2732 16.5 0 9.2732
4 16 -16.5 0 -9.2732 16.5 0 -9.2732 16.5 -.25 -9.2732 -16.5 -.25 -9.2732
0 // Top face
4 0 -16.5 -.25 9.2732 -18 -.25 7.7732 -7 -.25 .77 -7 -.25 1.925
3 0 -16.5 -.25 9.2732 -7 -.25 1.925 -5.845 -.25 1.925
4 0 -16.5 -.25 9.2732 -5.845 -.25 1.925 7 -.25 1.925 16.5 -.25 9.2732
4 0 18 -.25 7.7732 16.5 -.25 9.2732 7 -.25 1.925 7 -.25 .77
4 0 18 -.25 7.7732 7 -.25 .77 7 -.25 -1.925 18 -.25 -7.7732
4 0 -18 -.25 -7.7732 -7 -.25 -.77 -7 -.25 .77 -18 -.25 7.7732
4 0 -18 -.25 -7.7732 -16.5 -.25 -9.2732 -7 -.25 -1.925 -7 -.25 -.77
3 0 -16.5 -.25 -9.2732 -5.845 -.25 -1.925 -7 -.25 -1.925
3 0 -16.5 -.25 -9.2732 -.7385 -.25 -1.925 -5.845 -.25 -1.925
4 0 -16.5 -.25 -9.2732 16.5 -.25 -9.2732 -.2765 -.25 -1.925 -.7385 -.25 -1.925
3 0 16.5 -.25 -9.2732 2.4185 -.25 -1.925 -.2765 -.25 -1.925
3 0 16.5 -.25 -9.2732 4.1125 -.25 -1.925 2.4185 -.25 -1.925
4 0 16.5 -.25 -9.2732 18 -.25 -7.7732 7 -.25 -1.925 4.1125 -.25 -1.925
