0 Slope 10 x  2 x  2 Curved with Rounded Corner - Left
0 Name: 77180.dat
0 Author: Ulrich Röder [UR]
0 !LDRAW_ORG Part UPDATE 2023-05
0 !LICENSE Licensed under CC BY 4.0 : see CAreadme.txt

0 BFC CERTIFY CCW

0 !KEYWORDS Car, Porsche, Set 10295

0 !HISTORY 2023-10-31 [OrionP] Official Update 2023-05


1 16 0 0 0 0 0 1 0 1 0 -1 0 0 stud.dat
1 16 0 0 0 -1 0 0 0 1 0 0 0 1 s\77182s02.dat
1 16 0 0 0 -1 0 0 0 1 0 0 0 1 s\77182s01.dat
