0 Minifig Torso with Police Badge and Four Buttons Sticker
0 Name: 973d0b.dat
0 Author: Takeshi Takahashi [RainbowDolphin]
0 !LDRAW_ORG Shortcut UPDATE 2024-05
0 !LICENSE Licensed under CC BY 4.0 : see CAreadme.txt

0 BFC CERTIFY CCW

0 !CATEGORY Sticker Shortcut
0 !KEYWORDS Bricklink 973pb0387, Set 1589-1

0 !HISTORY 2024-06-30 [OrionP] Official Update 2024-05

1 16 0 0 0 1 0 0 0 1 0 0 0 1 973.dat
1 15 0 16 -10 1 0 0 0 0 -1 0 1 0 003497j.dat
