0 ~Moved to u9363p01
0 Name: u9363.dat
0 Author: [PTadmin]
0 !LDRAW_ORG Part UPDATE 2024-03
0 !LICENSE Licensed under CC BY 4.0 : see CAreadme.txt

0 BFC CERTIFY CCW

0 !HISTORY 2024-04-28 [OrionP] Official Update 2024-03


0 // Electric Powered Up Angular Motor Drive Hub
1 16 0 0 0 1 0 0 0 1 0 0 0 1 u9363p01.dat
