0 Ring  3 x 0.0625
0 Name: 1-16ring3.dat
0 Author: Steve Bliss [sbliss]
0 !LDRAW_ORG Primitive UPDATE 2024-02
0 !LICENSE Licensed under CC BY 4.0 : see CAreadme.txt

0 BFC CERTIFY CCW

0 !HISTORY 2009-05-02 [PTadmin] Official Update 2009-01
0 !HISTORY 2024-03-23 [OrionP] Moved from 1-16rin3.dat
0 !HISTORY 2024-03-24 [OrionP] Official Update 2024-02

4 16 3 0 0 4 0 0 3.6956 0 1.5308 2.7717 0 1.1481
0

