0 Triangular Prism with 3 Adjacent Faces without 3 Edges
0 Name: tri3a3.dat
0 Author: Donald Sutter [technog]
0 !LDRAW_ORG Primitive UPDATE 2022-04
0 !LICENSE Licensed under CC BY 4.0 : see CAreadme.txt

0 BFC CERTIFY CCW

0 !HISTORY 2022-07-18 [PTadmin] Official Update 2022-04


2 24 1 1 0 0 1 1
2 24 0 1 1 0 1 0
2 24 0 1 0 1 1 0
2 24 1 0 0 1 1 0
2 24 0 0 1 0 1 1
2 24 0 0 0 0 1 0
4 16 0 1 1 0 1 0 0 0 0 0 0 1
4 16 0 1 0 1 1 0 1 0 0 0 0 0
3 16 0 1 0 0 1 1 1 1 0
