0 ~Sticker  1.1 x  1.9 with Number "1" - Background
0 Name: s\004452bs02.dat
0 Author: Takeshi Takahashi [RainbowDolphin]
0 !LDRAW_ORG Subpart UPDATE 2022-04
0 !LICENSE Licensed under CC BY 4.0 : see CAreadme.txt

0 BFC CERTIFY CCW

0 !HISTORY 2022-07-18 [PTadmin] Official Update 2022-04


4 16 -19 -.25 11 -.42 -.25 9.27 2.56 -.25 9.27 19 -.25 11
4 16 -.85 -.25 7.76 -.42 -.25 9.27 -19 -.25 11 -1.73 -.25 6.75
4 16 -3.18 -.25 6.18 -1.73 -.25 6.75 -19 -.25 11 -5.28 -.25 5.99
3 16 -19 -.25 11 -5.57 -.25 5.99 -5.28 -.25 5.99
4 16 -5.57 -.25 3.38 -5.57 -.25 5.99 -19 -.25 11 -19 -.25 -11
4 16 -1.12 -.25 3.38 -5.57 -.25 3.38 -19 -.25 -11 -1.12 -.25 -9.37
4 16 2.56 -.25 -9.37 -1.12 -.25 -9.37 -19 -.25 -11 19 -.25 -11
4 16 2.56 -.25 9.27 2.56 -.25 -9.37 19 -.25 -11 19 -.25 11
