0 ~Magenta and Bright Pink Life Preserver with Curved Bands Pattern for Tile  2 x  2 Round Common
0 Name: s\14769p03s01.dat
0 Author: Takeshi Takahashi [RainbowDolphin]
0 !LDRAW_ORG Subpart UPDATE 2020-03
0 !LICENSE Licensed under CC BY 4.0 : see CAreadme.txt

0 BFC CERTIFY CCW

0 !HISTORY 2014-12-23 [Philo] Original Pattern for 14769p03
0 !HISTORY 2020-09-16 [RainbowDolphin] Subfiled for common use of 4150p08 and 14769p03, and added 4-4ering for prim substitution
0 !HISTORY 2020-12-29 [PTadmin] Official Update 2020-03


1 16 0 0 0 20 0 0 0 1 0 0 0 20 4-4ering.dat
4 26 -17.6593 0 0 -17.32 0 3.4452 -18.5339 0 3.6866 -18.897 0 0
4 26 -17.32 0 -3.4452 -17.6593 0 0 -18.897 0 0 -18.5339 0 -3.6866
4 26 -16.315 0 -6.7579 -17.32 0 -3.4452 -18.5339 0 -3.6866 -17.4585 0 -7.2316
4 26 -9.811 0 -14.6832 -13.3622 0 -13.3622 -10.4986 0 -15.7123 -6.7579 0 -16.315
4 26 -6.7579 0 -16.315 -10.4986 0 -15.7123 -7.2316 0 -17.4585 -3.4452 0 -17.32
4 26 -3.4452 0 -17.32 -7.2316 0 -17.4585 -3.6866 0 -18.5339 0 0 -17.6593
4 26 0 0 -17.6593 -3.6866 0 -18.5339 0 0 -18.897 3.4452 0 -17.32
4 26 3.4452 0 -17.32 0 0 -18.897 3.6866 0 -18.5339 6.7579 0 -16.315
4 26 6.7579 0 -16.315 3.6866 0 -18.5339 7.2316 0 -17.4585 9.811 0 -14.6832
4 26 9.811 0 -14.6832 7.2316 0 -17.4585 10.4986 0 -15.7123 10.9 0 -13.8
4 26 16.315 0 -6.7579 15.7123 0 -10.4986 17.4585 0 -7.2316 17.32 0 -3.4452
4 26 17.32 0 -3.4452 17.4585 0 -7.2316 18.5339 0 -3.6866 17.6593 0 0
4 26 17.6593 0 0 18.5339 0 -3.6866 18.897 0 0 17.32 0 3.4452
4 26 17.32 0 3.4452 18.897 0 0 18.5339 0 3.6866 16.315 0 6.7579
4 26 16.315 0 6.7579 18.5339 0 3.6866 17.4585 0 7.2316 14.6832 0 9.811
4 26 14.6832 0 9.811 17.4585 0 7.2316 15.7123 0 10.4986 13.8 0 10.9
4 26 6.7579 0 16.315 10.4986 0 15.7123 7.2316 0 17.4585 3.4452 0 17.32
4 26 3.4452 0 17.32 7.2316 0 17.4585 3.6866 0 18.5339 0 0 17.6593
4 26 0 0 17.6593 3.6866 0 18.5339 0 0 18.897 -3.4452 0 17.32
4 26 -3.4452 0 17.32 0 0 18.897 -3.6866 0 18.5339 -6.7579 0 16.315
4 26 -6.7579 0 16.315 -3.6866 0 18.5339 -7.2316 0 17.4585 -8.4 0 15.4
4 26 -14.6832 0 9.811 -13.3622 0 13.3622 -15.7123 0 10.4986 -16.315 0 6.7579
4 26 -16.315 0 6.7579 -15.7123 0 10.4986 -17.4585 0 7.2316 -17.32 0 3.4452
3 26 -17.4585 0 7.2316 -18.5339 0 3.6866 -17.32 0 3.4452
4 26 -8.1487 0 0 -7.9921 0 1.5897 -9.2106 0 1.8321 -9.391 0 0
4 26 -7.9921 0 -1.5897 -8.1487 0 0 -9.391 0 0 -9.2106 0 -1.8321
4 26 -7.5284 0 -3.1184 -7.9921 0 -1.5897 -9.2106 0 -1.8321 -8.6762 0 -3.5938
4 26 -6.7754 0 -4.5272 -7.5284 0 -3.1184 -8.6762 0 -3.5938 -6 0 -7.1
4 26 -3.1184 0 -7.5284 -4.5272 0 -6.7754 -5.2174 0 -7.8083 -3.5938 0 -8.6762
4 26 -1.5897 0 -7.9921 -3.1184 0 -7.5284 -3.5938 0 -8.6762 -1.8321 0 -9.2106
4 26 0 0 -8.1487 -1.5897 0 -7.9921 -1.8321 0 -9.2106 0 0 -9.391
4 26 1.5897 0 -7.9921 0 0 -8.1487 0 0 -9.391 1.8321 0 -9.2106
4 26 3.1184 0 -7.5284 1.5897 0 -7.9921 1.8321 0 -9.2106 3.5938 0 -8.6762
4 26 4.5272 0 -6.7754 3.1184 0 -7.5284 3.5938 0 -8.6762 5.2174 0 -7.8083
4 26 5.762 0 -5.762 4.5272 0 -6.7754 5.2174 0 -7.8083 6 0 -7.2
4 26 7.9921 0 -1.5897 7.5284 0 -3.1184 8.6762 0 -3.5938 9.2106 0 -1.8321
4 26 8.1487 0 0 7.9921 0 -1.5897 9.2106 0 -1.8321 9.391 0 0
4 26 7.9921 0 1.5897 8.1487 0 0 9.391 0 0 9.2106 0 1.8321
4 26 7.5284 0 3.1184 7.9921 0 1.5897 9.2106 0 1.8321 8.6762 0 3.5938
4 26 6.7754 0 4.5272 7.5284 0 3.1184 8.6762 0 3.5938 7.8083 0 5.2174
4 26 5.762 0 5.762 6.7754 0 4.5272 7.8083 0 5.2174 7.1 0 6.1
4 26 1.5897 0 7.9921 3.1184 0 7.5284 3.5938 0 8.6762 1.8321 0 9.2106
4 26 0 0 8.1487 1.5897 0 7.9921 1.8321 0 9.2106 0 0 9.391
4 26 -1.5897 0 7.9921 0 0 8.1487 0 0 9.391 -1.8321 0 9.2106
4 26 -3.1184 0 7.5284 -1.5897 0 7.9921 -1.8321 0 9.2106 -3.5938 0 8.6762
4 26 -4.5272 0 6.7754 -3.1184 0 7.5284 -3.5938 0 8.6762 -3.9 0 8.5
4 26 -7.5284 0 3.1184 -6.7754 0 4.5272 -7.8083 0 5.2174 -8.6762 0 3.5938
4 26 -7.9921 0 1.5897 -7.5284 0 3.1184 -8.6762 0 3.5938 -9.2106 0 1.8321
4 16 0 0 20 0 0 18.897 3.6866 0 18.5339 7.654 0 18.478
3 16 3.6866 0 18.5339 7.2316 0 17.4585 7.654 0 18.478
4 16 7.654 0 18.478 7.2316 0 17.4585 10.4986 0 15.7123 14.142 0 14.142
3 16 10.4986 0 15.7123 13.3622 0 13.3622 14.142 0 14.142
4 16 14.142 0 14.142 13.3622 0 13.3622 15.7123 0 10.4986 18.478 0 7.654
3 16 15.7123 0 10.4986 17.4585 0 7.2316 18.478 0 7.654
4 16 18.478 0 7.654 17.4585 0 7.2316 18.5339 0 3.6866 20 0 0
3 16 18.5339 0 3.6866 18.897 0 0 20 0 0
4 16 -3.6866 0 18.5339 0 0 18.897 0 0 20 -7.654 0 18.478
3 16 -3.6866 0 18.5339 -7.654 0 18.478 -7.2316 0 17.4585
4 16 -10.4986 0 15.7123 -7.2316 0 17.4585 -7.654 0 18.478 -14.142 0 14.142
3 16 -10.4986 0 15.7123 -14.142 0 14.142 -13.3622 0 13.3622
4 16 -15.7123 0 10.4986 -13.3622 0 13.3622 -14.142 0 14.142 -18.478 0 7.654
3 16 -15.7123 0 10.4986 -18.478 0 7.654 -17.4585 0 7.2316
4 16 -18.5339 0 3.6866 -17.4585 0 7.2316 -18.478 0 7.654 -20 0 0
3 16 -18.5339 0 3.6866 -20 0 0 -18.897 0 0
4 16 3.6866 0 -18.5339 0 0 -18.897 0 0 -20 7.654 0 -18.478
3 16 7.2316 0 -17.4585 3.6866 0 -18.5339 7.654 0 -18.478
4 16 10.4986 0 -15.7123 7.2316 0 -17.4585 7.654 0 -18.478 14.142 0 -14.142
3 16 13.3622 0 -13.3622 10.4986 0 -15.7123 14.142 0 -14.142
4 16 15.7123 0 -10.4986 13.3622 0 -13.3622 14.142 0 -14.142 18.478 0 -7.654
3 16 17.4585 0 -7.2316 15.7123 0 -10.4986 18.478 0 -7.654
4 16 18.5339 0 -3.6866 17.4585 0 -7.2316 18.478 0 -7.654 20 0 0
3 16 18.897 0 0 18.5339 0 -3.6866 20 0 0
4 16 0 0 -20 0 0 -18.897 -3.6866 0 -18.5339 -7.654 0 -18.478
3 16 -7.2316 0 -17.4585 -7.654 0 -18.478 -3.6866 0 -18.5339
4 16 -7.654 0 -18.478 -7.2316 0 -17.4585 -10.4986 0 -15.7123 -14.142 0 -14.142
3 16 -13.3622 0 -13.3622 -14.142 0 -14.142 -10.4986 0 -15.7123
4 16 -14.142 0 -14.142 -13.3622 0 -13.3622 -15.7123 0 -10.4986 -18.478 0 -7.654
3 16 -17.4585 0 -7.2316 -18.478 0 -7.654 -15.7123 0 -10.4986
4 16 -18.478 0 -7.654 -17.4585 0 -7.2316 -18.5339 0 -3.6866 -20 0 0
3 16 -18.897 0 0 -20 0 0 -18.5339 0 -3.6866
4 16 1.5897 0 7.9921 0 0 8.1487 0 0 0 3.1184 0 7.5284
4 16 4.5272 0 6.7754 3.1184 0 7.5284 0 0 0 5.762 0 5.762
4 16 6.7754 0 4.5272 5.762 0 5.762 0 0 0 7.5284 0 3.1184
4 16 7.9921 0 1.5897 7.5284 0 3.1184 0 0 0 8.1487 0 0
4 16 -7.9921 0 1.5897 -8.1487 0 0 0 0 0 -7.5284 0 3.1184
4 16 -6.7754 0 4.5272 -7.5284 0 3.1184 0 0 0 -5.762 0 5.762
4 16 -4.5272 0 6.7754 -5.762 0 5.762 0 0 0 -3.1184 0 7.5284
4 16 -1.5897 0 7.9921 -3.1184 0 7.5284 0 0 0 0 0 8.1487
4 16 0 0 0 7.5284 0 -3.1184 7.9921 0 -1.5897 8.1487 0 0
4 16 0 0 0 -8.1487 0 0 -7.9921 0 -1.5897 -7.5284 0 -3.1184
4 16 6.7754 0 -4.5272 7.5284 0 -3.1184 0 0 0 5.762 0 -5.762
4 16 4.5272 0 -6.7754 5.762 0 -5.762 0 0 0 3.1184 0 -7.5284
4 16 1.5897 0 -7.9921 3.1184 0 -7.5284 0 0 0 0 0 -8.1487
4 16 -1.5897 0 -7.9921 0 0 -8.1487 0 0 0 -3.1184 0 -7.5284
4 16 -4.5272 0 -6.7754 -3.1184 0 -7.5284 0 0 0 -5.762 0 -5.762
4 16 -6.7754 0 -4.5272 -5.762 0 -5.762 0 0 0 -7.5284 0 -3.1184
4 26 4.5272 0 6.7754 5.762 0 5.762 7.1 0 6.1 8.7 0 7.7
4 26 4.5272 0 6.7754 8.7 0 7.7 3.5938 0 8.6762 3.1184 0 7.5284
4 26 4.6 0 10.9 3.5938 0 8.6762 8.7 0 7.7 6.1 0 13.3
4 26 6.1 0 13.3 8.7 0 7.7 10.8 0 9.3 8.1 0 15.6
4 26 8.1 0 15.6 10.8 0 9.3 13.8 0 10.9 13.3622 0 13.3622
3 26 13.3622 0 13.3622 13.8 0 10.9 15.7123 0 10.4986
4 26 8.1 0 15.6 13.3622 0 13.3622 10.4986 0 15.7123 6.7579 0 16.315
4 26 -8.4 0 15.4 -13.3622 0 13.3622 -13.7 0 11 -6.5 0 13.4
3 26 -13.3622 0 13.3622 -14.6832 0 9.811 -13.7 0 11
4 26 -5 0 11.1 -6.5 0 13.4 -13.7 0 11 -3.9 0 8.5
3 26 -13.7 0 11 -10.6 0 9.1 -3.9 0 8.5
3 26 -10.6 0 9.1 -8.6 0 7.4 -3.9 0 8.5
4 26 -3.9 0 8.5 -8.6 0 7.4 -7.2 0 5.9 -5.762 0 5.762
3 26 -3.9 0 8.5 -5.762 0 5.762 -4.5272 0 6.7754
4 26 -6.7754 0 4.5272 -5.762 0 5.762 -7.2 0 5.9 -7.8083 0 5.2174
3 26 -13.3622 0 -13.3622 -9.811 0 -14.6832 -10.8 0 -13.8
4 26 -13.3622 0 -13.3622 -10.8 0 -13.8 -15.5 0 -8.2 -15.7123 0 -10.4986
4 26 -17.4585 0 -7.2316 -15.7123 0 -10.4986 -15.5 0 -8.2 -16.315 0 -6.7579
4 26 -15.5 0 -8.2 -10.8 0 -13.8 -9.5 0 -11.2 -13.3 0 -6.2
4 26 -13.3 0 -6.2 -9.5 0 -11.2 -7.5 0 -8.7 -10.7 0 -4.4
4 26 -10.7 0 -4.4 -7.5 0 -8.7 -6 0 -7.1 -8.6762 0 -3.5938
3 26 -6.7754 0 -4.5272 -6 0 -7.1 -5.762 0 -5.762
4 26 -4.5272 0 -6.7754 -5.762 0 -5.762 -6 0 -7.1 -5.2174 0 -7.8083
4 26 6.7754 0 -4.5272 5.762 0 -5.762 6 0 -7.2 8.6762 0 -3.5938
3 26 7.5284 0 -3.1184 6.7754 0 -4.5272 8.6762 0 -3.5938
4 26 11 0 -4.8 8.6762 0 -3.5938 6 0 -7.2 7.8 0 -9.1
4 26 13.5 0 -6.5 11 0 -4.8 7.8 0 -9.1 9.6 0 -11.6
4 26 15.5 0 -8.3 13.5 0 -6.5 9.6 0 -11.6 10.9 0 -13.8
4 26 15.5 0 -8.3 10.9 0 -13.8 13.3622 0 -13.3622 15.7123 0 -10.4986
3 26 16.315 0 -6.7579 15.5 0 -8.3 15.7123 0 -10.4986
3 26 13.3622 0 -13.3622 10.9 0 -13.8 10.4986 0 -15.7123
4 29 1.8321 0 9.2106 6.7579 0 16.315 3.4452 0 17.32 0 0 9.391
4 29 0 0 9.391 3.4452 0 17.32 0 0 17.6593 -1.8321 0 9.2106
4 29 0 0 -17.6593 0 0 -9.391 -1.8321 0 -9.2106 -3.4452 0 -17.32
4 29 -3.4452 0 -17.32 -1.8321 0 -9.2106 -3.5938 0 -8.6762 -6.7579 0 -16.315
4 29 8.6762 0 3.5938 9.2106 0 1.8321 17.32 0 3.4452 16.315 0 6.7579
4 29 7.8083 0 5.2174 8.6762 0 3.5938 16.315 0 6.7579 14.6832 0 9.811
4 29 -17.32 0 -3.4452 -16.315 0 -6.7579 -9.2106 0 -1.8321 -9.391 0 0
4 29 9.391 0 0 9.2106 0 -1.8321 17.32 0 -3.4452 17.6593 0 0
4 29 9.2106 0 1.8321 9.391 0 0 17.6593 0 0 17.32 0 3.4452
4 29 -17.6593 0 0 -17.32 0 -3.4452 -9.391 0 0 -9.2106 0 1.8321
4 29 -17.32 0 3.4452 -17.6593 0 0 -9.2106 0 1.8321 -8.6762 0 3.5938
4 29 -1.8321 0 9.2106 0 0 17.6593 -3.4452 0 17.32 -3.5938 0 8.6762
4 29 -3.5938 0 8.6762 -3.4452 0 17.32 -6.7579 0 16.315 -5 0 11.1
4 29 6.7579 0 -16.315 3.5938 0 -8.6762 1.8321 0 -9.2106 3.4452 0 -17.32
4 29 3.4452 0 -17.32 1.8321 0 -9.2106 0 0 -9.391 0 0 -17.6593
4 29 -16.315 0 6.7579 -17.32 0 3.4452 -8.6762 0 3.5938 -7.8083 0 5.2174
4 29 -14.6832 0 9.811 -16.315 0 6.7579 -7.8083 0 5.2174 -13.7 0 11
4 29 -10.6 0 9.1 -13.7 0 11 -7.8083 0 5.2174 -8.6 0 7.4
3 29 -8.6 0 7.4 -7.8083 0 5.2174 -7.2 0 5.9
3 29 -13.3 0 -6.2 -16.315 0 -6.7579 -15.5 0 -8.2
4 29 -16.315 0 -6.7579 -13.3 0 -6.2 -10.7 0 -4.4 -9.2106 0 -1.8321
3 29 -9.2106 0 -1.8321 -10.7 0 -4.4 -8.6762 0 -3.5938
4 29 -6.7579 0 -16.315 -3.5938 0 -8.6762 -5.2174 0 -7.8083 -9.811 0 -14.6832
4 29 -9.811 0 -14.6832 -5.2174 0 -7.8083 -9.5 0 -11.2 -10.8 0 -13.8
4 29 -7.5 0 -8.7 -9.5 0 -11.2 -5.2174 0 -7.8083 -6 0 -7.1
4 29 9.811 0 -14.6832 5.2174 0 -7.8083 3.5938 0 -8.6762 6.7579 0 -16.315
4 29 9.6 0 -11.6 5.2174 0 -7.8083 9.811 0 -14.6832 10.9 0 -13.8
4 29 5.2174 0 -7.8083 9.6 0 -11.6 7.8 0 -9.1 6 0 -7.2
4 29 9.2106 0 -1.8321 8.6762 0 -3.5938 11 0 -4.8 17.32 0 -3.4452
4 29 17.32 0 -3.4452 11 0 -4.8 13.5 0 -6.5 16.315 0 -6.7579
3 29 13.5 0 -6.5 15.5 0 -8.3 16.315 0 -6.7579
4 29 8.7 0 7.7 7.1 0 6.1 7.8083 0 5.2174 10.8 0 9.3
4 29 10.8 0 9.3 7.8083 0 5.2174 14.6832 0 9.811 13.8 0 10.9
4 29 6.1 0 13.3 8.1 0 15.6 6.7579 0 16.315 1.8321 0 9.2106
3 29 6.1 0 13.3 1.8321 0 9.2106 4.6 0 10.9
3 29 4.6 0 10.9 1.8321 0 9.2106 3.5938 0 8.6762
3 29 -5 0 11.1 -3.9 0 8.5 -3.5938 0 8.6762
3 29 -6.7579 0 16.315 -6.5 0 13.4 -5 0 11.1
3 29 -6.7579 0 16.315 -8.4 0 15.4 -6.5 0 13.4
4 26 -10.4986 0 15.7123 -13.3622 0 13.3622 -8.4 0 15.4 -7.2316 0 17.4585
