0 ~Tile  1 x  2 with Green and Dark Turquoise Accordion Keyboard Pattern - Single key
0 Name: s\3069bpxds01.dat
0 Author: Vincent Messenet [Cheenzo]
0 !LDRAW_ORG Subpart UPDATE 2024-09
0 !LICENSE Licensed under CC BY 4.0 : see CAreadme.txt

0 BFC CERTIFY CCW

0 !HISTORY 2024-10-27 [OrionP] Official Update 2024-09

1 16 0 0 0 1 0 0 0 1 0 0 0 1 4-4disc.dat
1 2 0 0 0 .2 0 0 0 1 0 0 0 .2 4-4ring5.dat
1 2 0 0 0 .4 0 0 0 1 0 0 0 .4 4-4ring3.dat
