0 ~Tile  1 x  2 with Arrow Short Pattern - Mask
0 Name: s\3069p13a.dat
0 Author: Alex Taylor [anathema]
0 !LDRAW_ORG Subpart UPDATE 2010-02
0 !LICENSE Licensed under CC BY 4.0 : see CAreadme.txt

0 BFC CERTIFY CCW

0 !HISTORY 2010-07-05 [PTadmin] Official Update 2010-02


4 16 -20 0 -10 20 0 -10 7.6 0 -8 -7.6 0 -8
4 16 -7.6 0 -8 -7.6 0 -1.4 -14.7 0 -1.4 -20 0 -10
4 16 20 0 -10 14.7 0 -1.4 7.6 0 -1.4 7.6 0 -8
4 16 -20 0 -10 -14.7 0 -1.4 -14.7 0 -0.2 -20 0 10
4 16 20 0 10 14.7 0 -0.2 14.7 0 -1.4 20 0 -10
3 16 20 0 10 -20 0 10 0 0 6.7
3 16 0 0 6.7 -20 0 10 -14.7 0 -0.2
3 16 14.7 0 -0.2 20 0 10 0 0 6.7
0
