0 ~Sticker  2.6 x  3.6 with Octan Logo and Text and Red "DIESEL POWER" - Common Background
0 Name: s\4121723fs01.dat
0 Author: Ulrich Röder [UR]
0 !LDRAW_ORG Subpart UPDATE 2024-04
0 !LICENSE Licensed under CC BY 4.0 : see CAreadme.txt

0 BFC CERTIFY CCW

0 !HISTORY 2022-01-14 [PTadmin] Official Update 2022-01
0 !HISTORY 2024-05-20 [Holly-Wood] Adjusted to new prim
0 !HISTORY 2024-05-28 [OrionP] Official Update 2024-04

0 // Body
1 16 34.5 0 24.5 1.5 0 0 0 -1 0 0 0 1.5 1-4chrd.dat
1 16 34.5 0 -24.5 1.5 0 0 0 -1 0 0 0 -1.5 1-4chrd.dat
1 16 -34.5 0 -24.5 -1.5 0 0 0 -1 0 0 0 -1.5 1-4chrd.dat
1 16 -34.5 0 24.5 -1.5 0 0 0 -1 0 0 0 1.5 1-4chrd.dat
1 16 34.5 0 24.5 1.5 0 0 0 -.25 0 0 0 1.5 1-4cyli.dat
1 16 34.5 0 -24.5 1.5 0 0 0 -.25 0 0 0 -1.5 1-4cyli.dat
1 16 -34.5 0 -24.5 -1.5 0 0 0 -.25 0 0 0 -1.5 1-4cyli.dat
1 16 -34.5 0 24.5 -1.5 0 0 0 -.25 0 0 0 1.5 1-4cyli.dat
1 16 0 -0.25 0 34.5 0 0 0 0.25 0 0 0 26 box3u12.dat
4 16 34.5 0 26 36 0 24.5 36 0 -24.5 34.5 0 -26
4 16 -36 0 -24.5 -36 0 24.5 -34.5 0 26 -34.5 0 -26
4 16 36 0 -24.5 36 0 24.5 36 -.25 24.5 36 -.25 -24.5
4 16 -36 -.25 24.5 -36 0 24.5 -36 0 -24.5 -36 -.25 -24.5

0 // Frontface Cutout
1 16 34.5 -.25 24.5 1.5 0 0 0 1 0 0 0 1.5 1-4chrd.dat
1 16 34.5 -.25 -24.5 1.5 0 0 0 1 0 0 0 -1.5 1-4chrd.dat
1 16 -34.5 -.25 -24.5 -1.5 0 0 0 1 0 0 0 -1.5 1-4chrd.dat
1 16 -34.5 -.25 24.5 -1.5 0 0 0 1 0 0 0 1.5 1-4chrd.dat
4 16 36 -.25 -24.5 36 -.25 24.5 34.5 -.25 26 34.5 -.25 -26
4 16 -34.5 -.25 26 -36 -.25 24.5 -36 -.25 -24.5 -34.5 -.25 -26
4 16 32.00005 -.25 -2.5 16 -.25 -.5 0 -.25 -.5 -.00005 -.25 -2.5
3 16 32.00005 -.25 -2.5 32 -.25 -.5 16 -.25 -.5
3 16 32 -.25 22.5 32 -.25 11 34.5 -.25 26
3 16 32 -.25 -23.6 34.5 -.25 -26 32 -.25 -15.6
3 16 32 -.25 -15.6 34.5 -.25 -26 32.00005 -.25 -11.5
4 16 34.5 -.25 -26 34.5 -.25 26 32 -.25 11 32 -.25 -.5
3 16 32 -.25 22.5 34.5 -.25 26 16 -.25 22.5
4 16 -34.5 -.25 26 0 -.25 22.5 16 -.25 22.5 34.5 -.25 26
3 16 0 -.25 22.5 -34.5 -.25 26 0 -.25 11
4 16 0 -.25 11 -34.5 -.25 26 -32 -.25 -15.6 0 -.25 -.5
3 16 -34.5 -.25 -26 -32 -.25 -23.6 -32 -.25 -15.6
3 16 -34.5 -.25 26 -34.5 -.25 -26 -32 -.25 -15.6
3 16 -32 -.25 -15.6 -.00005 -.25 -2.5 0 -.25 -.5
3 16 -32 -.25 -15.6 -.00005 -.25 -11.5 -.00005 -.25 -2.5
3 16 -.00005 -.25 -11.5 -32 -.25 -15.6 0 -.25 -15.6
4 16 32.00005 -.25 -11.5 -.00005 -.25 -11.5 0 -.25 -15.6 32 -.25 -15.6
3 16 -32 -.25 -23.6 -34.5 -.25 -26 0 -.25 -23.6
4 16 34.5 -.25 -26 32 -.25 -23.6 0 -.25 -23.6 -34.5 -.25 -26
3 16 32.00005 -.25 -2.5 34.5 -.25 -26 32 -.25 -.5
3 16 34.5 -.25 -26 32.00005 -.25 -2.5 32.00005 -.25 -11.5
