0 ~Minifig Skirt  1.1L with Straight Bottom (Formed) without Outer Surface
0 Name: s\600880c01s02.dat
0 Author: Philippe Hurbain [Philo]
0 !LDRAW_ORG Subpart UPDATE 2024-02
0 !LICENSE Licensed under CC BY 4.0 : see CAreadme.txt

0 BFC CERTIFY CCW

0 !HISTORY 2015-10-11 [PTadmin] Official Update 2015-01
0 !HISTORY 2024-03-23 [OrionP] Updated ring primitives
0 !HISTORY 2024-03-24 [OrionP] Official Update 2024-02

1 16 0 0 0 1 0 0 0 1 0 0 0 1 s\600880c01s01.dat
0 BFC INVERTNEXT
1 16 14.5 22 -5.75 0 4.25 5.75 0 -22 0 -5.75 -4.25 0 1-4con0.dat
1 16 14.5 22 -5.75 0 0 6 0 -1 0 -6 0 0 1-4edge.dat
1 16 14.5 22 -5.75 0 0 5.75 0 -1 0 -5.75 0 0 1-4edge.dat
1 16 14.5 22 -5.75 0 0 0.25 0 -1 0 -0.25 0 0 1-4ring23.dat
0 BFC INVERTNEXT
1 16 -14.5 22 -5.75 0 -4.25 -5.75 0 -22 0 -5.75 -4.25 0 1-4con0.dat
1 16 -14.5 22 -5.75 0 0 -6 0 -1 0 -6 0 0 1-4edge.dat
1 16 -14.5 22 -5.75 0 0 -5.75 0 -1 0 -5.75 0 0 1-4edge.dat
1 16 -14.5 22 -5.75 0 0 -0.25 0 -1 0 -0.25 0 0 1-4ring23.dat
0 BFC INVERTNEXT
1 16 -14.5 22 5.75 0 -4.25 -5.75 0 -22 0 5.75 4.25 0 1-4con0.dat
1 16 -14.5 22 5.75 0 0 -6 0 -1 0 6 0 0 1-4edge.dat
1 16 -14.5 22 5.75 0 0 -5.75 0 -1 0 5.75 0 0 1-4edge.dat
1 16 -14.5 22 5.75 0 0 -0.25 0 -1 0 0.25 0 0 1-4ring23.dat
4 16 -18.75 0 10 -14.5 22 11.5 19 22 11.5 19 0 10
4 16 -18.75 0 -10 -20.25 22 -5.75 -20.25 22 5.75 -18.75 0 10
1 16 19.625 11 10.5 0.125 0 0.75 0 0 11 0 -1 0.75 rect3.dat
1 16 20.375 22 2.75 0 0 -0.125 0 -1 0 -8.5 0 0 rect2p.dat
1 16 -20.375 22 0 0 0 -0.125 0 -1 0 -5.75 0 0 rect2p.dat
1 16 19 11 10.875 0 -1 0 0 0 11 -0.125 0 0.75 rect3.dat
1 16 2.25 22 11.625 -16.75 0 0 0 -1 0 0 0 0.125 rect2p.dat
1 16 0 22 -11.625 14.5 0 0 0 -1 0 0 0 -0.125 rect2p.dat
4 16 18.75 0 -10 14.5 22 -11.5 -14.5 22 -11.5 -18.75 0 -10
4 16 18.75 0 9.75 20.25 22 11.25 20.25 22 -5.75 18.75 0 -10
