0 ~Sticker  3.0 x  1.8 with Black "DMG MORI" and White "919" in Red Frame and Dark Grey Lines on White Background - Sixth Face
0 Name: s\6148328ays06.dat
0 Author: Massimo Maso [Sirio]
0 !LDRAW_ORG Subpart UPDATE 2024-08
0 !LICENSE Licensed under CC BY 4.0 : see CAreadme.txt

0 BFC CERTIFY CCW

0 !HISTORY 2024-09-30 [OrionP] Official Update 2024-08


0 // Primitives
1 72 -16.5 -.25 -6.7127 -1.5 0 0 0 1 0 0 0 -1.5 1-4chrd.dat
1 72 16.5 -.25 -6.7127 1.5 0 0 0 1 0 0 0 -1.5 1-4chrd.dat
0 // Black faces
4 0 .0792 -.25 .0153 .0792 -.25 -.6452 .1392 -.25 -.6279 .1392 -.25 .0153
3 0 -1.4365 -.25 .0153 -1.7114 -.25 .0153 -1.6261 -.25 -.0511
4 0 -1.4365 -.25 .0153 -1.6261 -.25 -.0511 -1.326 -.25 -.2561 -1.2346 -.25 -.1224
4 0 1.4365 -.25 .0153 1.2346 -.25 -.1224 1.326 -.25 -.2561 1.6261 -.25 -.0511
3 0 1.4365 -.25 .0153 1.6261 -.25 -.0511 1.7114 -.25 .0153
4 0 -.9307 -.25 -.3011 -1.2346 -.25 -.1224 -1.326 -.25 -.2561 -1.0129 -.25 -.4407
4 0 -.9307 -.25 -.3011 -1.0129 -.25 -.4407 -.6872 -.25 -.6017 -.6154 -.25 -.4565
4 0 .9307 -.25 -.3011 .6154 -.25 -.4565 .6872 -.25 -.6017 1.0129 -.25 -.4407
4 0 .9307 -.25 -.3011 1.0129 -.25 -.4407 1.326 -.25 -.2561 1.2346 -.25 -.1224
4 0 -.2897 -.25 -.5846 -.6154 -.25 -.4565 -.6872 -.25 -.6017 -.3492 -.25 -.7352
4 0 -.2897 -.25 -.5846 -.3492 -.25 -.7352 0 -.25 -.8359 -.0792 -.25 -.6452
4 0 .2897 -.25 -.5846 .1392 -.25 -.6279 0 -.25 -.8359 .3492 -.25 -.7352
4 0 .2897 -.25 -.5846 .3492 -.25 -.7352 .6872 -.25 -.6017 .6154 -.25 -.4565
3 0 0 -.25 -.8359 .0792 -.25 -.6452 -.0792 -.25 -.6452
3 0 0 -.25 -.8359 .1392 -.25 -.6279 .0792 -.25 -.6452
0 // Dark grey faces
3 72 -18 -.25 -1.0127 -18 -.25 -6.7127 -16.5 -.25 -8.2127
4 72 -18 -.25 -1.0127 -16.5 -.25 -8.2127 16.5 -.25 -8.2127 18 -.25 -1.0127
3 72 18 -.25 -1.0127 16.5 -.25 -8.2127 18 -.25 -6.7127
0 // Red faces
4 4 -.0792 -.25 .0153 -1.4365 -.25 .0153 -1.2346 -.25 -.1224 -.9307 -.25 -.3011
3 4 -.0792 -.25 .0153 -.9307 -.25 -.3011 -.6154 -.25 -.4565
4 4 -.0792 -.25 .0153 -.6154 -.25 -.4565 -.2897 -.25 -.5846 -.0792 -.25 -.6452
0 // Yellow faces
4 14 .0792 -.25 .0153 -.0792 -.25 .0153 -.0792 -.25 -.6452 .0792 -.25 -.6452
4 14 .1392 -.25 .0153 .1392 -.25 -.6279 .2897 -.25 -.5846 .6154 -.25 -.4565
3 14 .1392 -.25 .0153 .6154 -.25 -.4565 .9307 -.25 -.3011
4 14 .1392 -.25 .0153 .9307 -.25 -.3011 1.2346 -.25 -.1224 1.4365 -.25 .0153
0 // White faces
4 15 -1.6261 -.25 -.0511 -1.7114 -.25 .0153 -18 -.25 .0153 -18 -.25 -1.0127
3 15 -18 -.25 -1.0127 -1.326 -.25 -.2561 -1.6261 -.25 -.0511
3 15 -18 -.25 -1.0127 -1.0129 -.25 -.4407 -1.326 -.25 -.2561
3 15 -18 -.25 -1.0127 -.6872 -.25 -.6017 -1.0129 -.25 -.4407
3 15 -18 -.25 -1.0127 -.3492 -.25 -.7352 -.6872 -.25 -.6017
3 15 -18 -.25 -1.0127 0 -.25 -.8359 -.3492 -.25 -.7352
3 15 -18 -.25 -1.0127 18 -.25 -1.0127 0 -.25 -.8359
3 15 18 -.25 -1.0127 .3492 -.25 -.7352 0 -.25 -.8359
3 15 18 -.25 -1.0127 .6872 -.25 -.6017 .3492 -.25 -.7352
3 15 18 -.25 -1.0127 1.0129 -.25 -.4407 .6872 -.25 -.6017
3 15 18 -.25 -1.0127 1.326 -.25 -.2561 1.0129 -.25 -.4407
3 15 18 -.25 -1.0127 1.6261 -.25 -.0511 1.326 -.25 -.2561
4 15 18 -.25 -1.0127 18 -.25 .0153 1.7114 -.25 .0153 1.6261 -.25 -.0511
