0 ~Door  1 x  3 x  4 Left with Red Lower Section Pattern without Stud
0 Name: s\825ap05s01.dat
0 Author: Magnus Forsberg [MagFors]
0 !LDRAW_ORG Subpart UPDATE 2022-01
0 !LICENSE Licensed under CC BY 4.0 : see CAreadme.txt

0 BFC CERTIFY CCW

0 !HISTORY 2022-01-14 [PTadmin] Official Update 2022-01


1 16 0 0 0 1 0 0 0 1 0 0 0 1 s\825s01.dat
4 16 10 0 0 10 40 0 10 40 50 10 0 50
0 BFC NOCLIP
1 4 0 0 0 1 0 0 0 1 0 0 0 1 s\825s02.dat