0 ~Constraction Shell  2.5 x  3 x  8 Flat without Front Surface
0 Name: s\90636s01.dat
0 Author: Magnus Forsberg [MagFors]
0 !LDRAW_ORG Subpart UPDATE 2018-02
0 !LICENSE Licensed under CC BY 4.0 : see CAreadme.txt

0 BFC CERTIFY CCW

0 !HISTORY 2018-12-08 [PTadmin] Official Update 2018-02


1 16 0 0 0 1 0 0 0 1 0 0 0 1 s\90636s02.dat
1 16 0 0 0 -1 0 0 0 1 0 0 0 1 s\90636s02.dat
0 // double connector
1 16 0 -50 -23.5 0 0 -1 -1 0 0 0 1 0 s\90640s05.dat
0 // ball clip
1 16 0 0 0 1 0 0 0 0 1 0 -1 0 s\90640s03.dat

0 BFC INVERTNEXT
1 16 0 -60 -20 4.5 0 0 0 0 4.5 0 -4 0 4-4cylo.dat
1 16 0 -60 -20 4.5 0 0 0 0 4.5 0 -1 0 4-4ndis.dat
0 BFC INVERTNEXT
1 16 0 -40 -20 4.5 0 0 0 0 4.5 0 -4 0 4-4cylo.dat
1 16 0 -40 -20 4.5 0 0 0 0 4.5 0 -1 0 4-4ndis.dat

3 16 0 -64.5 -20 -10 -69.25 -20 10 -69.25 -20
3 16 -10 -69.25 -23.5 0 -68 -23.5 10 -69.25 -23.5
1 16 0 -69.25 -21.75 0 0 10 0 1 0 -1.75 0 0 rect3.dat
5 24 0 -29.5 -29.43 0 -29.5 -23.5 5.284 -30.927 -28.024 -5.284 -30.927 -28.024
5 24 0 -26 -25.861 0 -26 -20 4.974 -27.023 -24.536 -4.974 -27.023 -24.536
5 24 0 7.575 -20 0 7.575 -24 1.698 7.38 -24 -1.698 7.38 -24
5 24 0 -7.575 -20 0 -7.575 -25.638981 1.698 -7.38 -25.200254 -1.698 -7.38 -25.200254
