0 ~Figure Fabuland Cat Eye  3
0 Name: s\u9108s02.dat
0 Author: Philippe Hurbain [Philo]
0 !LDRAW_ORG Subpart UPDATE 2010-03
0 !LICENSE Licensed under CC BY 4.0 : see CAreadme.txt

0 BFC CERTIFY CCW

0 !HISTORY 2010-12-31 [PTadmin] Official Update 2010-03


3 16 0 -22.761 -21.407 -0.795 -21.695 -21.73 0 -21.596 -21.767
4 16 0 -23.222 -21.251 -0.586 -22.709 -21.396 -0.795 -21.695 -21.73 0 -22.761 -21.407
3 16 -2.908 -22.581 -21.144 -0.795 -21.695 -21.73 -0.586 -22.709 -21.396
4 16 0 -24.399 -20.949 -0.83 -24.658 -20.902 -0.586 -22.709 -21.396 0 -23.222 -21.251
3 16 -2.908 -22.581 -21.144 -0.83 -24.658 -20.902 -2.954 -25.001 -20.584
3 16 0 -24.924 -20.837 -0.83 -24.658 -20.902 0 -24.399 -20.949
4 16 0 -26.395 -20.488 -0.667 -27.062 -20.331 -0.83 -24.658 -20.902 0 -24.924 -20.837
3 16 -2.954 -25.001 -20.584 -0.83 -24.658 -20.902 -2.199 -26.427 -20.349
3 16 -2.199 -26.427 -20.349 -0.83 -24.658 -20.902 -0.667 -27.062 -20.331
4 15 -9.893 -26.205 -17.846 -9.6 -26.1 -18.021 -8.927 -26.773 -18.205 -9.391 -26.9 -17.937
3 15 -8.927 -26.773 -18.205 -8.914 -26.9 -18.181 -9.391 -26.9 -17.937
4 15 -9.6 -26.1 -18.021 -9.893 -26.205 -17.846 -10.083 -25.941 -17.812 -9.901 -25.679 -17.967
3 0 -8.898 -27.063 -18.151 -8.835 -27.671 -18.038 -9.069 -27.348 -17.996
4 0 -9.069 -27.348 -17.996 -9.391 -26.9 -17.937 -8.914 -26.9 -18.181 -8.898 -27.063 -18.151
4 0 -9.6 -26.1 -18.021 -9.901 -25.679 -17.967 -9.15 -24.599 -18.609 -8.927 -26.773 -18.205
4 15 -10.422 -26.745 -17.446 -10.247 -26.331 -17.634 -9.893 -26.205 -17.846 -9.8 -26.9 -17.728
3 15 -9.893 -26.205 -17.846 -9.391 -26.9 -17.937 -9.8 -26.9 -17.728
3 15 -10.247 -26.331 -17.634 -10.083 -25.941 -17.812 -9.893 -26.205 -17.846
3 0 -9.069 -27.348 -17.996 -8.835 -27.671 -18.038 -9.192 -27.553 -17.884
4 0 -9.848 -27.336 -17.599 -9.8 -26.9 -17.728 -9.391 -26.9 -17.937 -9.192 -27.553 -17.884
3 0 -9.391 -26.9 -17.937 -9.069 -27.348 -17.996 -9.192 -27.553 -17.884
3 0 -9.848 -27.336 -17.599 -10.294 -27.188 -17.406 -9.8 -26.9 -17.728
4 0 -10.422 -26.745 -17.446 -9.8 -26.9 -17.728 -10.294 -27.188 -17.406 -10.57 -27.097 -17.286
3 0 -9.284 -28.23 -17.688 -9.367 -28.333 -17.624 -9.4 -28.3 -17.614
4 0 -9.4 -27.9 -17.702 -9.192 -27.553 -17.884 -8.835 -27.671 -18.038 -9.4 -28.3 -17.614
3 0 -8.835 -27.671 -18.038 -9.284 -28.23 -17.688 -9.4 -28.3 -17.614
4 0 -9.4 -27.9 -17.702 -9.9 -27.8 -17.471 -9.848 -27.336 -17.599 -9.192 -27.553 -17.884
3 0 -10.188 -28.293 -17.216 -10.28 -27.99 -17.237 -9.9 -27.8 -17.471
4 0 -10.501 -27.309 -17.274 -10.294 -27.188 -17.406 -9.848 -27.336 -17.599 -10.28 -27.99 -17.237
3 0 -9.848 -27.336 -17.599 -9.9 -27.8 -17.471 -10.28 -27.99 -17.237
3 0 -10.57 -27.097 -17.286 -10.294 -27.188 -17.406 -10.501 -27.309 -17.274
3 16 -10.188 -28.293 -17.216 -9.9 -27.8 -17.471 -9.4 -27.9 -17.702
3 16 -9.4 -27.9 -17.702 -9.4 -28.3 -17.614 -10.188 -28.293 -17.216
4 16 -9.4 -28.3 -17.614 -9.367 -28.333 -17.624 -9.937 -29.045 -17.178 -10.188 -28.293 -17.216
4 0 -10.733 -28.412 -16.859 -10.707 -28.203 -16.927 -10.28 -27.99 -17.237 -10.6 -28.5 -16.917
3 0 -10.28 -27.99 -17.237 -10.188 -28.293 -17.216 -10.6 -28.5 -16.917
4 0 -10.604 -27.369 -17.198 -10.501 -27.309 -17.274 -10.28 -27.99 -17.237 -10.707 -28.203 -16.927
3 0 -10.604 -27.369 -17.198 -10.57 -27.097 -17.286 -10.501 -27.309 -17.274
4 16 -10.952 -30.188 -16.281 -10.6 -28.5 -16.917 -10.188 -28.293 -17.216 -9.937 -29.045 -17.178
3 16 -10.733 -28.412 -16.859 -10.6 -28.5 -16.917 -10.952 -30.188 -16.281
4 15 -10.083 -25.941 -17.812 -10.291 -25.509 -17.818 -10.1 -25.4 -17.94 -10.065 -25.449 -17.945
4 15 -10.642 -24.781 -17.828 -10.4 -24.7 -17.969 -10.1 -25.4 -17.94 -10.291 -25.509 -17.818
4 15 -10.6 -23.9 -18.072 -10.4 -24.7 -17.969 -10.642 -24.781 -17.828 -11.041 -23.955 -17.84
4 15 -11.248 -23.544 -17.841 -11.224 -23.472 -17.872 -10.6 -23.131 -18.267 -11.041 -23.955 -17.84
3 15 -10.6 -23.131 -18.267 -10.6 -23.9 -18.072 -11.041 -23.955 -17.84
3 0 -10.062 -25.368 -17.967 -10.065 -25.449 -17.945 -10.1 -25.4 -17.94
4 0 -10.1 -25.4 -17.94 -10.4 -24.7 -17.969 -9.971 -22.788 -18.666 -10.062 -25.368 -17.967
4 0 -10.6 -23.9 -18.072 -10.6 -23.131 -18.267 -9.971 -22.788 -18.666 -10.4 -24.7 -17.969
3 0 -11.264 -23.493 -17.846 -11.224 -23.472 -17.872 -11.248 -23.544 -17.841
4 15 -11.224 -23.472 -17.872 -11.1 -23.1 -18.023 -10.6 -22.5 -18.417 -10.6 -23.131 -18.267
3 0 -10.6 -23.131 -18.267 -10.6 -22.5 -18.417 -9.971 -22.788 -18.666
3 0 -10.6 -22.5 -18.417 -10.41 -21.644 -18.717 -9.971 -22.788 -18.666
4 0 -11.152 -22.266 -18.195 -11.073 -21.399 -18.442 -10.638 -21.05 -18.744 -11.1 -23.1 -18.023
4 0 -10.638 -21.05 -18.744 -10.41 -21.644 -18.717 -10.6 -22.5 -18.417 -11.1 -23.1 -18.023
3 0 -11.235 -23.177 -17.936 -11.152 -22.266 -18.195 -11.1 -23.1 -18.023
4 0 -11.235 -23.177 -17.936 -11.1 -23.1 -18.023 -11.224 -23.472 -17.872 -11.264 -23.493 -17.846
3 16 -10.638 -21.05 -18.744 -11.073 -21.399 -18.442 -10.964 -20.199 -18.782
3 0 -11.073 -21.399 -18.442 -11.152 -22.266 -18.195 -11.2 -21.5 -18.347
4 0 -11.752 -22.19 -17.874 -11.2 -21.5 -18.347 -11.152 -22.266 -18.195 -11.356 -23.246 -17.852
3 0 -11.152 -22.266 -18.195 -11.235 -23.177 -17.936 -11.356 -23.246 -17.852
3 0 -11.235 -23.177 -17.936 -11.264 -23.493 -17.846 -11.356 -23.246 -17.852
4 16 -11.2 -21.5 -18.347 -11.752 -22.19 -17.874 -12.07 -21.345 -17.892 -10.964 -20.199 -18.782
3 16 -11.073 -21.399 -18.442 -11.2 -21.5 -18.347 -10.964 -20.199 -18.782
4 0 -12.122 -22.84 -17.475 -12 -22.5 -17.639 -11.752 -22.19 -17.874 -11.489 -23.322 -17.749
3 0 -11.752 -22.19 -17.874 -11.356 -23.246 -17.852 -11.489 -23.322 -17.749
3 0 -11.356 -23.246 -17.852 -11.264 -23.493 -17.846 -11.489 -23.322 -17.749
4 16 -12 -22.5 -17.639 -12.122 -22.84 -17.475 -13.364 -21.894 -16.937 -12.07 -21.345 -17.892
3 16 -11.752 -22.19 -17.874 -12 -22.5 -17.639 -12.07 -21.345 -17.892
3 0 -11.988 -24.747 -17.092 -12.392 -23.91 -17.047 -11.549 -23.986 -17.55
4 0 -12.122 -22.84 -17.475 -11.489 -23.322 -17.749 -12.419 -23.854 -17.044 -12.456 -23.777 -17.04
4 0 -12.392 -23.91 -17.047 -12.419 -23.854 -17.044 -11.489 -23.322 -17.749 -11.549 -23.986 -17.55
3 0 -11.489 -23.322 -17.749 -11.264 -23.493 -17.846 -11.549 -23.986 -17.55
3 16 -12.122 -22.84 -17.475 -12.456 -23.777 -17.04 -13.364 -21.894 -16.937
4 0 -11.988 -24.747 -17.092 -12.618 -24.606 -16.718 -12.5 -23.9 -16.979 -12.392 -23.91 -17.047
3 0 -12.456 -23.777 -17.04 -12.419 -23.854 -17.044 -12.5 -23.9 -16.979
3 0 -12.419 -23.854 -17.044 -12.392 -23.91 -17.047 -12.5 -23.9 -16.979
4 16 -12.5 -23.9 -16.979 -12.618 -24.606 -16.718 -13.158 -24.486 -16.397 -13.364 -21.894 -16.937
3 16 -12.456 -23.777 -17.04 -12.5 -23.9 -16.979 -13.364 -21.894 -16.937
4 15 -10.247 -26.331 -17.634 -10.422 -26.745 -17.446 -10.649 -26.688 -17.35 -10.687 -26.488 -17.381
4 15 -10.818 -25.81 -17.486 -10.291 -25.509 -17.818 -10.083 -25.941 -17.812 -10.687 -26.488 -17.381
3 15 -10.083 -25.941 -17.812 -10.247 -26.331 -17.634 -10.687 -26.488 -17.381
4 15 -10.993 -24.898 -17.628 -10.642 -24.781 -17.828 -10.291 -25.509 -17.818 -10.818 -25.81 -17.486
4 15 -11.172 -23.971 -17.772 -11.041 -23.955 -17.84 -10.642 -24.781 -17.828 -10.993 -24.898 -17.628
3 15 -11.248 -23.544 -17.841 -11.041 -23.955 -17.84 -11.172 -23.971 -17.772
3 0 -10.57 -27.097 -17.286 -10.649 -26.688 -17.35 -10.422 -26.745 -17.446
4 15 -10.847 -26.638 -17.248 -10.893 -26.562 -17.242 -10.687 -26.488 -17.381 -10.649 -26.688 -17.35
4 15 -10.687 -26.488 -17.381 -10.893 -26.562 -17.242 -11.211 -26.035 -17.199 -10.818 -25.81 -17.486
4 15 -11.569 -25.441 -17.15 -11.6 -25.1 -17.223 -10.993 -24.898 -17.628 -11.211 -26.035 -17.199
3 15 -10.993 -24.898 -17.628 -10.818 -25.81 -17.486 -11.211 -26.035 -17.199
4 15 -10.993 -24.898 -17.628 -11.6 -25.1 -17.223 -11.4 -24 -17.632 -11.172 -23.971 -17.772
3 15 -11.248 -23.544 -17.841 -11.172 -23.971 -17.772 -11.4 -24 -17.632
3 0 -10.649 -26.688 -17.35 -10.57 -27.097 -17.286 -10.847 -26.638 -17.248
3 0 -11.569 -25.441 -17.15 -11.775 -25.1 -17.121 -11.6 -25.1 -17.223
4 0 -11.988 -24.747 -17.092 -11.549 -23.986 -17.55 -11.4 -24 -17.632 -11.775 -25.1 -17.121
3 0 -11.4 -24 -17.632 -11.6 -25.1 -17.223 -11.775 -25.1 -17.121
4 0 -11.264 -23.493 -17.846 -11.248 -23.544 -17.841 -11.4 -24 -17.632 -11.549 -23.986 -17.55
4 0 -12.373 -26.041 -16.497 -12.658 -25.476 -16.46 -12.7 -25.1 -16.533 -11.893 -26.128 -16.787
3 0 -12.7 -25.1 -16.533 -11.964 -25.1 -17.014 -11.893 -26.128 -16.787
4 0 -11.988 -24.747 -17.092 -11.964 -25.1 -17.014 -12.7 -25.1 -16.533 -12.618 -24.606 -16.718
3 16 -12.7 -25.1 -16.533 -12.658 -25.476 -16.46 -13.158 -24.486 -16.397
3 0 -11.847 -26.812 -16.637 -11.825 -27.128 -16.567 -11.969 -26.842 -16.548
4 0 -11.847 -26.812 -16.637 -11.969 -26.842 -16.548 -12.373 -26.041 -16.497 -11.893 -26.128 -16.787
3 16 -12.618 -24.606 -16.718 -12.7 -25.1 -16.533 -13.158 -24.486 -16.397
3 15 -10.893 -26.562 -17.242 -10.847 -26.638 -17.248 -11 -26.6 -17.172
4 15 -10.893 -26.562 -17.242 -11 -26.6 -17.172 -11.5 -26.2 -16.992 -11.211 -26.035 -17.199
3 15 -11.569 -25.441 -17.15 -11.211 -26.035 -17.199 -11.5 -26.2 -16.992
4 0 -11.286 -27.115 -16.876 -11 -26.6 -17.172 -10.847 -26.638 -17.248 -10.57 -27.097 -17.286
4 0 -11.893 -26.128 -16.787 -11.964 -25.1 -17.014 -11.775 -25.1 -17.121 -11.5 -26.2 -16.992
3 0 -11.775 -25.1 -17.121 -11.569 -25.441 -17.15 -11.5 -26.2 -16.992
3 0 -11.964 -25.1 -17.014 -11.988 -24.747 -17.092 -11.775 -25.1 -17.121
4 0 -11 -26.6 -17.172 -11.286 -27.115 -16.876 -11.825 -27.128 -16.567 -11.847 -26.812 -16.637
4 0 -11.5 -26.2 -16.992 -11 -26.6 -17.172 -11.847 -26.812 -16.637 -11.893 -26.128 -16.787
3 0 -10.707 -28.203 -16.927 -10.733 -28.412 -16.859 -10.9 -28.3 -16.792
4 0 -10.9 -28.3 -16.792 -11 -27.6 -16.914 -10.604 -27.369 -17.198 -10.707 -28.203 -16.927
4 0 -11.5 -27.5 -16.656 -11.286 -27.115 -16.876 -10.57 -27.097 -17.286 -11 -27.6 -16.914
3 0 -10.57 -27.097 -17.286 -10.604 -27.369 -17.198 -11 -27.6 -16.914
4 16 -10.9 -28.3 -16.792 -10.733 -28.412 -16.859 -10.952 -30.188 -16.281 -11.389 -28.658 -16.424
4 16 -11.636 -27.79 -16.505 -11.5 -27.5 -16.656 -11 -27.6 -16.914 -11.389 -28.658 -16.424
3 16 -11 -27.6 -16.914 -10.9 -28.3 -16.792 -11.389 -28.658 -16.424
3 0 -11.678 -27.643 -16.519 -11.732 -27.454 -16.536 -11.5 -27.5 -16.656
4 0 -11.286 -27.115 -16.876 -11.5 -27.5 -16.656 -11.732 -27.454 -16.536 -11.825 -27.128 -16.567
3 16 -11.636 -27.79 -16.505 -11.678 -27.643 -16.519 -11.5 -27.5 -16.656
3 0 -12.658 -25.476 -16.46 -12.373 -26.041 -16.497 -12.6 -26 -16.344
4 16 -12.6 -26 -16.344 -14.117 -24.831 -15.591 -13.158 -24.486 -16.397 -12.658 -25.476 -16.46
3 0 -11.825 -27.128 -16.567 -12.082 -26.871 -16.457 -11.969 -26.842 -16.548
3 0 -12.318 -26.634 -16.357 -12.881 -26.07 -16.117 -12.6 -26 -16.344
4 0 -12.318 -26.634 -16.357 -12.6 -26 -16.344 -12.373 -26.041 -16.497 -12.082 -26.871 -16.457
3 0 -12.373 -26.041 -16.497 -11.969 -26.842 -16.548 -12.082 -26.871 -16.457
3 16 -12.6 -26 -16.344 -12.881 -26.07 -16.117 -14.117 -24.831 -15.591
4 0 -12.008 -27.897 -16.237 -12.5 -27.7 -15.95 -12.5 -27.3 -16.056 -11.898 -27.42 -16.439
4 0 -12.5 -27.3 -16.056 -12.2 -26.9 -16.368 -12.082 -26.871 -16.457 -11.898 -27.42 -16.439
3 0 -12.082 -26.871 -16.457 -11.825 -27.128 -16.567 -11.898 -27.42 -16.439
4 0 -12.2 -26.9 -16.368 -12.8 -26.8 -15.981 -13.2 -26.4 -15.81 -13 -26.1 -16.027
4 0 -12.2 -26.9 -16.368 -13 -26.1 -16.027 -12.881 -26.07 -16.117 -12.318 -26.634 -16.357
3 0 -12.318 -26.634 -16.357 -12.082 -26.871 -16.457 -12.2 -26.9 -16.368
4 16 -12.391 -29.393 -15.579 -14.117 -24.831 -15.591 -13.2 -26.4 -15.81 -12.5 -27.7 -15.95
4 16 -13.2 -26.4 -15.81 -12.8 -26.8 -15.981 -12.5 -27.3 -16.056 -12.5 -27.7 -15.95
3 16 -12.5 -27.3 -16.056 -12.8 -26.8 -15.981 -12.2 -26.9 -16.368
3 16 -12.881 -26.07 -16.117 -13 -26.1 -16.027 -14.117 -24.831 -15.591
3 16 -13 -26.1 -16.027 -13.2 -26.4 -15.81 -14.117 -24.831 -15.591
3 16 -12.5 -27.7 -15.95 -12.008 -27.897 -16.237 -12.391 -29.393 -15.579
3 15 -5.187 -21.42 -20.795 -5.617 -21.851 -20.548 -5.761 -21.635 -20.557
4 15 -6.212 -20.956 -20.585 -5.7 -20.7 -20.814 -4.853 -21.085 -20.988 -5.761 -21.635 -20.557
3 15 -4.853 -21.085 -20.988 -5.187 -21.42 -20.795 -5.761 -21.635 -20.557
3 15 -6.509 -20.5 -20.605 -5.7 -20.7 -20.814 -6.212 -20.956 -20.585
4 0 -4.853 -21.085 -20.988 -5.7 -20.7 -20.814 -5.641 -20.228 -20.953 -4.556 -20.79 -21.159
4 0 -6.509 -20.5 -20.605 -6.9 -19.8 -20.658 -6.392 -19.839 -20.811 -5.7 -20.7 -20.814
3 0 -6.392 -19.839 -20.811 -5.641 -20.228 -20.953 -5.7 -20.7 -20.814
3 0 -6.937 -19.865 -20.63 -6.98 -19.8 -20.632 -6.9 -19.8 -20.658
3 0 -6.9 -19.8 -20.658 -6.509 -20.5 -20.605 -6.937 -19.865 -20.63
3 16 -6.392 -19.839 -20.811 -6.9 -19.8 -20.658 -7.249 -19.395 -20.649
3 16 -6.9 -19.8 -20.658 -6.98 -19.8 -20.632 -7.249 -19.395 -20.649
3 16 -0.795 -21.695 -21.73 -2.908 -22.581 -21.144 -2.399 -20.945 -21.836
3 0 -3.954 -20.577 -21.537 -3.793 -20.845 -21.398 -4.556 -20.79 -21.159
3 16 -3.579 -20.86 -21.465 -3.063 -20.263 -22.095 -2.399 -20.945 -21.836
4 16 -3.793 -20.845 -21.398 -3.954 -20.577 -21.537 -3.063 -20.263 -22.095 -3.579 -20.86 -21.465
3 0 -3.619 -21.809 -21.15 -4.251 -21.123 -21.155 -3.7 -21 -21.38
3 0 -4.556 -20.79 -21.159 -3.793 -20.845 -21.398 -4.251 -21.123 -21.155
3 0 -3.793 -20.845 -21.398 -3.7 -21 -21.38 -4.251 -21.123 -21.155
3 16 -3.513 -21.924 -21.149 -2.399 -20.945 -21.836 -2.908 -22.581 -21.144
4 16 -3.619 -21.809 -21.15 -3.7 -21 -21.38 -3.579 -20.86 -21.465 -3.513 -21.924 -21.149
3 16 -3.579 -20.86 -21.465 -2.399 -20.945 -21.836 -3.513 -21.924 -21.149
3 16 -3.793 -20.845 -21.398 -3.579 -20.86 -21.465 -3.7 -21 -21.38
3 15 -4.753 -23.112 -20.534 -4.84 -22.984 -20.536 -4.7 -22.9 -20.591
4 15 -5.324 -22.279 -20.543 -4.791 -22.074 -20.729 -4.613 -22.121 -20.768 -4.84 -22.984 -20.536
3 15 -4.613 -22.121 -20.768 -4.7 -22.9 -20.591 -4.84 -22.984 -20.536
3 15 -5.324 -22.279 -20.543 -5.617 -21.851 -20.548 -4.791 -22.074 -20.729
4 0 -4.753 -23.112 -20.534 -4.7 -22.9 -20.591 -3.703 -23.409 -20.762 -4.192 -23.93 -20.526
4 0 -3.628 -22.387 -20.985 -3.703 -23.409 -20.762 -4.7 -22.9 -20.591 -4.613 -22.121 -20.768
3 16 -3.703 -23.409 -20.762 -3.628 -22.387 -20.985 -2.908 -22.581 -21.144
3 0 -4.192 -23.93 -20.526 -3.703 -23.409 -20.762 -3.964 -24.127 -20.536
4 16 -3.964 -24.127 -20.536 -3.703 -23.409 -20.762 -2.908 -22.581 -21.144 -2.954 -25.001 -20.584
3 16 -2.908 -22.581 -21.144 -0.586 -22.709 -21.396 -0.83 -24.658 -20.902
3 15 -4.613 -22.121 -20.768 -4.791 -22.074 -20.729 -4.6 -22 -20.806
4 15 -5.617 -21.851 -20.548 -5.187 -21.42 -20.795 -4.6 -21.2 -21.031 -4.791 -22.074 -20.729
3 15 -4.6 -21.2 -21.031 -4.6 -22 -20.806 -4.791 -22.074 -20.729
3 15 -4.853 -21.085 -20.988 -4.6 -21.2 -21.031 -5.187 -21.42 -20.795
4 0 -4.6 -22 -20.806 -3.6 -22 -21.102 -3.628 -22.387 -20.985 -4.613 -22.121 -20.768
4 0 -4.6 -21.2 -21.031 -4.251 -21.123 -21.155 -3.619 -21.809 -21.15 -4.6 -22 -20.806
3 0 -3.619 -21.809 -21.15 -3.6 -22 -21.102 -4.6 -22 -20.806
3 0 -4.556 -20.79 -21.159 -4.251 -21.123 -21.155 -4.6 -21.2 -21.031
3 0 -4.853 -21.085 -20.988 -4.556 -20.79 -21.159 -4.6 -21.2 -21.031
4 16 -3.6 -22 -21.102 -3.513 -21.924 -21.149 -2.908 -22.581 -21.144 -3.628 -22.387 -20.985
3 16 -3.619 -21.809 -21.15 -3.513 -21.924 -21.149 -3.6 -22 -21.102
4 15 -5.683 -23.753 -20.134 -5.7 -23.5 -20.182 -4.84 -22.984 -20.536 -4.935 -23.842 -20.33
3 15 -4.84 -22.984 -20.536 -4.753 -23.112 -20.534 -4.935 -23.842 -20.33
4 15 -5.861 -22.693 -20.303 -5.794 -22.459 -20.371 -5.324 -22.279 -20.543 -5.7 -23.5 -20.182
3 15 -5.324 -22.279 -20.543 -4.84 -22.984 -20.536 -5.7 -23.5 -20.182
3 15 -5.794 -22.459 -20.371 -5.617 -21.851 -20.548 -5.324 -22.279 -20.543
3 0 -5.861 -22.693 -20.303 -5.7 -23.5 -20.182 -6.153 -23.697 -20.01
3 0 -5.7 -23.5 -20.182 -5.683 -23.753 -20.134 -6.153 -23.697 -20.01
3 0 -4.753 -23.112 -20.534 -4.192 -23.93 -20.526 -4.935 -23.842 -20.33
3 16 -2.199 -26.427 -20.349 -3.752 -26.729 -19.977 -2.954 -25.001 -20.584
3 16 -3.752 -26.729 -19.977 -2.199 -26.427 -20.349 -2.022 -28.441 -19.929
3 16 -0.667 -27.062 -20.331 -2.022 -28.441 -19.929 -2.199 -26.427 -20.349
3 0 -3.964 -24.127 -20.536 -4.102 -24.5 -20.414 -4.192 -23.93 -20.526
3 16 -3.986 -25.237 -20.269 -2.954 -25.001 -20.584 -3.752 -26.729 -19.977
3 16 -4.102 -24.5 -20.414 -3.964 -24.127 -20.536 -2.954 -25.001 -20.584
3 16 -4.102 -24.5 -20.414 -2.954 -25.001 -20.584 -3.986 -25.237 -20.269
3 0 -5.3 -26.1 -19.66 -5.622 -26.363 -19.499 -6.658 -26.161 -19.234
4 0 -4.7 -25.4 -20.013 -5.3 -26.1 -19.66 -6.658 -26.161 -19.234 -5.449 -25.067 -19.867
4 0 -5.449 -25.067 -19.867 -4.584 -24.285 -20.32 -4.102 -24.5 -20.414 -4.7 -25.4 -20.013
3 0 -4.584 -24.285 -20.32 -4.192 -23.93 -20.526 -4.102 -24.5 -20.414
3 16 -5.622 -26.363 -19.499 -5.3 -26.1 -19.66 -3.752 -26.729 -19.977
4 16 -4.7 -25.4 -20.013 -3.986 -25.237 -20.269 -3.752 -26.729 -19.977 -5.3 -26.1 -19.66
3 16 -4.102 -24.5 -20.414 -3.986 -25.237 -20.269 -4.7 -25.4 -20.013
3 0 -5.622 -26.363 -19.499 -6.187 -26.826 -19.255 -6.658 -26.161 -19.234
4 16 -6.187 -26.826 -19.255 -5.622 -26.363 -19.499 -3.752 -26.729 -19.977 -4.814 -28.767 -19.316
4 15 -5 -24.1 -20.246 -5.6 -25 -19.84 -5.683 -23.753 -20.134 -4.935 -23.842 -20.33
4 0 -5.6 -25 -19.84 -6.658 -26.161 -19.234 -6.153 -23.697 -20.01 -5.683 -23.753 -20.134
3 0 -5.6 -25 -19.84 -5.449 -25.067 -19.867 -6.658 -26.161 -19.234
4 0 -5.449 -25.067 -19.867 -5.6 -25 -19.84 -5 -24.1 -20.246 -4.584 -24.285 -20.32
4 0 -5 -24.1 -20.246 -4.935 -23.842 -20.33 -4.192 -23.93 -20.526 -4.584 -24.285 -20.32
3 16 -2.022 -28.441 -19.929 -4.814 -28.767 -19.316 -3.752 -26.729 -19.977
3 15 -5.794 -22.459 -20.371 -5.861 -22.693 -20.303 -5.9 -22.5 -20.328
4 15 -5.794 -22.459 -20.371 -5.9 -22.5 -20.328 -6.108 -22.014 -20.358 -5.617 -21.851 -20.548
3 0 -6.108 -22.014 -20.358 -5.9 -22.5 -20.328 -7.036 -22.322 -19.998
4 0 -5.9 -22.5 -20.328 -5.861 -22.693 -20.303 -6.153 -23.697 -20.01 -7.036 -22.322 -19.998
4 15 -6.108 -22.014 -20.358 -6.2 -21.8 -20.382 -5.761 -21.635 -20.557 -5.617 -21.851 -20.548
4 15 -6.2 -21.8 -20.382 -6.7 -21.2 -20.376 -6.212 -20.956 -20.585 -5.761 -21.635 -20.557
4 15 -7.157 -20.667 -20.366 -7.169 -20.5 -20.403 -6.509 -20.5 -20.605 -6.7 -21.2 -20.376
3 15 -6.509 -20.5 -20.605 -6.212 -20.956 -20.585 -6.7 -21.2 -20.376
3 0 -7.157 -20.667 -20.366 -6.7 -21.2 -20.376 -7.036 -22.322 -19.998
4 0 -6.2 -21.8 -20.382 -6.108 -22.014 -20.358 -7.036 -22.322 -19.998 -6.7 -21.2 -20.376
4 0 -7.22 -19.8 -20.559 -6.98 -19.8 -20.632 -6.937 -19.865 -20.63 -7.184 -20.296 -20.449
4 0 -6.937 -19.865 -20.63 -6.509 -20.5 -20.605 -7.169 -20.5 -20.403 -7.184 -20.296 -20.449
3 16 -6.98 -19.8 -20.632 -7.22 -19.8 -20.559 -7.249 -19.395 -20.649
3 15 -7.169 -20.5 -20.403 -7.157 -20.667 -20.366 -7.3 -20.5 -20.35
4 0 -7.3 -20.5 -20.35 -7.157 -20.667 -20.366 -7.036 -22.322 -19.998 -9.051 -20.174 -19.727
4 0 -9.051 -20.174 -19.727 -7.8 -19.8 -20.325 -7.22 -19.8 -20.559 -7.3 -20.5 -20.35
3 0 -7.22 -19.8 -20.559 -7.184 -20.296 -20.449 -7.3 -20.5 -20.35
3 0 -7.184 -20.296 -20.449 -7.169 -20.5 -20.403 -7.3 -20.5 -20.35
3 16 -7.249 -19.395 -20.649 -7.8 -19.8 -20.325 -9.051 -20.174 -19.727
3 16 -7.22 -19.8 -20.559 -7.8 -19.8 -20.325 -7.249 -19.395 -20.649
3 0 -9.051 -20.174 -19.727 -7.036 -22.322 -19.998 -8.392 -22.961 -19.371
3 0 -7.036 -22.322 -19.998 -6.153 -23.697 -20.01 -8.392 -22.961 -19.371
3 0 -6.658 -26.161 -19.234 -8.392 -22.961 -19.371 -6.153 -23.697 -20.01
4 0 -10.2 -20.7 -19.041 -9.051 -20.174 -19.727 -9.971 -22.788 -18.666 -10.41 -21.644 -18.717
3 0 -10.41 -21.644 -18.717 -10.638 -21.05 -18.744 -10.2 -20.7 -19.041
3 16 -10.2 -20.7 -19.041 -10.638 -21.05 -18.744 -10.964 -20.199 -18.782
3 16 -10.964 -20.199 -18.782 -9.051 -20.174 -19.727 -10.2 -20.7 -19.041
3 0 -9.971 -22.788 -18.666 -9.051 -20.174 -19.727 -8.392 -22.961 -19.371
3 0 -8.392 -22.961 -19.371 -6.658 -26.161 -19.234 -9.15 -24.599 -18.609
3 0 -9.15 -24.599 -18.609 -9.971 -22.788 -18.666 -8.392 -22.961 -19.371
3 15 -9.901 -25.679 -17.967 -10.083 -25.941 -17.812 -10.065 -25.449 -17.945
4 0 -10.065 -25.449 -17.945 -10.062 -25.368 -17.967 -9.15 -24.599 -18.609 -9.901 -25.679 -17.967
3 0 -9.15 -24.599 -18.609 -10.062 -25.368 -17.967 -9.971 -22.788 -18.666
3 0 -6.486 -27.035 -19.122 -7.443 -27.428 -18.668 -6.658 -26.161 -19.234
3 16 -7.443 -27.428 -18.668 -6.486 -27.035 -19.122 -6.175 -28.624 -18.918
3 0 -6.658 -26.161 -19.234 -7.443 -27.428 -18.668 -9.15 -24.599 -18.609
3 15 -8.914 -26.9 -18.181 -8.927 -26.773 -18.205 -8.8 -26.9 -18.228
4 0 -8.8 -26.9 -18.228 -9.15 -24.599 -18.609 -7.443 -27.428 -18.668 -8.448 -27.603 -18.213
4 0 -8.898 -27.063 -18.151 -8.8 -26.9 -18.228 -8.448 -27.603 -18.213 -8.835 -27.671 -18.038
3 0 -8.898 -27.063 -18.151 -8.914 -26.9 -18.181 -8.8 -26.9 -18.228
3 0 -8.8 -26.9 -18.228 -8.927 -26.773 -18.205 -9.15 -24.599 -18.609
4 0 -6.4 -27 -19.155 -6.486 -27.035 -19.122 -6.658 -26.161 -19.234 -6.187 -26.826 -19.255
4 16 -6.4 -27 -19.155 -4.814 -28.767 -19.316 -6.175 -28.624 -18.918 -6.486 -27.035 -19.122
3 16 -6.4 -27 -19.155 -6.187 -26.826 -19.255 -4.814 -28.767 -19.316
3 16 -6.92 -29.917 -18.329 -7.443 -27.428 -18.668 -6.175 -28.624 -18.918
3 0 -8.4 -27.7 -18.212 -8.448 -27.603 -18.213 -7.443 -27.428 -18.668
3 0 -8.531 -28.028 -18.084 -8.672 -27.863 -18.063 -8.4 -27.7 -18.212
4 0 -8.448 -27.603 -18.213 -8.4 -27.7 -18.212 -8.672 -27.863 -18.063 -8.835 -27.671 -18.038
4 16 -8.4 -27.7 -18.212 -7.443 -27.428 -18.668 -6.92 -29.917 -18.329 -8.531 -28.028 -18.084
3 16 -10.952 -30.188 -16.281 -9.937 -29.045 -17.178 -9.675 -31.323 -16.593
3 16 -12.391 -29.393 -15.579 -11.389 -28.658 -16.424 -10.952 -30.188 -16.281
3 16 -11.636 -27.79 -16.505 -11.389 -28.658 -16.424 -12.391 -29.393 -15.579
3 0 -12.008 -27.897 -16.237 -11.898 -27.42 -16.439 -11.732 -27.454 -16.536
3 0 -11.732 -27.454 -16.536 -11.678 -27.643 -16.519 -12.008 -27.897 -16.237
3 0 -11.898 -27.42 -16.439 -11.825 -27.128 -16.567 -11.732 -27.454 -16.536
4 16 -12.391 -29.393 -15.579 -12.008 -27.897 -16.237 -11.678 -27.643 -16.519 -11.636 -27.79 -16.505
3 16 -6.175 -28.624 -18.918 -4.814 -28.767 -19.316 -6.92 -29.917 -18.329
4 0 -9.367 -28.333 -17.624 -9.284 -28.23 -17.688 -8.744 -27.906 -18.02 -9.1 -28.6 -17.679
3 0 -8.744 -27.906 -18.02 -8.622 -28.218 -17.997 -9.1 -28.6 -17.679
3 0 -9.284 -28.23 -17.688 -8.835 -27.671 -18.038 -8.744 -27.906 -18.02
3 16 -9.1 -28.6 -17.679 -8.622 -28.218 -17.997 -7.8 -30.326 -17.84
3 16 -9.367 -28.333 -17.624 -9.1 -28.6 -17.679 -9.937 -29.045 -17.178
3 16 -9.937 -29.045 -17.178 -9.1 -28.6 -17.679 -7.8 -30.326 -17.84
3 16 -9.675 -31.323 -16.593 -9.937 -29.045 -17.178 -7.8 -30.326 -17.84
4 0 -8.744 -27.906 -18.02 -8.672 -27.863 -18.063 -8.531 -28.028 -18.084 -8.622 -28.218 -17.997
3 0 -8.531 -28.028 -18.084 -8.6 -28.2 -18.011 -8.622 -28.218 -17.997
3 0 -8.744 -27.906 -18.02 -8.835 -27.671 -18.038 -8.672 -27.863 -18.063
3 16 -8.6 -28.2 -18.011 -8.531 -28.028 -18.084 -6.92 -29.917 -18.329
4 16 -8.6 -28.2 -18.011 -6.92 -29.917 -18.329 -7.8 -30.326 -17.84 -8.622 -28.218 -17.997
4 0 -4.556 -20.79 -21.159 -5.641 -20.228 -20.953 -5.6 -19.9 -21.137 -4.604 -20.262 -21.403
3 0 -5.641 -20.228 -20.953 -6.392 -19.839 -20.811 -5.6 -19.9 -21.137
4 16 -5.6 -19.9 -21.137 -6.392 -19.839 -20.811 -7.249 -19.395 -20.649 -4.753 -18.531 -22.209
3 16 -4.604 -20.262 -21.403 -5.6 -19.9 -21.137 -4.753 -18.531 -22.209
4 0 -4.556 -20.79 -21.159 -4.5 -20.3 -21.431 -4 -20.5 -21.555 -3.954 -20.577 -21.537
3 0 -4.604 -20.262 -21.403 -4.5 -20.3 -21.431 -4.556 -20.79 -21.159
4 16 -4.5 -20.3 -21.431 -4.604 -20.262 -21.403 -4.753 -18.531 -22.209 -3.063 -20.263 -22.095
3 16 -3.954 -20.577 -21.537 -4 -20.5 -21.555 -3.063 -20.263 -22.095
3 16 -4 -20.5 -21.555 -4.5 -20.3 -21.431 -3.063 -20.263 -22.095
5 24 0 -22.761 -21.407 -0.795 -21.696 -21.73 0 -21.596 -21.768 0 -23.222 -21.251
5 24 0 -23.222 -21.251 -0.586 -22.709 -21.396 -0.795 -21.696 -21.73 0 -24.399 -20.949
5 24 -0.586 -22.709 -21.396 -0.795 -21.696 -21.73 0 -23.222 -21.251 -2.908 -22.581 -21.144
5 24 -2.908 -22.581 -21.144 -0.795 -21.696 -21.73 -0.586 -22.709 -21.396 -2.399 -20.945 -21.836
5 24 -0.586 -22.709 -21.396 -2.908 -22.581 -21.144 -0.795 -21.696 -21.73 -0.83 -24.658 -20.902
5 24 0 -24.399 -20.949 -0.83 -24.658 -20.902 -0.586 -22.709 -21.396 0 -24.924 -20.837
5 24 -0.83 -24.658 -20.902 -0.586 -22.709 -21.396 0 -24.399 -20.949 -2.908 -22.581 -21.144
5 24 -2.908 -22.581 -21.144 -0.83 -24.658 -20.902 -2.954 -25.001 -20.584 -0.586 -22.709 -21.396
5 24 -2.954 -25.001 -20.584 -2.908 -22.581 -21.144 -0.83 -24.658 -20.902 -4.192 -23.93 -20.526
5 24 0 -24.924 -20.837 -0.83 -24.658 -20.902 0 -24.399 -20.949 0 -26.395 -20.488
5 24 -0.667 -27.062 -20.332 -0.83 -24.658 -20.902 0 -26.395 -20.488 -2.198 -26.427 -20.349
5 24 -0.83 -24.658 -20.902 -2.198 -26.427 -20.349 -2.954 -25.001 -20.584 -0.667 -27.062 -20.332
5 24 -2.198 -26.427 -20.349 -2.954 -25.001 -20.584 -0.83 -24.658 -20.902 -3.752 -26.729 -19.977
5 24 -0.667 -27.062 -20.332 -2.198 -26.427 -20.349 -0.83 -24.658 -20.902 -2.022 -28.441 -19.929
5 24 -9.15 -24.599 -18.609 -8.835 -27.671 -18.038 -10.083 -25.941 -17.812 -7.443 -27.428 -18.668
5 24 -10.083 -25.941 -17.812 -9.15 -24.599 -18.609 -8.835 -27.671 -18.038 -9.971 -22.788 -18.666
5 24 -8.835 -27.671 -18.038 -10.57 -27.097 -17.286 -10.083 -25.941 -17.812 -9.937 -29.045 -17.178
5 24 -10.57 -27.097 -17.286 -10.083 -25.941 -17.812 -8.835 -27.671 -18.038 -11.264 -23.493 -17.846
5 24 -8.835 -27.671 -18.038 -9.937 -29.045 -17.178 -10.57 -27.097 -17.286 -7.8 -30.326 -17.84
5 24 -9.937 -29.045 -17.178 -10.57 -27.097 -17.286 -8.835 -27.671 -18.038 -10.952 -30.188 -16.281
5 24 -9.937 -29.045 -17.178 -10.952 -30.188 -16.281 -10.57 -27.097 -17.286 -9.675 -31.323 -16.593
5 24 -10.952 -30.188 -16.281 -10.57 -27.097 -17.286 -9.937 -29.045 -17.178 -11.825 -27.128 -16.567
5 24 -9.971 -22.788 -18.666 -10.083 -25.941 -17.812 -11.264 -23.493 -17.846 -9.15 -24.599 -18.609
5 24 -11.264 -23.493 -17.846 -9.971 -22.788 -18.666 -10.083 -25.941 -17.812 -10.964 -20.199 -18.783
5 24 -11.264 -23.493 -17.846 -10.964 -20.199 -18.783 -9.971 -22.788 -18.666 -12.07 -21.345 -17.892
5 24 -10.964 -20.199 -18.783 -9.971 -22.788 -18.666 -11.264 -23.493 -17.846 -9.051 -20.174 -19.727
5 24 -11.264 -23.493 -17.846 -12.07 -21.345 -17.892 -10.964 -20.199 -18.783 -13.364 -21.894 -16.938
5 24 -11.264 -23.493 -17.846 -11.988 -24.747 -17.092 -13.364 -21.894 -16.938 -10.57 -27.097 -17.286
5 24 -11.988 -24.747 -17.092 -13.364 -21.894 -16.938 -11.264 -23.493 -17.846 -13.158 -24.486 -16.397
5 24 -10.57 -27.097 -17.286 -11.264 -23.493 -17.846 -10.083 -25.941 -17.812 -11.988 -24.747 -17.092
5 24 -11.988 -24.747 -17.092 -11.825 -27.128 -16.567 -13.158 -24.486 -16.397 -10.57 -27.097 -17.286
5 24 -11.825 -27.128 -16.567 -13.158 -24.486 -16.397 -11.988 -24.747 -17.092 -14.117 -24.831 -15.592
5 24 -10.57 -27.097 -17.286 -11.825 -27.128 -16.567 -11.988 -24.747 -17.092 -10.952 -30.188 -16.281
5 24 -10.952 -30.188 -16.281 -11.825 -27.128 -16.567 -10.57 -27.097 -17.286 -12.391 -29.393 -15.579
5 24 -11.825 -27.128 -16.567 -14.117 -24.831 -15.592 -13.158 -24.486 -16.397 -12.391 -29.393 -15.579
5 24 -11.825 -27.128 -16.567 -12.391 -29.393 -15.579 -14.117 -24.831 -15.592 -10.952 -30.188 -16.281
5 24 -5.617 -21.851 -20.548 -7.249 -19.395 -20.649 -4.558 -20.789 -21.158 -7.036 -22.322 -19.998
5 24 -7.249 -19.395 -20.649 -4.558 -20.789 -21.158 -5.617 -21.851 -20.548 -4.753 -18.531 -22.209
5 24 -4.558 -20.789 -21.158 -5.617 -21.851 -20.548 -7.249 -19.395 -20.649 -2.908 -22.581 -21.144
5 24 -2.908 -22.581 -21.144 -2.399 -20.945 -21.836 -0.795 -21.696 -21.73 -4.558 -20.789 -21.158
5 24 -2.399 -20.945 -21.836 -4.558 -20.789 -21.158 -3.063 -20.263 -22.095 -2.908 -22.581 -21.144
5 24 -4.558 -20.789 -21.158 -3.063 -20.263 -22.095 -2.399 -20.945 -21.836 -4.753 -18.531 -22.209
5 24 -2.908 -22.581 -21.144 -4.558 -20.789 -21.158 -2.399 -20.945 -21.836 -5.617 -21.851 -20.548
5 24 -4.192 -23.93 -20.526 -5.617 -21.851 -20.548 -2.908 -22.581 -21.144 -6.153 -23.697 -20.01
5 24 -5.617 -21.851 -20.548 -2.908 -22.581 -21.144 -4.192 -23.93 -20.526 -4.558 -20.789 -21.158
5 24 -2.908 -22.581 -21.144 -4.192 -23.93 -20.526 -5.617 -21.851 -20.548 -2.954 -25.001 -20.584
5 24 -2.954 -25.001 -20.584 -4.192 -23.93 -20.526 -2.908 -22.581 -21.144 -3.752 -26.729 -19.977
5 24 -4.192 -23.93 -20.526 -6.153 -23.697 -20.01 -5.617 -21.851 -20.548 -6.658 -26.161 -19.234
5 24 -6.153 -23.697 -20.01 -5.617 -21.851 -20.548 -4.192 -23.93 -20.526 -7.036 -22.322 -19.998
5 24 -2.198 -26.427 -20.349 -3.752 -26.729 -19.977 -2.954 -25.001 -20.584 -2.022 -28.441 -19.929
5 24 -3.752 -26.729 -19.977 -2.954 -25.001 -20.584 -2.198 -26.427 -20.349 -4.192 -23.93 -20.526
5 24 -2.198 -26.427 -20.349 -2.022 -28.441 -19.929 -3.752 -26.729 -19.977 -0.667 -27.062 -20.332
5 24 -3.752 -26.729 -19.977 -4.192 -23.93 -20.526 -2.954 -25.001 -20.584 -6.658 -26.161 -19.234
5 24 -3.752 -26.729 -19.977 -6.658 -26.161 -19.234 -4.192 -23.93 -20.526 -4.814 -28.767 -19.316
5 24 -3.752 -26.729 -19.977 -4.814 -28.767 -19.316 -6.658 -26.161 -19.234 -2.022 -28.441 -19.929
5 24 -4.814 -28.767 -19.316 -6.658 -26.161 -19.234 -3.752 -26.729 -19.977 -6.175 -28.624 -18.918
5 24 -6.658 -26.161 -19.234 -6.153 -23.697 -20.01 -4.192 -23.93 -20.526 -8.392 -22.961 -19.371
5 24 -6.153 -23.697 -20.01 -7.036 -22.322 -19.998 -5.617 -21.851 -20.548 -8.392 -22.961 -19.371
5 24 -7.036 -22.322 -19.998 -5.617 -21.851 -20.548 -6.153 -23.697 -20.01 -7.249 -19.395 -20.649
5 24 -7.036 -22.322 -19.998 -7.249 -19.395 -20.649 -5.617 -21.851 -20.548 -9.051 -20.174 -19.727
5 24 -7.036 -22.322 -19.998 -9.051 -20.174 -19.727 -7.249 -19.395 -20.649 -8.392 -22.961 -19.371
5 24 -7.036 -22.322 -19.998 -8.392 -22.961 -19.371 -9.051 -20.174 -19.727 -6.153 -23.697 -20.01
5 24 -8.392 -22.961 -19.371 -9.051 -20.174 -19.727 -7.036 -22.322 -19.998 -9.971 -22.788 -18.666
5 24 -6.153 -23.697 -20.01 -8.392 -22.961 -19.371 -7.036 -22.322 -19.998 -6.658 -26.161 -19.234
5 24 -6.658 -26.161 -19.234 -8.392 -22.961 -19.371 -6.153 -23.697 -20.01 -9.15 -24.599 -18.609
5 24 -9.051 -20.174 -19.727 -9.971 -22.788 -18.666 -10.964 -20.199 -18.783 -8.392 -22.961 -19.371
5 24 -6.658 -26.161 -19.234 -9.15 -24.599 -18.609 -8.392 -22.961 -19.371 -7.443 -27.428 -18.668
5 24 -9.15 -24.599 -18.609 -8.392 -22.961 -19.371 -6.658 -26.161 -19.234 -9.971 -22.788 -18.666
5 24 -9.15 -24.599 -18.609 -9.971 -22.788 -18.666 -8.392 -22.961 -19.371 -10.083 -25.941 -17.812
5 24 -6.658 -26.161 -19.234 -6.175 -28.624 -18.918 -7.443 -27.428 -18.668 -4.814 -28.767 -19.316
5 24 -6.175 -28.624 -18.918 -7.443 -27.428 -18.668 -6.658 -26.161 -19.234 -6.92 -29.917 -18.329
5 24 -7.443 -27.428 -18.668 -6.658 -26.161 -19.234 -6.175 -28.624 -18.918 -9.15 -24.599 -18.609
5 24 -7.443 -27.428 -18.668 -9.15 -24.599 -18.609 -6.658 -26.161 -19.234 -8.835 -27.671 -18.038
5 24 -7.443 -27.428 -18.668 -8.835 -27.671 -18.038 -9.15 -24.599 -18.609 -6.92 -29.917 -18.329
5 24 -4.814 -28.767 -19.316 -6.175 -28.624 -18.918 -6.658 -26.161 -19.234 -6.92 -29.917 -18.329
5 24 -6.175 -28.624 -18.918 -6.92 -29.917 -18.329 -7.443 -27.428 -18.668 -4.814 -28.767 -19.316
5 24 -6.92 -29.917 -18.329 -8.835 -27.671 -18.038 -7.443 -27.428 -18.668 -7.8 -30.326 -17.84
5 24 -9.937 -29.045 -17.178 -9.675 -31.323 -16.593 -10.952 -30.188 -16.281 -7.8 -30.326 -17.84
5 24 -8.835 -27.671 -18.038 -7.8 -30.326 -17.84 -9.937 -29.045 -17.178 -6.92 -29.917 -18.329
5 24 -7.8 -30.326 -17.84 -9.937 -29.045 -17.178 -8.835 -27.671 -18.038 -9.675 -31.323 -16.593
